ISO-10303-21;
HEADER;
FILE_DESCRIPTION(('CATIA V5 STEP Exchange'),'2;1');

FILE_NAME('D:\\salome\\mesh\\DT\\DT.stp','2020-12-17T20:15:09+00:00',('none'),('none'),'CATIA Version 5 Release 19 SP 8 (IN-10)','CATIA V5 STEP AP203','none');

FILE_SCHEMA(('CONFIG_CONTROL_DESIGN'));

ENDSEC;
/* file written by CATIA V5R19 */
DATA;
#5=PRODUCT('F267.01-5800().WP','','F267.01-5800().WP',(#2)) ;
#1=APPLICATION_CONTEXT('configuration controlled 3D design of mechanical parts and assemblies') ;
#14=PRODUCT_DEFINITION('',' ',#6,#3) ;
#16=SECURITY_CLASSIFICATION(' ',' ',#15) ;
#15=SECURITY_CLASSIFICATION_LEVEL('unclassified') ;
#47=CARTESIAN_POINT(' ',(0.,0.,0.)) ;
#52=CARTESIAN_POINT('Axis2P3D Location',(2030.34482759,1551.72413793,2950.86206897)) ;
#57=CARTESIAN_POINT('Line Origine',(5172.4137931,1551.72413793,1830.17241379)) ;
#61=CARTESIAN_POINT('Vertex',(5172.4137931,1551.72413793,2433.62068966)) ;
#63=CARTESIAN_POINT('Vertex',(5172.4137931,1551.72413793,1226.72413793)) ;
#66=CARTESIAN_POINT('Line Origine',(3703.37213503,1551.72413793,1712.12800674)) ;
#70=CARTESIAN_POINT('Vertex',(2234.33047695,1551.72413793,2197.53187555)) ;
#73=CARTESIAN_POINT('Axis2P3D Location',(1604.31034483,1551.72413793,290.818973168)) ;
#77=CARTESIAN_POINT('Vertex',(2030.34482759,1551.72413793,2253.20886268)) ;
#80=CARTESIAN_POINT('Line Origine',(2030.34482759,1551.72413793,2594.90368254)) ;
#84=CARTESIAN_POINT('Vertex',(2030.34482759,1551.72413793,2936.5985024)) ;
#87=CARTESIAN_POINT('Axis2P3D Location',(1814.65517241,1551.72413793,1312.93103449)) ;
#91=CARTESIAN_POINT('Vertex',(2073.85662557,1551.72413793,2930.22280791)) ;
#94=CARTESIAN_POINT('Line Origine',(3623.13520934,1551.72413793,2681.92174878)) ;
#108=CARTESIAN_POINT('Axis2P3D Location',(5172.4137931,862.068965517,1830.17241379)) ;
#113=CARTESIAN_POINT('Line Origine',(5172.4137931,862.068965517,1226.72413793)) ;
#117=CARTESIAN_POINT('Vertex',(5172.4137931,172.413793103,1226.72413793)) ;
#120=CARTESIAN_POINT('Line Origine',(5172.4137931,862.068965517,2433.62068966)) ;
#124=CARTESIAN_POINT('Vertex',(5172.4137931,172.413793103,2433.62068966)) ;
#127=CARTESIAN_POINT('Line Origine',(5172.4137931,172.413793103,1830.17241379)) ;
#139=CARTESIAN_POINT('Axis2P3D Location',(5172.4137931,4.66949378675E-013,1226.72413793)) ;
#144=CARTESIAN_POINT('Line Origine',(3791.2818131,172.413793103,1683.08070396)) ;
#148=CARTESIAN_POINT('Vertex',(2410.1498331,172.413793103,2139.43726998)) ;
#152=CARTESIAN_POINT('Control Point',(2234.33047695,161.162139032,2197.53187555)) ;
#153=CARTESIAN_POINT('Control Point',(2269.32128679,165.659067195,2185.97013775)) ;
#154=CARTESIAN_POINT('Control Point',(2304.44192473,169.035504224,2174.36550187)) ;
#155=CARTESIAN_POINT('Control Point',(2339.64909253,171.287697187,2162.73227461)) ;
#156=CARTESIAN_POINT('Control Point',(2374.8994628,172.413793104,2151.0847723)) ;
#157=CARTESIAN_POINT('Control Point',(2410.1498331,172.413793103,2139.43726998)) ;
#158=CARTESIAN_POINT('Vertex',(2234.33047695,161.162139032,2197.53187555)) ;
#161=CARTESIAN_POINT('Line Origine',(2234.33047695,856.443138482,2197.53187555)) ;
#174=CARTESIAN_POINT('Axis2P3D Location',(1604.31034483,1.33850728894E-013,290.818973168)) ;
#180=CARTESIAN_POINT('Control Point',(1893.3434331,71.9342315569,2278.01280691)) ;
#181=CARTESIAN_POINT('Control Point',(1960.04953832,98.8917794585,2268.31054673)) ;
#182=CARTESIAN_POINT('Control Point',(2028.1289388,121.345459081,2255.55104677)) ;
#183=CARTESIAN_POINT('Control Point',(2096.97654984,139.161859346,2239.51277125)) ;
#184=CARTESIAN_POINT('Control Point',(2165.90506691,152.368282731,2220.14114505)) ;
#185=CARTESIAN_POINT('Control Point',(2234.33047695,161.162139032,2197.53187555)) ;
#186=CARTESIAN_POINT('Vertex',(1893.3434331,71.9342315597,2278.01280691)) ;
#190=CARTESIAN_POINT('Control Point',(1893.34343311,-71.9342315612,2278.01280691)) ;
#191=CARTESIAN_POINT('Control Point',(1888.041669,-69.7916606608,2278.78393715)) ;
#192=CARTESIAN_POINT('Control Point',(1882.93155473,-67.1583246429,2279.50913713)) ;
#193=CARTESIAN_POINT('Control Point',(1878.07359121,-64.056155137,2280.18224218)) ;
#194=CARTESIAN_POINT('Control Point',(1864.49548401,-53.4958360314,2282.0235502)) ;
#195=CARTESIAN_POINT('Control Point',(1854.11999592,-39.4462387963,2283.33850692)) ;
#196=CARTESIAN_POINT('Control Point',(1849.02710896,-28.8998449826,2283.95891625)) ;
#197=CARTESIAN_POINT('Control Point',(1842.97596592,-6.4248934426,2284.6907878)) ;
#198=CARTESIAN_POINT('Control Point',(1845.34077583,16.7386071687,2284.40411461)) ;
#199=CARTESIAN_POINT('Control Point',(1848.6695913,27.9596738984,2284.00683099)) ;
#200=CARTESIAN_POINT('Control Point',(1857.82067887,45.7701097844,2282.88094352)) ;
#201=CARTESIAN_POINT('Control Point',(1871.87278675,59.7361502682,2281.03177914)) ;
#202=CARTESIAN_POINT('Control Point',(1878.5151766,64.7705812076,2280.13233007)) ;
#203=CARTESIAN_POINT('Control Point',(1885.73179253,68.8581838022,2279.11990373)) ;
#204=CARTESIAN_POINT('Control Point',(1893.34343311,71.9342315612,2278.01280691)) ;
#205=CARTESIAN_POINT('Vertex',(1893.3434331,-71.9342315597,2278.01280691)) ;
#209=CARTESIAN_POINT('Control Point',(1893.34343309,-71.9342315528,2278.01280691)) ;
#210=CARTESIAN_POINT('Control Point',(1960.04953795,-98.8917793105,2268.31054679)) ;
#211=CARTESIAN_POINT('Control Point',(2028.12893957,-121.345459338,2255.5510466)) ;
#212=CARTESIAN_POINT('Control Point',(2096.97654927,-139.161859239,2239.51277142)) ;
#213=CARTESIAN_POINT('Control Point',(2165.90506728,-152.368282779,2220.14114493)) ;
#214=CARTESIAN_POINT('Control Point',(2234.33047695,-161.162139032,2197.53187555)) ;
#215=CARTESIAN_POINT('Vertex',(2234.33047695,-161.162139032,2197.53187555)) ;
#218=CARTESIAN_POINT('Line Origine',(2234.33047695,4.54747350886E-013,2197.53187555)) ;
#222=CARTESIAN_POINT('Vertex',(2234.33047695,-1551.72413793,2197.53187555)) ;
#225=CARTESIAN_POINT('Axis2P3D Location',(1604.31034483,-1551.72413793,290.818973168)) ;
#229=CARTESIAN_POINT('Vertex',(2030.34482759,-1551.72413793,2253.20886268)) ;
#233=CARTESIAN_POINT('Control Point',(1604.31034483,-1522.3425205,2298.92242144)) ;
#234=CARTESIAN_POINT('Control Point',(1710.95218512,-1537.12199873,2298.92242144)) ;
#235=CARTESIAN_POINT('Control Point',(1818.28404412,-1546.96899529,2291.37132007)) ;
#236=CARTESIAN_POINT('Control Point',(1925.13457149,-1551.72413793,2276.04998986)) ;
#237=CARTESIAN_POINT('Control Point',(2030.34482759,-1551.72413793,2253.20886268)) ;
#238=CARTESIAN_POINT('Vertex',(1604.31034483,-1522.3425205,2298.92242144)) ;
#241=CARTESIAN_POINT('Line Origine',(1604.31034483,4.54747350886E-013,2298.92242144)) ;
#245=CARTESIAN_POINT('Vertex',(1604.31034483,6.93391337603E-013,2298.92242144)) ;
#248=CARTESIAN_POINT('Line Origine',(1604.31034483,4.54747350886E-013,2298.92242144)) ;
#252=CARTESIAN_POINT('Vertex',(1604.31034483,1522.3425205,2298.92242144)) ;
#256=CARTESIAN_POINT('Control Point',(1604.31034483,1522.3425205,2298.92242144)) ;
#257=CARTESIAN_POINT('Control Point',(1710.9521844,1537.12199863,2298.92242144)) ;
#258=CARTESIAN_POINT('Control Point',(1818.2840376,1546.9689949,2291.37132093)) ;
#259=CARTESIAN_POINT('Control Point',(1925.13457221,1551.72413793,2276.04998971)) ;
#260=CARTESIAN_POINT('Control Point',(2030.34482759,1551.72413793,2253.20886268)) ;
#276=CARTESIAN_POINT('Axis2P3D Location',(2030.34482759,-1551.72413793,2088.79310345)) ;
#281=CARTESIAN_POINT('Axis2P3D Location',(2030.34482759,-1551.72413793,2950.86206897)) ;
#285=CARTESIAN_POINT('Vertex',(869.655172414,1326.5028728,2950.86206897)) ;
#287=CARTESIAN_POINT('Vertex',(1814.65517241,1544.21984955,2950.86206897)) ;
#291=CARTESIAN_POINT('Control Point',(1814.65517241,1544.21984955,2950.86206897)) ;
#292=CARTESIAN_POINT('Control Point',(1818.78355224,1544.50746742,2950.86206897)) ;
#293=CARTESIAN_POINT('Control Point',(1822.91241147,1544.7882039,2950.84907033)) ;
#294=CARTESIAN_POINT('Control Point',(1827.04338476,1545.06216602,2950.82302934)) ;
#295=CARTESIAN_POINT('Control Point',(1848.64650792,1546.45869499,2950.61878782)) ;
#296=CARTESIAN_POINT('Control Point',(1870.25701787,1547.66657085,2950.05815978)) ;
#297=CARTESIAN_POINT('Control Point',(1887.7360106,1548.51987728,2949.37119568)) ;
#298=CARTESIAN_POINT('Control Point',(1926.81186333,1550.15157831,2947.31247)) ;
#299=CARTESIAN_POINT('Control Point',(1965.8319438,1551.16600687,2944.08600105)) ;
#300=CARTESIAN_POINT('Control Point',(1987.37669619,1551.53863713,2941.94561342)) ;
#301=CARTESIAN_POINT('Control Point',(2008.88431214,1551.72413793,2939.44933933)) ;
#302=CARTESIAN_POINT('Control Point',(2030.34482759,1551.72413793,2936.5985024)) ;
#304=CARTESIAN_POINT('Axis2P3D Location',(2030.34482759,-1551.72413793,2298.92242144)) ;
#308=CARTESIAN_POINT('Vertex',(890.173135587,1334.69227584,2298.92242144)) ;
#312=CARTESIAN_POINT('Control Point',(141.056320892,910.384742566,2019.86714405)) ;
#313=CARTESIAN_POINT('Control Point',(175.944128016,937.15574914,2051.05255827)) ;
#314=CARTESIAN_POINT('Control Point',(212.872785682,964.510989877,2080.77856219)) ;
#315=CARTESIAN_POINT('Control Point',(251.908419735,992.325225179,2108.87008269)) ;
#316=CARTESIAN_POINT('Control Point',(315.92169863,1036.01991426,2149.63604693)) ;
#317=CARTESIAN_POINT('Control Point',(385.005869856,1079.91910703,2185.30322771)) ;
#318=CARTESIAN_POINT('Control Point',(410.295821426,1095.57456493,2197.34028065)) ;
#319=CARTESIAN_POINT('Control Point',(462.384184842,1126.94630553,2220.06480715)) ;
#320=CARTESIAN_POINT('Control Point',(516.926562568,1157.97371746,2239.68305948)) ;
#321=CARTESIAN_POINT('Control Point',(544.930945861,1173.43640329,2248.71626419)) ;
#322=CARTESIAN_POINT('Control Point',(626.756001093,1217.22899036,2272.11430765)) ;
#323=CARTESIAN_POINT('Control Point',(713.012929906,1259.31814238,2288.17416981)) ;
#324=CARTESIAN_POINT('Control Point',(770.808395082,1285.72765168,2295.29834258)) ;
#325=CARTESIAN_POINT('Control Point',(829.978311325,1310.91454429,2298.92242144)) ;
#326=CARTESIAN_POINT('Control Point',(890.173135592,1334.69227585,2298.92242144)) ;
#327=CARTESIAN_POINT('Vertex',(141.056320892,910.384742566,2019.86714405)) ;
#330=CARTESIAN_POINT('Line Origine',(141.056320892,910.384742566,2088.79310345)) ;
#334=CARTESIAN_POINT('Vertex',(141.056320892,910.384742566,2762.8881223)) ;
#338=CARTESIAN_POINT('Control Point',(869.655172414,1326.5028728,2950.86206897)) ;
#339=CARTESIAN_POINT('Control Point',(789.317254497,1294.10536215,2950.86206897)) ;
#340=CARTESIAN_POINT('Control Point',(710.109697737,1258.90483208,2945.50513531)) ;
#341=CARTESIAN_POINT('Control Point',(632.574136181,1221.11984771,2935.0936579)) ;
#342=CARTESIAN_POINT('Control Point',(481.205322283,1140.76179244,2904.85553878)) ;
#343=CARTESIAN_POINT('Control Point',(339.04583196,1052.38254273,2857.26099207)) ;
#344=CARTESIAN_POINT('Control Point',(270.342315018,1006.36315332,2829.39915138)) ;
#345=CARTESIAN_POINT('Control Point',(204.32236595,958.931666197,2797.86039141)) ;
#346=CARTESIAN_POINT('Control Point',(141.056320885,910.384742561,2762.8881223)) ;
#359=CARTESIAN_POINT('Axis2P3D Location',(1814.65517241,2.71903261311E-013,1312.93103448)) ;
#364=CARTESIAN_POINT('Line Origine',(2073.85662557,4.54747350886E-013,2930.22280791)) ;
#368=CARTESIAN_POINT('Vertex',(2073.85662557,130.789474936,2930.22280791)) ;
#371=CARTESIAN_POINT('Line Origine',(1814.65517241,4.54747350886E-013,2950.86206897)) ;
#375=CARTESIAN_POINT('Vertex',(1814.65517241,-1544.21984955,2950.86206897)) ;
#379=CARTESIAN_POINT('Control Point',(1814.65517241,-1544.21984955,2950.86206897)) ;
#380=CARTESIAN_POINT('Control Point',(1868.64738031,-1547.98140362,2950.86206897)) ;
#381=CARTESIAN_POINT('Control Point',(1922.72717582,-1550.48746364,2948.4890234)) ;
#382=CARTESIAN_POINT('Control Point',(1976.69306654,-1551.72413793,2943.72565748)) ;
#383=CARTESIAN_POINT('Control Point',(2030.34482759,-1551.72413793,2936.5985024)) ;
#384=CARTESIAN_POINT('Vertex',(2030.34482759,-1551.72413793,2936.5985024)) ;
#387=CARTESIAN_POINT('Axis2P3D Location',(1814.65517241,-1551.72413793,1312.93103448)) ;
#391=CARTESIAN_POINT('Vertex',(2073.85662557,-1551.72413793,2930.22280791)) ;
#394=CARTESIAN_POINT('Line Origine',(2073.85662557,4.54747350886E-013,2930.22280791)) ;
#398=CARTESIAN_POINT('Vertex',(2073.85662557,-130.789474936,2930.22280791)) ;
#402=CARTESIAN_POINT('Control Point',(2073.85662557,-130.789474936,2930.22280791)) ;
#403=CARTESIAN_POINT('Control Point',(2028.08857551,-119.283423403,2937.55799954)) ;
#404=CARTESIAN_POINT('Control Point',(1982.57209838,-105.620512423,2943.08117297)) ;
#405=CARTESIAN_POINT('Control Point',(1937.57920994,-89.8109771593,2946.84323694)) ;
#406=CARTESIAN_POINT('Control Point',(1893.34343308,-71.9342315494,2948.97083576)) ;
#407=CARTESIAN_POINT('Vertex',(1893.3434331,-71.9342315597,2948.97083576)) ;
#411=CARTESIAN_POINT('Control Point',(1893.3434331,-71.9342315597,2948.97083576)) ;
#412=CARTESIAN_POINT('Control Point',(1882.68779268,-67.6280299579,2949.48333784)) ;
#413=CARTESIAN_POINT('Control Point',(1872.82433164,-61.3467100642,2949.87078681)) ;
#414=CARTESIAN_POINT('Control Point',(1864.24487486,-53.2824251753,2950.13527257)) ;
#415=CARTESIAN_POINT('Control Point',(1853.92087146,-39.0898254421,2950.40144219)) ;
#416=CARTESIAN_POINT('Control Point',(1847.92584509,-22.8278360786,2950.52555726)) ;
#417=CARTESIAN_POINT('Control Point',(1846.4367888,-17.235436144,2950.5541531)) ;
#418=CARTESIAN_POINT('Control Point',(1843.55074344,-0.141702925467,2950.60813255)) ;
#419=CARTESIAN_POINT('Control Point',(1845.45181737,17.3109988715,2950.57200725)) ;
#420=CARTESIAN_POINT('Control Point',(1848.88800931,28.579345353,2950.51378483)) ;
#421=CARTESIAN_POINT('Control Point',(1858.14524969,46.2100714046,2950.31506352)) ;
#422=CARTESIAN_POINT('Control Point',(1872.25210845,60.0184927896,2949.86574178)) ;
#423=CARTESIAN_POINT('Control Point',(1878.77947153,64.9184549935,2949.6285026)) ;
#424=CARTESIAN_POINT('Control Point',(1885.86642752,68.9125930512,2949.33045571)) ;
#425=CARTESIAN_POINT('Control Point',(1893.3434331,71.93423156,2948.97083576)) ;
#426=CARTESIAN_POINT('Vertex',(1893.3434331,71.9342315597,2948.97083576)) ;
#430=CARTESIAN_POINT('Control Point',(2073.85662557,130.789474936,2930.22280791)) ;
#431=CARTESIAN_POINT('Control Point',(2028.08857562,119.28342343,2937.55799953)) ;
#432=CARTESIAN_POINT('Control Point',(1982.57209838,105.620512455,2943.08117297)) ;
#433=CARTESIAN_POINT('Control Point',(1937.57920985,89.8109771234,2946.84323695)) ;
#434=CARTESIAN_POINT('Control Point',(1893.34343309,71.9342315554,2948.97083576)) ;
#449=CARTESIAN_POINT('Axis2P3D Location',(2073.85662557,4.8583589217E-013,2930.22280791)) ;
#455=CARTESIAN_POINT('Control Point',(2073.85662557,130.789474936,2930.22280791)) ;
#456=CARTESIAN_POINT('Control Point',(2136.21393007,146.466051893,2920.22887595)) ;
#457=CARTESIAN_POINT('Control Point',(2199.46315657,158.503667046,2910.0919967)) ;
#458=CARTESIAN_POINT('Control Point',(2263.32739582,166.837991177,2899.85655008)) ;
#459=CARTESIAN_POINT('Control Point',(2331.19651747,171.698065953,2888.97924566)) ;
#460=CARTESIAN_POINT('Control Point',(2399.11997152,172.377041854,2878.09323345)) ;
#461=CARTESIAN_POINT('Control Point',(2402.79660089,172.401542864,2877.50398438)) ;
#462=CARTESIAN_POINT('Control Point',(2406.473217,172.413793103,2876.91473743)) ;
#463=CARTESIAN_POINT('Control Point',(2410.14983311,172.413793103,2876.32549049)) ;
#464=CARTESIAN_POINT('Vertex',(2410.1498331,172.413793103,2876.32549049)) ;
#467=CARTESIAN_POINT('Line Origine',(3791.2818131,172.413793103,2654.97309007)) ;
#480=CARTESIAN_POINT('Axis2P3D Location',(5172.4137931,172.413793103,2950.86206897)) ;
#485=CARTESIAN_POINT('Line Origine',(2410.1498331,172.413793103,2507.88138024)) ;
#497=CARTESIAN_POINT('Axis2P3D Location',(2410.1498331,-1206.89655172,1790.08620691)) ;
#502=CARTESIAN_POINT('Line Origine',(1893.3434331,71.9342315597,1790.08620691)) ;
#516=CARTESIAN_POINT('Axis2P3D Location',(3845.9294181,5.17032056072E-013,2298.92242144)) ;
#521=CARTESIAN_POINT('Axis2P3D Location',(0.,2.81536798491E-013,2298.92242144)) ;
#532=CARTESIAN_POINT('Axis2P3D Location',(3845.9294181,5.17032056072E-013,2298.92242144)) ;
#537=CARTESIAN_POINT('Axis2P3D Location',(2030.34482759,1551.72413793,2298.92242144)) ;
#541=CARTESIAN_POINT('Vertex',(890.173135587,-1334.69227584,2298.92242144)) ;
#544=CARTESIAN_POINT('Axis2P3D Location',(0.,2.81536798491E-013,2298.92242144)) ;
#548=CARTESIAN_POINT('Vertex',(1407.91478248,-769.147351157,2298.92242144)) ;
#551=CARTESIAN_POINT('Axis2P3D Location',(0.,2.81536798491E-013,2298.92242144)) ;
#563=CARTESIAN_POINT('Axis2P3D Location',(2030.34482759,1551.72413793,2088.79310345)) ;
#568=CARTESIAN_POINT('Axis2P3D Location',(2030.34482759,1551.72413793,2950.86206897)) ;
#572=CARTESIAN_POINT('Vertex',(869.655172414,-1326.5028728,2950.86206897)) ;
#576=CARTESIAN_POINT('Control Point',(869.655172414,-1326.5028728,2950.86206897)) ;
#577=CARTESIAN_POINT('Control Point',(865.720442845,-1324.91613212,2950.86206897)) ;
#578=CARTESIAN_POINT('Control Point',(861.788424753,-1323.32266763,2950.84922698)) ;
#579=CARTESIAN_POINT('Control Point',(857.85761786,-1321.72186686,2950.82354198)) ;
#580=CARTESIAN_POINT('Control Point',(836.28392447,-1312.89307555,2950.61229187)) ;
#581=CARTESIAN_POINT('Control Point',(814.797756254,-1303.86365391,2950.01635599)) ;
#582=CARTESIAN_POINT('Control Point',(797.286217698,-1296.34573876,2949.27478268)) ;
#583=CARTESIAN_POINT('Control Point',(758.521156629,-1279.34994397,2947.06968449)) ;
#584=CARTESIAN_POINT('Control Point',(720.122882799,-1261.72910374,2943.6446412)) ;
#585=CARTESIAN_POINT('Control Point',(699.121591813,-1251.85252692,2941.39818826)) ;
#586=CARTESIAN_POINT('Control Point',(638.208528792,-1222.50846799,2933.80482413)) ;
#587=CARTESIAN_POINT('Control Point',(578.446535808,-1191.68712988,2923.24260477)) ;
#588=CARTESIAN_POINT('Control Point',(539.711672449,-1170.82730776,2915.0662457)) ;
#589=CARTESIAN_POINT('Control Point',(431.305078211,-1109.95610603,2888.46792637)) ;
#590=CARTESIAN_POINT('Control Point',(327.910944453,-1044.89577408,2852.70338134)) ;
#591=CARTESIAN_POINT('Control Point',(263.2019469,-1001.22414652,2825.97416605)) ;
#592=CARTESIAN_POINT('Control Point',(200.897238182,-956.303409349,2795.96704578)) ;
#593=CARTESIAN_POINT('Control Point',(141.05632089,-910.384742565,2762.8881223)) ;
#594=CARTESIAN_POINT('Vertex',(141.05632089,-910.384742565,2762.8881223)) ;
#597=CARTESIAN_POINT('Line Origine',(141.056320892,-910.384742566,2088.79310345)) ;
#601=CARTESIAN_POINT('Vertex',(141.056320892,-910.384742566,2019.86714405)) ;
#605=CARTESIAN_POINT('Control Point',(141.056320892,-910.384742566,2019.86714405)) ;
#606=CARTESIAN_POINT('Control Point',(175.944128324,-937.155749375,2051.05255855)) ;
#607=CARTESIAN_POINT('Control Point',(212.872786284,-964.510990321,2080.77856278)) ;
#608=CARTESIAN_POINT('Control Point',(251.908418427,-992.325224279,2108.87008186)) ;
#609=CARTESIAN_POINT('Control Point',(315.921697837,-1036.01991374,2149.63604648)) ;
#610=CARTESIAN_POINT('Control Point',(385.005869531,-1079.91910682,2185.30322757)) ;
#611=CARTESIAN_POINT('Control Point',(410.295820523,-1095.57456438,2197.34028028)) ;
#612=CARTESIAN_POINT('Control Point',(462.384184096,-1126.9463051,2220.06480683)) ;
#613=CARTESIAN_POINT('Control Point',(516.926561996,-1157.97371714,2239.68305933)) ;
#614=CARTESIAN_POINT('Control Point',(544.930945142,-1173.4364029,2248.71626395)) ;
#615=CARTESIAN_POINT('Control Point',(626.756000463,-1217.22899005,2272.11430755)) ;
#616=CARTESIAN_POINT('Control Point',(713.012929379,-1259.31814214,2288.17416967)) ;
#617=CARTESIAN_POINT('Control Point',(770.8083949,-1285.7276516,2295.29834257)) ;
#618=CARTESIAN_POINT('Control Point',(829.978311233,-1310.91454426,2298.92242144)) ;
#619=CARTESIAN_POINT('Control Point',(890.173135592,-1334.69227585,2298.92242144)) ;
#621=CARTESIAN_POINT('Line Origine',(2030.34482759,-1551.72413793,2088.79310345)) ;
#637=CARTESIAN_POINT('Axis2P3D Location',(2030.34482759,-1551.72413793,2950.86206897)) ;
#642=CARTESIAN_POINT('Line Origine',(3623.13520934,-1551.72413793,2681.92174878)) ;
#646=CARTESIAN_POINT('Vertex',(5172.4137931,-1551.72413793,2433.62068966)) ;
#649=CARTESIAN_POINT('Line Origine',(3703.37213503,-1551.72413793,1712.12800674)) ;
#653=CARTESIAN_POINT('Vertex',(5172.4137931,-1551.72413793,1226.72413793)) ;
#656=CARTESIAN_POINT('Line Origine',(5172.4137931,-1551.72413793,1830.17241379)) ;
#671=CARTESIAN_POINT('Control Point',(2234.33047695,-161.162139032,2197.53187555)) ;
#672=CARTESIAN_POINT('Control Point',(2269.321287,-165.659067223,2185.97013768)) ;
#673=CARTESIAN_POINT('Control Point',(2304.44192516,-169.035504245,2174.36550173)) ;
#674=CARTESIAN_POINT('Control Point',(2339.64909211,-171.287697153,2162.73227475)) ;
#675=CARTESIAN_POINT('Control Point',(2374.89946259,-172.413793104,2151.08477237)) ;
#676=CARTESIAN_POINT('Control Point',(2410.14983311,-172.413793103,2139.43726998)) ;
#677=CARTESIAN_POINT('Vertex',(2410.1498331,-172.413793103,2139.43726998)) ;
#680=CARTESIAN_POINT('Line Origine',(3791.2818131,-172.413793103,1683.08070396)) ;
#684=CARTESIAN_POINT('Vertex',(5172.4137931,-172.413793103,1226.72413793)) ;
#687=CARTESIAN_POINT('Line Origine',(5172.4137931,-862.068965517,1226.72413793)) ;
#700=CARTESIAN_POINT('Axis2P3D Location',(2410.1498331,1206.89655172,1790.08620691)) ;
#705=CARTESIAN_POINT('Line Origine',(1893.3434331,-71.9342315597,1790.08620691)) ;
#711=CARTESIAN_POINT('Control Point',(2073.85662557,-130.789474936,2930.22280791)) ;
#712=CARTESIAN_POINT('Control Point',(2156.26365878,-151.506537809,2917.01552948)) ;
#713=CARTESIAN_POINT('Control Point',(2240.33297366,-165.444732466,2903.54183914)) ;
#714=CARTESIAN_POINT('Control Point',(2325.24183873,-172.413793105,2889.93359503)) ;
#715=CARTESIAN_POINT('Control Point',(2410.14983312,-172.413793103,2876.32549049)) ;
#716=CARTESIAN_POINT('Vertex',(2410.1498331,-172.413793103,2876.32549049)) ;
#719=CARTESIAN_POINT('Line Origine',(2410.1498331,-172.413793103,1790.08620691)) ;
#733=CARTESIAN_POINT('Axis2P3D Location',(1922.4137931,3.36936229267E-013,1790.08620691)) ;
#745=CARTESIAN_POINT('Axis2P3D Location',(869.655172414,4.14627399911E-013,2950.86206897)) ;
#750=CARTESIAN_POINT('Line Origine',(869.655172414,6.8212102633E-013,2950.86206897)) ;
#762=CARTESIAN_POINT('Axis2P3D Location',(0.,1.62070391774E-013,1323.40518006)) ;
#768=CARTESIAN_POINT('Control Point',(-84.5723464837,737.249569126,1779.69509359)) ;
#769=CARTESIAN_POINT('Control Point',(-96.420173707,728.158190598,1765.17903813)) ;
#770=CARTESIAN_POINT('Control Point',(-107.620406376,718.77342627,1749.75587491)) ;
#771=CARTESIAN_POINT('Control Point',(-118.125134256,709.170200792,1733.33016367)) ;
#772=CARTESIAN_POINT('Control Point',(-132.498400709,694.923028023,1707.66090633)) ;
#773=CARTESIAN_POINT('Control Point',(-145.251860449,680.753462959,1679.55387471)) ;
#774=CARTESIAN_POINT('Control Point',(-149.143584073,676.264809804,1670.35188293)) ;
#775=CARTESIAN_POINT('Control Point',(-157.258899409,666.550208644,1649.69538626)) ;
#776=CARTESIAN_POINT('Control Point',(-164.509383728,657.097779422,1627.74104281)) ;
#777=CARTESIAN_POINT('Control Point',(-168.167925323,652.08550247,1615.45660337)) ;
#778=CARTESIAN_POINT('Control Point',(-173.59122312,644.246079245,1595.02308447)) ;
#779=CARTESIAN_POINT('Control Point',(-178.181120077,636.883132107,1573.47387853)) ;
#780=CARTESIAN_POINT('Control Point',(-179.791250209,634.174651759,1565.15497692)) ;
#781=CARTESIAN_POINT('Control Point',(-182.544067011,629.281720525,1549.3009451)) ;
#782=CARTESIAN_POINT('Control Point',(-184.777655859,624.750882161,1532.88029885)) ;
#783=CARTESIAN_POINT('Control Point',(-185.695533935,622.733097692,1525.13141113)) ;
#784=CARTESIAN_POINT('Control Point',(-187.722905477,617.799745919,1504.93130967)) ;
#785=CARTESIAN_POINT('Control Point',(-188.844542813,613.57539834,1484.04039036)) ;
#786=CARTESIAN_POINT('Control Point',(-189.158324451,611.299815109,1471.06582806)) ;
#787=CARTESIAN_POINT('Control Point',(-189.070019249,609.368820009,1457.95842741)) ;
#788=CARTESIAN_POINT('Control Point',(-188.581894406,607.795603585,1444.82758621)) ;
#789=CARTESIAN_POINT('Vertex',(-84.5723464837,737.249569126,1779.69509359)) ;
#791=CARTESIAN_POINT('Vertex',(-188.581894406,607.795603585,1444.82758621)) ;
#795=CARTESIAN_POINT('Control Point',(-84.5723464837,737.249569126,1779.69509359)) ;
#796=CARTESIAN_POINT('Control Point',(-44.7589077806,767.800237612,1828.4748465)) ;
#797=CARTESIAN_POINT('Control Point',(-2.75858865396,800.029001006,1877.48032917)) ;
#798=CARTESIAN_POINT('Control Point',(41.9308722251,834.321263545,1926.22198722)) ;
#799=CARTESIAN_POINT('Control Point',(89.7928647995,871.047953208,1974.04391112)) ;
#800=CARTESIAN_POINT('Control Point',(141.056320892,910.384742566,2019.86714405)) ;
#802=CARTESIAN_POINT('Axis2P3D Location',(1407.91478248,-769.147351157,1323.40518006)) ;
#806=CARTESIAN_POINT('Vertex',(558.475385506,-305.096493619,1444.82758621)) ;
#809=CARTESIAN_POINT('Axis2P3D Location',(0.,1.76940347877E-013,1444.82758621)) ;
#824=CARTESIAN_POINT('Axis2P3D Location',(-387.409104345,504.869104329,2950.86206897)) ;
#830=CARTESIAN_POINT('Control Point',(-387.409104345,504.869104329,1444.82758621)) ;
#831=CARTESIAN_POINT('Control Point',(-382.4272943,508.69187453,1444.82758621)) ;
#832=CARTESIAN_POINT('Control Point',(-377.445484261,512.514644727,1445.44501716)) ;
#833=CARTESIAN_POINT('Control Point',(-372.482873059,516.322682779,1446.68002714)) ;
#834=CARTESIAN_POINT('Control Point',(-363.264306978,523.396509239,1450.04172455)) ;
#835=CARTESIAN_POINT('Control Point',(-354.169434085,530.37542027,1455.13945318)) ;
#836=CARTESIAN_POINT('Control Point',(-349.971936776,533.596351515,1457.84062273)) ;
#837=CARTESIAN_POINT('Control Point',(-341.346526723,540.215022285,1464.01943764)) ;
#838=CARTESIAN_POINT('Control Point',(-332.838144342,546.743892381,1471.25436375)) ;
#839=CARTESIAN_POINT('Control Point',(-328.466985867,550.098081765,1475.2307772)) ;
#840=CARTESIAN_POINT('Control Point',(-318.516854856,557.733271381,1484.7864168)) ;
#841=CARTESIAN_POINT('Control Point',(-308.673460854,565.28655682,1495.2311818)) ;
#842=CARTESIAN_POINT('Control Point',(-303.154638772,569.521400864,1501.33494339)) ;
#843=CARTESIAN_POINT('Control Point',(-292.828988995,577.444743168,1513.13225256)) ;
#844=CARTESIAN_POINT('Control Point',(-282.542304211,585.338185853,1525.46655877)) ;
#845=CARTESIAN_POINT('Control Point',(-277.740730386,589.022652577,1531.3264951)) ;
#846=CARTESIAN_POINT('Control Point',(-267.855841238,596.607779135,1543.56454286)) ;
#847=CARTESIAN_POINT('Control Point',(-257.959693799,604.201544693,1556.11369357)) ;
#848=CARTESIAN_POINT('Control Point',(-252.863686833,608.111943403,1562.63701874)) ;
#849=CARTESIAN_POINT('Control Point',(-241.956363123,616.481630661,1576.70223282)) ;
#850=CARTESIAN_POINT('Control Point',(-230.990884463,624.895942866,1591.0128647)) ;
#851=CARTESIAN_POINT('Control Point',(-225.138112883,629.387041601,1598.68331294)) ;
#852=CARTESIAN_POINT('Control Point',(-212.166872954,639.340465964,1615.72736081)) ;
#853=CARTESIAN_POINT('Control Point',(-199.061514231,649.396805798,1632.99511918)) ;
#854=CARTESIAN_POINT('Control Point',(-191.848045558,654.93202951,1642.49570465)) ;
#855=CARTESIAN_POINT('Control Point',(-176.452929927,666.745404317,1662.73353549)) ;
#856=CARTESIAN_POINT('Control Point',(-160.805728241,678.752216259,1683.16464459)) ;
#857=CARTESIAN_POINT('Control Point',(-152.464902033,685.152512856,1693.99996339)) ;
#858=CARTESIAN_POINT('Control Point',(-134.318372079,699.077173439,1717.42221581)) ;
#859=CARTESIAN_POINT('Control Point',(-115.754054746,713.322421344,1740.99419685)) ;
#860=CARTESIAN_POINT('Control Point',(-105.678646015,721.053742273,1753.6562858)) ;
#861=CARTESIAN_POINT('Control Point',(-95.3599589605,728.971741761,1766.47283042)) ;
#862=CARTESIAN_POINT('Control Point',(-84.8903006212,737.005588406,1779.30548151)) ;
#863=CARTESIAN_POINT('Control Point',(-84.7843313932,737.086903431,1779.43535057)) ;
#864=CARTESIAN_POINT('Control Point',(-84.6783466839,737.168230335,1779.56522127)) ;
#865=CARTESIAN_POINT('Control Point',(-84.5723464837,737.249569126,1779.69509359)) ;
#866=CARTESIAN_POINT('Vertex',(-387.409104345,504.869104329,1444.82758621)) ;
#869=CARTESIAN_POINT('Line Origine',(-387.409104345,504.869104329,1859.53509378)) ;
#873=CARTESIAN_POINT('Vertex',(-387.409104345,504.869104329,2274.24260136)) ;
#877=CARTESIAN_POINT('Control Point',(-387.409104345,504.869104329,2274.24260136)) ;
#878=CARTESIAN_POINT('Control Point',(-367.131528718,520.42901351,2304.97536538)) ;
#879=CARTESIAN_POINT('Control Point',(-346.057072584,536.600405472,2334.87275305)) ;
#880=CARTESIAN_POINT('Control Point',(-324.236831923,553.344071936,2363.91467855)) ;
#881=CARTESIAN_POINT('Control Point',(-277.077937627,589.531243709,2422.91993015)) ;
#882=CARTESIAN_POINT('Control Point',(-227.064905961,627.908525339,2478.07629397)) ;
#883=CARTESIAN_POINT('Control Point',(-200.211883655,648.51407484,2505.83567583)) ;
#884=CARTESIAN_POINT('Control Point',(-139.249279416,695.293463209,2564.97316822)) ;
#885=CARTESIAN_POINT('Control Point',(-75.2814112805,744.378927716,2618.869277)) ;
#886=CARTESIAN_POINT('Control Point',(-39.3730500002,771.933052068,2646.85953862)) ;
#887=CARTESIAN_POINT('Control Point',(17.8089044527,815.811375319,2688.08725159)) ;
#888=CARTESIAN_POINT('Control Point',(76.5902317698,860.916970359,2725.50129514)) ;
#889=CARTESIAN_POINT('Control Point',(97.9016751892,877.27021348,2738.45205529)) ;
#890=CARTESIAN_POINT('Control Point',(119.394230591,893.76243209,2750.91372987)) ;
#891=CARTESIAN_POINT('Control Point',(141.056320892,910.384742566,2762.88812231)) ;
#901=CARTESIAN_POINT('Axis2P3D Location',(869.655172414,2.3019136904E-013,1444.82758621)) ;
#907=CARTESIAN_POINT('Control Point',(-636.379310345,1.38555833473E-013,1444.82758621)) ;
#908=CARTESIAN_POINT('Control Point',(-636.379310345,1.36746153618,1446.93124137)) ;
#909=CARTESIAN_POINT('Control Point',(-636.375637317,2.73488409745,1449.03492187)) ;
#910=CARTESIAN_POINT('Control Point',(-636.368960336,3.79584406834,1450.66709609)) ;
#911=CARTESIAN_POINT('Control Point',(-636.356189048,5.61130841379,1453.45993837)) ;
#912=CARTESIAN_POINT('Control Point',(-636.336943717,7.42675476922,1456.25275524)) ;
#913=CARTESIAN_POINT('Control Point',(-636.324909763,8.48769675011,1457.88491045)) ;
#914=CARTESIAN_POINT('Control Point',(-636.270911641,12.099473928,1463.44140281)) ;
#915=CARTESIAN_POINT('Control Point',(-636.191284471,15.7109792171,1468.99777807)) ;
#916=CARTESIAN_POINT('Control Point',(-636.131905762,17.9550748375,1472.45052054)) ;
#917=CARTESIAN_POINT('Control Point',(-635.711661815,31.56701285,1493.39488395)) ;
#918=CARTESIAN_POINT('Control Point',(-634.927135492,45.1712188542,1514.3359182)) ;
#919=CARTESIAN_POINT('Control Point',(-634.017704122,56.522757834,1531.8204402)) ;
#920=CARTESIAN_POINT('Control Point',(-631.179948145,84.161133145,1574.43052036)) ;
#921=CARTESIAN_POINT('Control Point',(-626.825761086,111.685223628,1616.9911688)) ;
#922=CARTESIAN_POINT('Control Point',(-623.728415823,127.865685033,1642.07085861)) ;
#923=CARTESIAN_POINT('Control Point',(-614.858886731,167.245035738,1703.29424611)) ;
#924=CARTESIAN_POINT('Control Point',(-602.793080506,206.12889658,1764.3030614)) ;
#925=CARTESIAN_POINT('Control Point',(-594.538460777,228.883897433,1800.25354802)) ;
#926=CARTESIAN_POINT('Control Point',(-577.025558018,270.805140894,1867.05485013)) ;
#927=CARTESIAN_POINT('Control Point',(-555.491325654,311.603715773,1933.36451419)) ;
#928=CARTESIAN_POINT('Control Point',(-544.633656367,330.238897092,1963.98096301)) ;
#929=CARTESIAN_POINT('Control Point',(-513.107991362,379.402830177,2045.77704934)) ;
#930=CARTESIAN_POINT('Control Point',(-475.077764209,425.949004777,2126.40946972)) ;
#931=CARTESIAN_POINT('Control Point',(-448.588537105,453.900775268,2176.437705)) ;
#932=CARTESIAN_POINT('Control Point',(-419.386884475,480.331094272,2225.77696676)) ;
#933=CARTESIAN_POINT('Control Point',(-387.409104345,504.869104329,2274.24260136)) ;
#934=CARTESIAN_POINT('Vertex',(-636.379310345,1.38861532024E-013,1444.82758621)) ;
#938=CARTESIAN_POINT('Control Point',(-636.379310345,1.37667655054E-013,1444.82758621)) ;
#939=CARTESIAN_POINT('Control Point',(-636.379310345,-1.32802256076,1446.87056983)) ;
#940=CARTESIAN_POINT('Control Point',(-636.37584613,-2.65600836235,1448.91357734)) ;
#941=CARTESIAN_POINT('Control Point',(-636.369443525,-3.72682844663,1450.56092023)) ;
#942=CARTESIAN_POINT('Control Point',(-636.356314449,-5.6113086001,1453.45993897)) ;
#943=CARTESIAN_POINT('Control Point',(-636.336209722,-7.49576910222,1456.3589305)) ;
#944=CARTESIAN_POINT('Control Point',(-636.323727514,-8.56656953515,1458.00625132)) ;
#945=CARTESIAN_POINT('Control Point',(-636.270042205,-12.1389073745,1463.50207197)) ;
#946=CARTESIAN_POINT('Control Point',(-636.191284471,-15.7109792086,1468.99777807)) ;
#947=CARTESIAN_POINT('Control Point',(-636.131905762,-17.9550748375,1472.45052054)) ;
#948=CARTESIAN_POINT('Control Point',(-635.710444534,-31.6064412689,1493.45555152)) ;
#949=CARTESIAN_POINT('Control Point',(-634.922587509,-45.250030834,1514.45723402)) ;
#950=CARTESIAN_POINT('Control Point',(-634.008232253,-56.6408709125,1532.00236753)) ;
#951=CARTESIAN_POINT('Control Point',(-631.164018376,-84.2788752799,1574.61228578)) ;
#952=CARTESIAN_POINT('Control Point',(-626.803338788,-111.802307121,1617.17264934)) ;
#953=CARTESIAN_POINT('Control Point',(-623.71090551,-127.943413833,1642.19170474)) ;
#954=CARTESIAN_POINT('Control Point',(-614.846978562,-167.283411677,1703.35445798)) ;
#955=CARTESIAN_POINT('Control Point',(-602.793080338,-206.128897107,1764.30306224)) ;
#956=CARTESIAN_POINT('Control Point',(-594.538460996,-228.883896751,1800.25354718)) ;
#957=CARTESIAN_POINT('Control Point',(-577.025558163,-270.805140751,1867.05484968)) ;
#958=CARTESIAN_POINT('Control Point',(-555.491325643,-311.603715681,1933.36451423)) ;
#959=CARTESIAN_POINT('Control Point',(-544.633656355,-330.238897106,1963.98096303)) ;
#960=CARTESIAN_POINT('Control Point',(-513.107991518,-379.402829943,2045.77704894)) ;
#961=CARTESIAN_POINT('Control Point',(-475.077764457,-425.949004478,2126.40946921)) ;
#962=CARTESIAN_POINT('Control Point',(-448.588536776,-453.900775597,2176.43770556)) ;
#963=CARTESIAN_POINT('Control Point',(-419.386884276,-480.331094425,2225.77696706)) ;
#964=CARTESIAN_POINT('Control Point',(-387.409104345,-504.869104329,2274.24260136)) ;
#965=CARTESIAN_POINT('Vertex',(-387.409104345,-504.869104329,2274.24260136)) ;
#969=CARTESIAN_POINT('Control Point',(-387.409104345,-504.869104329,2274.24260136)) ;
#970=CARTESIAN_POINT('Control Point',(-344.939674719,-537.457835848,2338.60941635)) ;
#971=CARTESIAN_POINT('Control Point',(-298.974707504,-572.728853153,2399.31183094)) ;
#972=CARTESIAN_POINT('Control Point',(-249.985966279,-610.320149826,2456.16432188)) ;
#973=CARTESIAN_POINT('Control Point',(-147.259035965,-689.14721136,2561.60210425)) ;
#974=CARTESIAN_POINT('Control Point',(-35.6407953304,-774.796981513,2651.53283961)) ;
#975=CARTESIAN_POINT('Control Point',(21.7784979972,-818.857425468,2692.45222292)) ;
#976=CARTESIAN_POINT('Control Point',(80.7606587327,-864.117129292,2729.55782449)) ;
#977=CARTESIAN_POINT('Control Point',(141.056320892,-910.384742566,2762.8881223)) ;
#989=CARTESIAN_POINT('Line Origine',(3791.2818131,-172.413793103,2654.97309007)) ;
#993=CARTESIAN_POINT('Vertex',(5172.4137931,-172.413793103,2433.62068966)) ;
#996=CARTESIAN_POINT('Line Origine',(5172.4137931,-862.068965517,2433.62068966)) ;
#1009=CARTESIAN_POINT('Axis2P3D Location',(0.,1.62070391774E-013,1323.40518006)) ;
#1015=CARTESIAN_POINT('Control Point',(-84.5723464837,-737.249569126,1779.69509359)) ;
#1016=CARTESIAN_POINT('Control Point',(-97.0286778626,-727.691257589,1764.43349383)) ;
#1017=CARTESIAN_POINT('Control Point',(-108.744071687,-717.827920841,1748.19998525)) ;
#1018=CARTESIAN_POINT('Control Point',(-119.66985668,-707.74817949,1730.89012141)) ;
#1019=CARTESIAN_POINT('Control Point',(-139.455039778,-687.893109444,1694.83992921)) ;
#1020=CARTESIAN_POINT('Control Point',(-155.977286175,-668.403346898,1654.32134153)) ;
#1021=CARTESIAN_POINT('Control Point',(-163.235577251,-659.111307058,1633.41004647)) ;
#1022=CARTESIAN_POINT('Control Point',(-173.668009202,-644.571819419,1597.3016287)) ;
#1023=CARTESIAN_POINT('Control Point',(-181.288315358,-631.762311275,1558.07831009)) ;
#1024=CARTESIAN_POINT('Control Point',(-183.788769915,-627.094637194,1542.32158094)) ;
#1025=CARTESIAN_POINT('Control Point',(-187.248709574,-619.587337671,1513.77379079)) ;
#1026=CARTESIAN_POINT('Control Point',(-188.844967144,-613.584104424,1484.09973614)) ;
#1027=CARTESIAN_POINT('Control Point',(-189.158520127,-611.302539185,1471.08473775)) ;
#1028=CARTESIAN_POINT('Control Point',(-189.070329478,-609.369819873,1457.96677276)) ;
#1029=CARTESIAN_POINT('Control Point',(-188.581894406,-607.795603585,1444.82758621)) ;
#1030=CARTESIAN_POINT('Vertex',(-84.5723464837,-737.249569126,1779.69509359)) ;
#1032=CARTESIAN_POINT('Vertex',(-188.581894406,-607.795603585,1444.82758621)) ;
#1035=CARTESIAN_POINT('Axis2P3D Location',(0.,1.76940347877E-013,1444.82758621)) ;
#1041=CARTESIAN_POINT('Control Point',(-84.5723464837,-737.249569126,1779.69509359)) ;
#1042=CARTESIAN_POINT('Control Point',(-44.7589074389,-767.80023788,1828.47484693)) ;
#1043=CARTESIAN_POINT('Control Point',(-2.75859082261,-800.02899944,1877.48032678)) ;
#1044=CARTESIAN_POINT('Control Point',(41.9308728219,-834.321263907,1926.22198781)) ;
#1045=CARTESIAN_POINT('Control Point',(89.7928643537,-871.047952866,1974.04391072)) ;
#1046=CARTESIAN_POINT('Control Point',(141.056320892,-910.384742566,2019.86714405)) ;
#1057=CARTESIAN_POINT('Axis2P3D Location',(-387.409104345,-504.869104329,2950.86206897)) ;
#1062=CARTESIAN_POINT('Line Origine',(-387.409104345,-504.869104329,1859.53509378)) ;
#1066=CARTESIAN_POINT('Vertex',(-387.409104345,-504.869104329,1444.82758621)) ;
#1070=CARTESIAN_POINT('Control Point',(-387.409104345,-504.869104329,1444.82758621)) ;
#1071=CARTESIAN_POINT('Control Point',(-382.427294212,-508.691874597,1444.82758621)) ;
#1072=CARTESIAN_POINT('Control Point',(-377.445484083,-512.514644863,1445.44501718)) ;
#1073=CARTESIAN_POINT('Control Point',(-372.482873221,-516.322682655,1446.68002713)) ;
#1074=CARTESIAN_POINT('Control Point',(-363.26430694,-523.396509268,1450.0417245)) ;
#1075=CARTESIAN_POINT('Control Point',(-354.16943387,-530.375420435,1455.13945334)) ;
#1076=CARTESIAN_POINT('Control Point',(-349.971936954,-533.596351379,1457.8406226)) ;
#1077=CARTESIAN_POINT('Control Point',(-341.346526745,-540.215022269,1464.01943761)) ;
#1078=CARTESIAN_POINT('Control Point',(-332.838144208,-546.743892484,1471.25436387)) ;
#1079=CARTESIAN_POINT('Control Point',(-328.466985954,-550.098081698,1475.23077713)) ;
#1080=CARTESIAN_POINT('Control Point',(-318.516854524,-557.733271636,1484.7864171)) ;
#1081=CARTESIAN_POINT('Control Point',(-308.67346012,-565.286557383,1495.23118261)) ;
#1082=CARTESIAN_POINT('Control Point',(-303.154639453,-569.521400342,1501.33494268)) ;
#1083=CARTESIAN_POINT('Control Point',(-292.828988868,-577.444743265,1513.13225263)) ;
#1084=CARTESIAN_POINT('Control Point',(-282.54230331,-585.338186544,1525.4665599)) ;
#1085=CARTESIAN_POINT('Control Point',(-277.740731222,-589.022651935,1531.32649408)) ;
#1086=CARTESIAN_POINT('Control Point',(-267.855841389,-596.607779019,1543.56454264)) ;
#1087=CARTESIAN_POINT('Control Point',(-257.959693274,-604.201545096,1556.11369426)) ;
#1088=CARTESIAN_POINT('Control Point',(-252.863687283,-608.111943058,1562.63701818)) ;
#1089=CARTESIAN_POINT('Control Point',(-241.956363307,-616.48163052,1576.70223255)) ;
#1090=CARTESIAN_POINT('Control Point',(-230.990884406,-624.89594291,1591.01286481)) ;
#1091=CARTESIAN_POINT('Control Point',(-225.138112846,-629.38704163,1598.68331298)) ;
#1092=CARTESIAN_POINT('Control Point',(-212.166872995,-639.340465933,1615.72736077)) ;
#1093=CARTESIAN_POINT('Control Point',(-199.061514337,-649.396805716,1632.99511902)) ;
#1094=CARTESIAN_POINT('Control Point',(-191.848045335,-654.932029681,1642.49570492)) ;
#1095=CARTESIAN_POINT('Control Point',(-176.452929886,-666.745404349,1662.73353557)) ;
#1096=CARTESIAN_POINT('Control Point',(-160.805728377,-678.752216154,1683.16464439)) ;
#1097=CARTESIAN_POINT('Control Point',(-152.46490177,-685.152513058,1693.99996368)) ;
#1098=CARTESIAN_POINT('Control Point',(-134.318371858,-699.077173608,1717.42221614)) ;
#1099=CARTESIAN_POINT('Control Point',(-115.754054531,-713.322421509,1740.99419706)) ;
#1100=CARTESIAN_POINT('Control Point',(-105.678646098,-721.053742209,1753.65628572)) ;
#1101=CARTESIAN_POINT('Control Point',(-95.3599589913,-728.971741737,1766.47283039)) ;
#1102=CARTESIAN_POINT('Control Point',(-84.890300587,-737.005588432,1779.30548155)) ;
#1103=CARTESIAN_POINT('Control Point',(-84.7843313704,-737.086903448,1779.4353506)) ;
#1104=CARTESIAN_POINT('Control Point',(-84.6783466726,-737.168230344,1779.56522129)) ;
#1105=CARTESIAN_POINT('Control Point',(-84.5723464837,-737.249569126,1779.69509359)) ;
#1115=CARTESIAN_POINT('Axis2P3D Location',(5172.4137931,-862.068965517,1830.17241379)) ;
#1120=CARTESIAN_POINT('Line Origine',(5172.4137931,-172.413793103,1830.17241379)) ;
#1132=CARTESIAN_POINT('Axis2P3D Location',(5172.4137931,-172.413793103,2950.86206897)) ;
#1144=CARTESIAN_POINT('Axis2P3D Location',(0.,1.76940347877E-013,1444.82758621)) ;
#1155=CARTESIAN_POINT('Axis2P3D Location',(0.,7.70682899463E-014,629.310344828)) ;
#1160=CARTESIAN_POINT('Line Origine',(509.981383595,-278.604099632,1037.06896552)) ;
#1164=CARTESIAN_POINT('Vertex',(461.487381684,-252.111705645,629.310344828)) ;
#1167=CARTESIAN_POINT('Axis2P3D Location',(0.,7.70682899463E-014,629.310344828)) ;
#1171=CARTESIAN_POINT('Vertex',(-155.831692749,502.242370884,629.310344828)) ;
#1174=CARTESIAN_POINT('Line Origine',(-172.206793578,555.018987235,1037.06896552)) ;
#1186=CARTESIAN_POINT('Axis2P3D Location',(0.,2.55803378822E-013,2088.79310345)) ;
#1191=CARTESIAN_POINT('Axis2P3D Location',(0.,1.76940347877E-013,1444.82758621)) ;
#1195=CARTESIAN_POINT('Vertex',(-558.475385506,305.096493619,1444.82758621)) ;
#1198=CARTESIAN_POINT('Axis2P3D Location',(0.,1.76940347877E-013,1444.82758621)) ;
#1202=CARTESIAN_POINT('Vertex',(-598.191622116,217.129937746,1444.82758621)) ;
#1206=CARTESIAN_POINT('Control Point',(-387.409104345,504.869104329,2274.24260136)) ;
#1207=CARTESIAN_POINT('Control Point',(-403.896808664,492.217336359,2249.25377944)) ;
#1208=CARTESIAN_POINT('Control Point',(-419.302224119,479.326692664,2223.76919825)) ;
#1209=CARTESIAN_POINT('Control Point',(-433.618244088,466.349913605,2197.79150518)) ;
#1210=CARTESIAN_POINT('Control Point',(-460.15297358,440.48258791,2144.86280167)) ;
#1211=CARTESIAN_POINT('Control Point',(-482.727525812,415.174200296,2090.03762548)) ;
#1212=CARTESIAN_POINT('Control Point',(-493.083693472,402.756962334,2062.16345971)) ;
#1213=CARTESIAN_POINT('Control Point',(-516.756134525,372.573713747,1991.61267979)) ;
#1214=CARTESIAN_POINT('Control Point',(-535.583913188,344.534170758,1918.47993633)) ;
#1215=CARTESIAN_POINT('Control Point',(-545.374606309,328.649098983,1873.83960313)) ;
#1216=CARTESIAN_POINT('Control Point',(-563.764465724,296.470755696,1776.19447827)) ;
#1217=CARTESIAN_POINT('Control Point',(-577.326384077,268.433458822,1675.25003278)) ;
#1218=CARTESIAN_POINT('Control Point',(-583.497547527,254.580176023,1620.38925391)) ;
#1219=CARTESIAN_POINT('Control Point',(-589.987316346,238.905564887,1552.27531245)) ;
#1220=CARTESIAN_POINT('Control Point',(-595.407549016,224.677566431,1483.10144287)) ;
#1221=CARTESIAN_POINT('Control Point',(-596.367646361,222.115236455,1470.3771061)) ;
#1222=CARTESIAN_POINT('Control Point',(-597.295144661,219.599727534,1457.61915903)) ;
#1223=CARTESIAN_POINT('Control Point',(-598.191622116,217.129937746,1444.82758621)) ;
#1232=CARTESIAN_POINT('Axis2P3D Location',(0.,1.76940347877E-013,1444.82758621)) ;
#1243=CARTESIAN_POINT('Axis2P3D Location',(0.,2.55803378822E-013,2088.79310345)) ;
#1248=CARTESIAN_POINT('Axis2P3D Location',(0.,1.76940347877E-013,1444.82758621)) ;
#1252=CARTESIAN_POINT('Vertex',(-598.191622116,-217.129937746,1444.82758621)) ;
#1256=CARTESIAN_POINT('Control Point',(-387.409104345,-504.869104329,2274.24260136)) ;
#1257=CARTESIAN_POINT('Control Point',(-403.896808668,-492.217336356,2249.25377944)) ;
#1258=CARTESIAN_POINT('Control Point',(-419.302224129,-479.326692656,2223.76919823)) ;
#1259=CARTESIAN_POINT('Control Point',(-433.618244099,-466.349913595,2197.79150516)) ;
#1260=CARTESIAN_POINT('Control Point',(-460.152973587,-440.482587902,2144.86280166)) ;
#1261=CARTESIAN_POINT('Control Point',(-482.727525815,-415.174200292,2090.03762546)) ;
#1262=CARTESIAN_POINT('Control Point',(-493.083693476,-402.75696233,2062.16345969)) ;
#1263=CARTESIAN_POINT('Control Point',(-516.756134564,-372.573713696,1991.61267967)) ;
#1264=CARTESIAN_POINT('Control Point',(-535.583913239,-344.534170681,1918.47993612)) ;
#1265=CARTESIAN_POINT('Control Point',(-545.374606273,-328.649099048,1873.83960328)) ;
#1266=CARTESIAN_POINT('Control Point',(-563.764465757,-296.470755641,1776.19447817)) ;
#1267=CARTESIAN_POINT('Control Point',(-577.326384118,-268.433458734,1675.2500324)) ;
#1268=CARTESIAN_POINT('Control Point',(-583.497547497,-254.580176095,1620.38925422)) ;
#1269=CARTESIAN_POINT('Control Point',(-589.987316335,-238.905564916,1552.27531259)) ;
#1270=CARTESIAN_POINT('Control Point',(-595.407549018,-224.677566425,1483.10144284)) ;
#1271=CARTESIAN_POINT('Control Point',(-596.367646363,-222.115236451,1470.37710609)) ;
#1272=CARTESIAN_POINT('Control Point',(-597.295144661,-219.599727532,1457.61915902)) ;
#1273=CARTESIAN_POINT('Control Point',(-598.191622116,-217.129937746,1444.82758621)) ;
#1281=CARTESIAN_POINT('Axis2P3D Location',(0.,1.76940347877E-013,1444.82758621)) ;
#1292=CARTESIAN_POINT('Axis2P3D Location',(0.,7.70682899463E-014,629.310344828)) ;
#1297=CARTESIAN_POINT('Axis2P3D Location',(0.,7.70682899463E-014,629.310344828)) ;
#1301=CARTESIAN_POINT('Vertex',(-155.831692749,-502.242370884,629.310344828)) ;
#1304=CARTESIAN_POINT('Line Origine',(-172.206793578,-555.018987235,1037.06896552)) ;
#1316=CARTESIAN_POINT('Axis2P3D Location',(0.,1.76940347877E-013,1444.82758621)) ;
#1327=CARTESIAN_POINT('Axis2P3D Location',(0.,7.70682899463E-014,629.310344828)) ;
#1331=CARTESIAN_POINT('Vertex',(-461.487381684,252.111705645,629.310344828)) ;
#1334=CARTESIAN_POINT('Line Origine',(-509.981383595,278.604099632,1037.06896552)) ;
#1347=CARTESIAN_POINT('Axis2P3D Location',(-194.844968645,9.34691629205,629.310344828)) ;
#1352=CARTESIAN_POINT('Axis2P3D Location',(-8.52651282912E-014,9.94759830064E-014,629.310344828)) ;
#1356=CARTESIAN_POINT('Vertex',(-494.306271323,-179.421920922,629.310344828)) ;
#1358=CARTESIAN_POINT('Vertex',(-494.306271323,179.421920922,629.310344828)) ;
#1361=CARTESIAN_POINT('Axis2P3D Location',(-8.52651282912E-014,9.94759830064E-014,629.310344828)) ;
#1366=CARTESIAN_POINT('Axis2P3D Location',(-8.52651282912E-014,9.94759830064E-014,629.310344828)) ;
#1380=CARTESIAN_POINT('Line Origine',(-546.248946719,198.275929334,1037.06896552)) ;
#1392=CARTESIAN_POINT('Line Origine',(-546.248946719,-198.275929334,1037.06896552)) ;
#53=DIRECTION('Axis2P3D Direction',(-6.12323399574E-017,1.,-1.22464679915E-016)) ;
#54=DIRECTION('Axis2P3D XDirection',(1.,6.12323399574E-017,-7.49879891331E-033)) ;
#58=DIRECTION('Vector Direction',(0.,-1.88395331082E-016,-1.)) ;
#67=DIRECTION('Vector Direction',(-0.949509301433,0.,0.313738882659)) ;
#74=DIRECTION('Axis2P3D Direction',(-6.12323399574E-017,1.,-1.22464679915E-016)) ;
#81=DIRECTION('Vector Direction',(0.,0.,-1.)) ;
#88=DIRECTION('Axis2P3D Direction',(-6.12323399574E-017,1.,-1.22464679915E-016)) ;
#95=DIRECTION('Vector Direction',(0.987399187988,7.24558465002E-017,-0.158249308245)) ;
#109=DIRECTION('Axis2P3D Direction',(1.,1.31876731757E-015,-0.)) ;
#110=DIRECTION('Axis2P3D XDirection',(0.,0.,1.)) ;
#114=DIRECTION('Vector Direction',(1.31876731757E-015,-1.,0.)) ;
#121=DIRECTION('Vector Direction',(1.31876731757E-015,-1.,0.)) ;
#128=DIRECTION('Vector Direction',(0.,0.,-1.)) ;
#140=DIRECTION('Axis2P3D Direction',(0.313738882659,1.35492318597E-016,0.949509301433)) ;
#141=DIRECTION('Axis2P3D XDirection',(-0.949509301433,-1.97187444964E-017,0.313738882659)) ;
#145=DIRECTION('Vector Direction',(-0.949509301433,-1.95395355821E-017,0.313738882659)) ;
#162=DIRECTION('Vector Direction',(0.,-1.,0.)) ;
#175=DIRECTION('Axis2P3D Direction',(6.12323399574E-017,-1.,1.22464679915E-016)) ;
#176=DIRECTION('Axis2P3D XDirection',(0.313738882659,1.35492318597E-016,0.949509301433)) ;
#219=DIRECTION('Vector Direction',(0.,-1.,1.46511436858E-016)) ;
#226=DIRECTION('Axis2P3D Direction',(6.12323399574E-017,-1.,1.22464679915E-016)) ;
#242=DIRECTION('Vector Direction',(0.,-1.,1.46511436858E-016)) ;
#249=DIRECTION('Vector Direction',(0.,-1.,1.46511436858E-016)) ;
#277=DIRECTION('Axis2P3D Direction',(0.,-1.22464679915E-016,-1.)) ;
#278=DIRECTION('Axis2P3D XDirection',(-0.608770741046,0.793346194827,-9.7156887811E-017)) ;
#282=DIRECTION('Axis2P3D Direction',(0.,-1.22464679915E-016,-1.)) ;
#305=DIRECTION('Axis2P3D Direction',(0.,-1.22464679915E-016,-1.)) ;
#331=DIRECTION('Vector Direction',(0.,0.,-1.)) ;
#360=DIRECTION('Axis2P3D Direction',(6.12323399574E-017,-1.,1.22464679915E-016)) ;
#361=DIRECTION('Axis2P3D XDirection',(0.158249308245,1.30611500946E-016,0.987399187988)) ;
#365=DIRECTION('Vector Direction',(0.,-1.,1.46529701952E-016)) ;
#372=DIRECTION('Vector Direction',(0.,-1.,2.93059403905E-016)) ;
#388=DIRECTION('Axis2P3D Direction',(6.12323399574E-017,-1.,1.22464679915E-016)) ;
#395=DIRECTION('Vector Direction',(0.,-1.,1.46529701952E-016)) ;
#450=DIRECTION('Axis2P3D Direction',(-0.158249308245,-1.30611500946E-016,-0.987399187988)) ;
#451=DIRECTION('Axis2P3D XDirection',(0.987399187988,4.10808118715E-017,-0.158249308245)) ;
#468=DIRECTION('Vector Direction',(0.987399187988,4.06385098877E-017,-0.158249308245)) ;
#481=DIRECTION('Axis2P3D Direction',(6.12323399574E-017,-1.,1.22464679915E-016)) ;
#482=DIRECTION('Axis2P3D XDirection',(-1.,-6.12323399574E-017,7.49879891331E-033)) ;
#486=DIRECTION('Vector Direction',(0.,-1.15709718134E-016,-1.)) ;
#498=DIRECTION('Axis2P3D Direction',(0.,-1.22464679915E-016,-1.)) ;
#499=DIRECTION('Axis2P3D XDirection',(-0.374684639995,0.927152317881,-1.13543411841E-016)) ;
#503=DIRECTION('Vector Direction',(0.,-1.95848136039E-016,-1.)) ;
#517=DIRECTION('Axis2P3D Direction',(0.,-1.22464679915E-016,-1.)) ;
#518=DIRECTION('Axis2P3D XDirection',(6.12323399574E-017,-1.,1.22464679915E-016)) ;
#522=DIRECTION('Axis2P3D Direction',(0.,-1.22464679915E-016,-1.)) ;
#533=DIRECTION('Axis2P3D Direction',(0.,-1.22464679915E-016,-1.)) ;
#534=DIRECTION('Axis2P3D XDirection',(6.12323399574E-017,-1.,1.22464679915E-016)) ;
#538=DIRECTION('Axis2P3D Direction',(0.,-1.22464679915E-016,-1.)) ;
#545=DIRECTION('Axis2P3D Direction',(0.,-1.22464679915E-016,-1.)) ;
#552=DIRECTION('Axis2P3D Direction',(0.,-1.22464679915E-016,-1.)) ;
#564=DIRECTION('Axis2P3D Direction',(0.,-1.22464679915E-016,-1.)) ;
#565=DIRECTION('Axis2P3D XDirection',(-5.45097461225E-016,-1.,1.22464679915E-016)) ;
#569=DIRECTION('Axis2P3D Direction',(0.,-1.22464679915E-016,-1.)) ;
#598=DIRECTION('Vector Direction',(0.,0.,-1.)) ;
#622=DIRECTION('Vector Direction',(0.,0.,-1.)) ;
#638=DIRECTION('Axis2P3D Direction',(-6.12323399574E-017,1.,-1.22464679915E-016)) ;
#639=DIRECTION('Axis2P3D XDirection',(1.,6.12323399574E-017,-7.49879891331E-033)) ;
#643=DIRECTION('Vector Direction',(0.987399187988,7.24558465002E-017,-0.158249308245)) ;
#650=DIRECTION('Vector Direction',(-0.949509301433,0.,0.313738882659)) ;
#657=DIRECTION('Vector Direction',(0.,-1.88395331082E-016,-1.)) ;
#681=DIRECTION('Vector Direction',(-0.949509301433,-1.95395355821E-017,0.313738882659)) ;
#688=DIRECTION('Vector Direction',(0.,-1.,1.64845914696E-016)) ;
#701=DIRECTION('Axis2P3D Direction',(0.,-1.22464679915E-016,-1.)) ;
#702=DIRECTION('Axis2P3D XDirection',(3.85887537859E-015,-1.,1.22464679915E-016)) ;
#706=DIRECTION('Vector Direction',(0.,-1.95848136039E-016,-1.)) ;
#720=DIRECTION('Vector Direction',(0.,-1.95848136039E-016,-1.)) ;
#734=DIRECTION('Axis2P3D Direction',(0.,-1.22464679915E-016,-1.)) ;
#735=DIRECTION('Axis2P3D XDirection',(-0.374684639995,-0.927152317881,1.13543411841E-016)) ;
#746=DIRECTION('Axis2P3D Direction',(0.,-1.22464679915E-016,-1.)) ;
#747=DIRECTION('Axis2P3D XDirection',(1.,6.12323399574E-017,-7.49879891331E-033)) ;
#751=DIRECTION('Vector Direction',(8.57041775426E-017,-1.,0.)) ;
#763=DIRECTION('Axis2P3D Direction',(0.,-1.22464679915E-016,-1.)) ;
#764=DIRECTION('Axis2P3D XDirection',(0.87758256189,-0.479425538604,0.)) ;
#803=DIRECTION('Axis2P3D Direction',(0.479425538604,0.87758256189,-1.07472867541E-016)) ;
#810=DIRECTION('Axis2P3D Direction',(0.,-1.22464679915E-016,-1.)) ;
#825=DIRECTION('Axis2P3D Direction',(-0.608770741046,0.793346194827,-9.7156887811E-017)) ;
#826=DIRECTION('Axis2P3D XDirection',(0.793346194827,0.608770741046,-7.45529139437E-017)) ;
#870=DIRECTION('Vector Direction',(0.,-1.37068699801E-016,-1.)) ;
#902=DIRECTION('Axis2P3D Direction',(6.12323399574E-017,-1.,1.22464679915E-016)) ;
#903=DIRECTION('Axis2P3D XDirection',(1.83697019872E-016,1.22464679915E-016,1.)) ;
#990=DIRECTION('Vector Direction',(0.987399187988,4.06385098877E-017,-0.158249308245)) ;
#997=DIRECTION('Vector Direction',(0.,-1.,0.)) ;
#1010=DIRECTION('Axis2P3D Direction',(0.,-1.22464679915E-016,-1.)) ;
#1011=DIRECTION('Axis2P3D XDirection',(0.87758256189,-0.479425538604,0.)) ;
#1036=DIRECTION('Axis2P3D Direction',(0.,-1.22464679915E-016,-1.)) ;
#1058=DIRECTION('Axis2P3D Direction',(0.608770741046,0.793346194827,-9.7156887811E-017)) ;
#1059=DIRECTION('Axis2P3D XDirection',(0.793346194827,-0.608770741046,7.45529139437E-017)) ;
#1063=DIRECTION('Vector Direction',(0.,-1.37068699801E-016,-1.)) ;
#1116=DIRECTION('Axis2P3D Direction',(1.,0.,0.)) ;
#1117=DIRECTION('Axis2P3D XDirection',(0.,0.,-1.)) ;
#1121=DIRECTION('Vector Direction',(0.,0.,-1.)) ;
#1133=DIRECTION('Axis2P3D Direction',(6.12323399574E-017,-1.,1.22464679915E-016)) ;
#1134=DIRECTION('Axis2P3D XDirection',(-1.,-6.12323399574E-017,7.49879891331E-033)) ;
#1145=DIRECTION('Axis2P3D Direction',(0.,-1.22464679915E-016,-1.)) ;
#1156=DIRECTION('Axis2P3D Direction',(0.,1.22464679915E-016,1.)) ;
#1157=DIRECTION('Axis2P3D XDirection',(0.87758256189,-0.479425538604,0.)) ;
#1161=DIRECTION('Vector Direction',(0.117850957595,-0.0643822715646,0.990942013895)) ;
#1168=DIRECTION('Axis2P3D Direction',(0.,1.22464679915E-016,1.)) ;
#1175=DIRECTION('Vector Direction',(-0.0397950517025,0.12825864087,0.990942013895)) ;
#1187=DIRECTION('Axis2P3D Direction',(0.,-1.22464679915E-016,-1.)) ;
#1188=DIRECTION('Axis2P3D XDirection',(-0.608770741046,-0.793346194827,9.7156887811E-017)) ;
#1192=DIRECTION('Axis2P3D Direction',(0.,-1.22464679915E-016,-1.)) ;
#1199=DIRECTION('Axis2P3D Direction',(0.,-1.22464679915E-016,-1.)) ;
#1233=DIRECTION('Axis2P3D Direction',(0.,-1.22464679915E-016,-1.)) ;
#1244=DIRECTION('Axis2P3D Direction',(0.,-1.22464679915E-016,-1.)) ;
#1245=DIRECTION('Axis2P3D XDirection',(-0.608770741046,-0.793346194827,9.7156887811E-017)) ;
#1249=DIRECTION('Axis2P3D Direction',(0.,-1.22464679915E-016,-1.)) ;
#1282=DIRECTION('Axis2P3D Direction',(0.,-1.22464679915E-016,-1.)) ;
#1293=DIRECTION('Axis2P3D Direction',(0.,1.22464679915E-016,1.)) ;
#1294=DIRECTION('Axis2P3D XDirection',(0.87758256189,-0.479425538604,0.)) ;
#1298=DIRECTION('Axis2P3D Direction',(0.,1.22464679915E-016,1.)) ;
#1305=DIRECTION('Vector Direction',(-0.0397950517025,-0.12825864087,0.990942013895)) ;
#1317=DIRECTION('Axis2P3D Direction',(0.,-1.22464679915E-016,-1.)) ;
#1328=DIRECTION('Axis2P3D Direction',(0.,1.22464679915E-016,1.)) ;
#1335=DIRECTION('Vector Direction',(-0.117850957595,0.0643822715646,0.990942013895)) ;
#1348=DIRECTION('Axis2P3D Direction',(0.,0.,-1.)) ;
#1349=DIRECTION('Axis2P3D XDirection',(0.739024430317,-0.673678626197,0.)) ;
#1353=DIRECTION('Axis2P3D Direction',(0.,0.,-1.)) ;
#1362=DIRECTION('Axis2P3D Direction',(0.,0.,-1.)) ;
#1367=DIRECTION('Axis2P3D Direction',(0.,0.,-1.)) ;
#1381=DIRECTION('Vector Direction',(-0.126231983219,0.0458193355517,0.990942013895)) ;
#1393=DIRECTION('Vector Direction',(-0.126231983219,-0.0458193355517,0.990942013895)) ;
#48=AXIS2_PLACEMENT_3D(' ',#47,$,$) ;
#55=AXIS2_PLACEMENT_3D('Plane Axis2P3D',#52,#53,#54) ;
#75=AXIS2_PLACEMENT_3D('Circle Axis2P3D',#73,#74,$) ;
#89=AXIS2_PLACEMENT_3D('Circle Axis2P3D',#87,#88,$) ;
#111=AXIS2_PLACEMENT_3D('Plane Axis2P3D',#108,#109,#110) ;
#142=AXIS2_PLACEMENT_3D('Plane Axis2P3D',#139,#140,#141) ;
#177=AXIS2_PLACEMENT_3D('Cylinder Axis2P3D',#174,#175,#176) ;
#227=AXIS2_PLACEMENT_3D('Circle Axis2P3D',#225,#226,$) ;
#279=AXIS2_PLACEMENT_3D('Cylinder Axis2P3D',#276,#277,#278) ;
#283=AXIS2_PLACEMENT_3D('Circle Axis2P3D',#281,#282,$) ;
#306=AXIS2_PLACEMENT_3D('Circle Axis2P3D',#304,#305,$) ;
#362=AXIS2_PLACEMENT_3D('Cylinder Axis2P3D',#359,#360,#361) ;
#389=AXIS2_PLACEMENT_3D('Circle Axis2P3D',#387,#388,$) ;
#452=AXIS2_PLACEMENT_3D('Plane Axis2P3D',#449,#450,#451) ;
#483=AXIS2_PLACEMENT_3D('Plane Axis2P3D',#480,#481,#482) ;
#500=AXIS2_PLACEMENT_3D('Cylinder Axis2P3D',#497,#498,#499) ;
#519=AXIS2_PLACEMENT_3D('Plane Axis2P3D',#516,#517,#518) ;
#523=AXIS2_PLACEMENT_3D('Circle Axis2P3D',#521,#522,$) ;
#535=AXIS2_PLACEMENT_3D('Plane Axis2P3D',#532,#533,#534) ;
#539=AXIS2_PLACEMENT_3D('Circle Axis2P3D',#537,#538,$) ;
#546=AXIS2_PLACEMENT_3D('Circle Axis2P3D',#544,#545,$) ;
#553=AXIS2_PLACEMENT_3D('Circle Axis2P3D',#551,#552,$) ;
#566=AXIS2_PLACEMENT_3D('Cylinder Axis2P3D',#563,#564,#565) ;
#570=AXIS2_PLACEMENT_3D('Circle Axis2P3D',#568,#569,$) ;
#640=AXIS2_PLACEMENT_3D('Plane Axis2P3D',#637,#638,#639) ;
#703=AXIS2_PLACEMENT_3D('Cylinder Axis2P3D',#700,#701,#702) ;
#736=AXIS2_PLACEMENT_3D('Cylinder Axis2P3D',#733,#734,#735) ;
#748=AXIS2_PLACEMENT_3D('Plane Axis2P3D',#745,#746,#747) ;
#765=AXIS2_PLACEMENT_3D('Torus Axis2P3D',#762,#763,#764) ;
#804=AXIS2_PLACEMENT_3D('Circle Axis2P3D',#802,#803,$) ;
#811=AXIS2_PLACEMENT_3D('Circle Axis2P3D',#809,#810,$) ;
#827=AXIS2_PLACEMENT_3D('Plane Axis2P3D',#824,#825,#826) ;
#904=AXIS2_PLACEMENT_3D('Cylinder Axis2P3D',#901,#902,#903) ;
#1012=AXIS2_PLACEMENT_3D('Torus Axis2P3D',#1009,#1010,#1011) ;
#1037=AXIS2_PLACEMENT_3D('Circle Axis2P3D',#1035,#1036,$) ;
#1060=AXIS2_PLACEMENT_3D('Plane Axis2P3D',#1057,#1058,#1059) ;
#1118=AXIS2_PLACEMENT_3D('Plane Axis2P3D',#1115,#1116,#1117) ;
#1135=AXIS2_PLACEMENT_3D('Plane Axis2P3D',#1132,#1133,#1134) ;
#1146=AXIS2_PLACEMENT_3D('Circle Axis2P3D',#1144,#1145,$) ;
#1158=AXIS2_PLACEMENT_3D('Cone Axis2P3D',#1155,#1156,#1157) ;
#1169=AXIS2_PLACEMENT_3D('Circle Axis2P3D',#1167,#1168,$) ;
#1189=AXIS2_PLACEMENT_3D('Cylinder Axis2P3D',#1186,#1187,#1188) ;
#1193=AXIS2_PLACEMENT_3D('Circle Axis2P3D',#1191,#1192,$) ;
#1200=AXIS2_PLACEMENT_3D('Circle Axis2P3D',#1198,#1199,$) ;
#1234=AXIS2_PLACEMENT_3D('Circle Axis2P3D',#1232,#1233,$) ;
#1246=AXIS2_PLACEMENT_3D('Cylinder Axis2P3D',#1243,#1244,#1245) ;
#1250=AXIS2_PLACEMENT_3D('Circle Axis2P3D',#1248,#1249,$) ;
#1283=AXIS2_PLACEMENT_3D('Circle Axis2P3D',#1281,#1282,$) ;
#1295=AXIS2_PLACEMENT_3D('Cone Axis2P3D',#1292,#1293,#1294) ;
#1299=AXIS2_PLACEMENT_3D('Circle Axis2P3D',#1297,#1298,$) ;
#1318=AXIS2_PLACEMENT_3D('Circle Axis2P3D',#1316,#1317,$) ;
#1329=AXIS2_PLACEMENT_3D('Circle Axis2P3D',#1327,#1328,$) ;
#1350=AXIS2_PLACEMENT_3D('Plane Axis2P3D',#1347,#1348,#1349) ;
#1354=AXIS2_PLACEMENT_3D('Circle Axis2P3D',#1352,#1353,$) ;
#1363=AXIS2_PLACEMENT_3D('Circle Axis2P3D',#1361,#1362,$) ;
#1368=AXIS2_PLACEMENT_3D('Circle Axis2P3D',#1366,#1367,$) ;
#40=PRODUCT_DEFINITION_SHAPE(' ',' ',#14) ;
#31=APPROVAL_PERSON_ORGANIZATION(#25,#21,#19) ;
#25=PERSON_AND_ORGANIZATION(#22,#23) ;
#22=PERSON(' ',' ',' ',$,$,$) ;
#23=ORGANIZATION(' ',' ',' ') ;
#21=APPROVAL(#20,' ') ;
#20=APPROVAL_STATUS('not_yet_approved') ;
#19=APPROVAL_ROLE('APPROVER') ;
#13=DATE_AND_TIME(#11,#12) ;
#12=LOCAL_TIME(23,15,9.,#10) ;
#10=COORDINATED_UNIVERSAL_TIME_OFFSET(0,0,.AHEAD.) ;
#100=ORIENTED_EDGE('',*,*,#65,.T.) ;
#101=ORIENTED_EDGE('',*,*,#72,.T.) ;
#102=ORIENTED_EDGE('',*,*,#79,.F.) ;
#103=ORIENTED_EDGE('',*,*,#86,.F.) ;
#104=ORIENTED_EDGE('',*,*,#93,.T.) ;
#105=ORIENTED_EDGE('',*,*,#98,.T.) ;
#133=ORIENTED_EDGE('',*,*,#119,.F.) ;
#134=ORIENTED_EDGE('',*,*,#65,.F.) ;
#135=ORIENTED_EDGE('',*,*,#126,.T.) ;
#136=ORIENTED_EDGE('',*,*,#131,.T.) ;
#167=ORIENTED_EDGE('',*,*,#150,.T.) ;
#168=ORIENTED_EDGE('',*,*,#160,.T.) ;
#169=ORIENTED_EDGE('',*,*,#165,.F.) ;
#170=ORIENTED_EDGE('',*,*,#72,.F.) ;
#171=ORIENTED_EDGE('',*,*,#119,.T.) ;
#263=ORIENTED_EDGE('',*,*,#188,.T.) ;
#264=ORIENTED_EDGE('',*,*,#207,.T.) ;
#265=ORIENTED_EDGE('',*,*,#217,.T.) ;
#266=ORIENTED_EDGE('',*,*,#224,.T.) ;
#267=ORIENTED_EDGE('',*,*,#231,.F.) ;
#268=ORIENTED_EDGE('',*,*,#240,.T.) ;
#269=ORIENTED_EDGE('',*,*,#247,.F.) ;
#270=ORIENTED_EDGE('',*,*,#254,.F.) ;
#271=ORIENTED_EDGE('',*,*,#261,.F.) ;
#272=ORIENTED_EDGE('',*,*,#79,.T.) ;
#273=ORIENTED_EDGE('',*,*,#165,.T.) ;
#349=ORIENTED_EDGE('',*,*,#289,.T.) ;
#350=ORIENTED_EDGE('',*,*,#303,.T.) ;
#351=ORIENTED_EDGE('',*,*,#86,.T.) ;
#352=ORIENTED_EDGE('',*,*,#261,.T.) ;
#353=ORIENTED_EDGE('',*,*,#310,.F.) ;
#354=ORIENTED_EDGE('',*,*,#329,.F.) ;
#355=ORIENTED_EDGE('',*,*,#336,.F.) ;
#356=ORIENTED_EDGE('',*,*,#347,.F.) ;
#437=ORIENTED_EDGE('',*,*,#370,.F.) ;
#438=ORIENTED_EDGE('',*,*,#93,.F.) ;
#439=ORIENTED_EDGE('',*,*,#303,.F.) ;
#440=ORIENTED_EDGE('',*,*,#377,.T.) ;
#441=ORIENTED_EDGE('',*,*,#386,.T.) ;
#442=ORIENTED_EDGE('',*,*,#393,.T.) ;
#443=ORIENTED_EDGE('',*,*,#400,.F.) ;
#444=ORIENTED_EDGE('',*,*,#409,.T.) ;
#445=ORIENTED_EDGE('',*,*,#428,.T.) ;
#446=ORIENTED_EDGE('',*,*,#435,.T.) ;
#473=ORIENTED_EDGE('',*,*,#466,.T.) ;
#474=ORIENTED_EDGE('',*,*,#471,.T.) ;
#475=ORIENTED_EDGE('',*,*,#126,.F.) ;
#476=ORIENTED_EDGE('',*,*,#98,.F.) ;
#477=ORIENTED_EDGE('',*,*,#370,.T.) ;
#491=ORIENTED_EDGE('',*,*,#131,.F.) ;
#492=ORIENTED_EDGE('',*,*,#471,.F.) ;
#493=ORIENTED_EDGE('',*,*,#489,.T.) ;
#494=ORIENTED_EDGE('',*,*,#150,.F.) ;
#508=ORIENTED_EDGE('',*,*,#188,.F.) ;
#509=ORIENTED_EDGE('',*,*,#160,.F.) ;
#510=ORIENTED_EDGE('',*,*,#489,.F.) ;
#511=ORIENTED_EDGE('',*,*,#466,.F.) ;
#512=ORIENTED_EDGE('',*,*,#435,.F.) ;
#513=ORIENTED_EDGE('',*,*,#506,.T.) ;
#527=ORIENTED_EDGE('',*,*,#254,.T.) ;
#528=ORIENTED_EDGE('',*,*,#525,.F.) ;
#529=ORIENTED_EDGE('',*,*,#310,.T.) ;
#557=ORIENTED_EDGE('',*,*,#247,.T.) ;
#558=ORIENTED_EDGE('',*,*,#543,.T.) ;
#559=ORIENTED_EDGE('',*,*,#550,.F.) ;
#560=ORIENTED_EDGE('',*,*,#555,.F.) ;
#627=ORIENTED_EDGE('',*,*,#574,.T.) ;
#628=ORIENTED_EDGE('',*,*,#596,.T.) ;
#629=ORIENTED_EDGE('',*,*,#603,.T.) ;
#630=ORIENTED_EDGE('',*,*,#620,.T.) ;
#631=ORIENTED_EDGE('',*,*,#543,.F.) ;
#632=ORIENTED_EDGE('',*,*,#240,.F.) ;
#633=ORIENTED_EDGE('',*,*,#625,.F.) ;
#634=ORIENTED_EDGE('',*,*,#386,.F.) ;
#662=ORIENTED_EDGE('',*,*,#648,.F.) ;
#663=ORIENTED_EDGE('',*,*,#393,.F.) ;
#664=ORIENTED_EDGE('',*,*,#625,.T.) ;
#665=ORIENTED_EDGE('',*,*,#231,.T.) ;
#666=ORIENTED_EDGE('',*,*,#655,.F.) ;
#667=ORIENTED_EDGE('',*,*,#660,.F.) ;
#693=ORIENTED_EDGE('',*,*,#679,.T.) ;
#694=ORIENTED_EDGE('',*,*,#686,.T.) ;
#695=ORIENTED_EDGE('',*,*,#691,.T.) ;
#696=ORIENTED_EDGE('',*,*,#655,.T.) ;
#697=ORIENTED_EDGE('',*,*,#224,.F.) ;
#725=ORIENTED_EDGE('',*,*,#679,.F.) ;
#726=ORIENTED_EDGE('',*,*,#217,.F.) ;
#727=ORIENTED_EDGE('',*,*,#709,.F.) ;
#728=ORIENTED_EDGE('',*,*,#409,.F.) ;
#729=ORIENTED_EDGE('',*,*,#718,.F.) ;
#730=ORIENTED_EDGE('',*,*,#723,.T.) ;
#739=ORIENTED_EDGE('',*,*,#207,.F.) ;
#740=ORIENTED_EDGE('',*,*,#506,.F.) ;
#741=ORIENTED_EDGE('',*,*,#428,.F.) ;
#742=ORIENTED_EDGE('',*,*,#709,.T.) ;
#756=ORIENTED_EDGE('',*,*,#754,.T.) ;
#757=ORIENTED_EDGE('',*,*,#574,.F.) ;
#758=ORIENTED_EDGE('',*,*,#377,.F.) ;
#759=ORIENTED_EDGE('',*,*,#289,.F.) ;
#815=ORIENTED_EDGE('',*,*,#793,.F.) ;
#816=ORIENTED_EDGE('',*,*,#801,.T.) ;
#817=ORIENTED_EDGE('',*,*,#329,.T.) ;
#818=ORIENTED_EDGE('',*,*,#525,.T.) ;
#819=ORIENTED_EDGE('',*,*,#555,.T.) ;
#820=ORIENTED_EDGE('',*,*,#808,.T.) ;
#821=ORIENTED_EDGE('',*,*,#813,.F.) ;
#894=ORIENTED_EDGE('',*,*,#336,.T.) ;
#895=ORIENTED_EDGE('',*,*,#801,.F.) ;
#896=ORIENTED_EDGE('',*,*,#868,.F.) ;
#897=ORIENTED_EDGE('',*,*,#875,.F.) ;
#898=ORIENTED_EDGE('',*,*,#892,.T.) ;
#980=ORIENTED_EDGE('',*,*,#347,.T.) ;
#981=ORIENTED_EDGE('',*,*,#892,.F.) ;
#982=ORIENTED_EDGE('',*,*,#936,.F.) ;
#983=ORIENTED_EDGE('',*,*,#967,.T.) ;
#984=ORIENTED_EDGE('',*,*,#978,.T.) ;
#985=ORIENTED_EDGE('',*,*,#596,.F.) ;
#986=ORIENTED_EDGE('',*,*,#754,.F.) ;
#1002=ORIENTED_EDGE('',*,*,#995,.T.) ;
#1003=ORIENTED_EDGE('',*,*,#718,.T.) ;
#1004=ORIENTED_EDGE('',*,*,#400,.T.) ;
#1005=ORIENTED_EDGE('',*,*,#648,.T.) ;
#1006=ORIENTED_EDGE('',*,*,#1000,.F.) ;
#1049=ORIENTED_EDGE('',*,*,#1034,.T.) ;
#1050=ORIENTED_EDGE('',*,*,#1039,.F.) ;
#1051=ORIENTED_EDGE('',*,*,#808,.F.) ;
#1052=ORIENTED_EDGE('',*,*,#550,.T.) ;
#1053=ORIENTED_EDGE('',*,*,#620,.F.) ;
#1054=ORIENTED_EDGE('',*,*,#1047,.F.) ;
#1108=ORIENTED_EDGE('',*,*,#978,.F.) ;
#1109=ORIENTED_EDGE('',*,*,#1068,.T.) ;
#1110=ORIENTED_EDGE('',*,*,#1106,.T.) ;
#1111=ORIENTED_EDGE('',*,*,#1047,.T.) ;
#1112=ORIENTED_EDGE('',*,*,#603,.F.) ;
#1126=ORIENTED_EDGE('',*,*,#691,.F.) ;
#1127=ORIENTED_EDGE('',*,*,#1124,.F.) ;
#1128=ORIENTED_EDGE('',*,*,#1000,.T.) ;
#1129=ORIENTED_EDGE('',*,*,#660,.T.) ;
#1138=ORIENTED_EDGE('',*,*,#686,.F.) ;
#1139=ORIENTED_EDGE('',*,*,#723,.F.) ;
#1140=ORIENTED_EDGE('',*,*,#995,.F.) ;
#1141=ORIENTED_EDGE('',*,*,#1124,.T.) ;
#1150=ORIENTED_EDGE('',*,*,#793,.T.) ;
#1151=ORIENTED_EDGE('',*,*,#1148,.F.) ;
#1152=ORIENTED_EDGE('',*,*,#868,.T.) ;
#1180=ORIENTED_EDGE('',*,*,#813,.T.) ;
#1181=ORIENTED_EDGE('',*,*,#1166,.F.) ;
#1182=ORIENTED_EDGE('',*,*,#1173,.F.) ;
#1183=ORIENTED_EDGE('',*,*,#1178,.T.) ;
#1226=ORIENTED_EDGE('',*,*,#875,.T.) ;
#1227=ORIENTED_EDGE('',*,*,#1197,.T.) ;
#1228=ORIENTED_EDGE('',*,*,#1204,.T.) ;
#1229=ORIENTED_EDGE('',*,*,#1224,.F.) ;
#1238=ORIENTED_EDGE('',*,*,#1236,.T.) ;
#1239=ORIENTED_EDGE('',*,*,#936,.T.) ;
#1240=ORIENTED_EDGE('',*,*,#1224,.T.) ;
#1276=ORIENTED_EDGE('',*,*,#967,.F.) ;
#1277=ORIENTED_EDGE('',*,*,#1254,.T.) ;
#1278=ORIENTED_EDGE('',*,*,#1274,.F.) ;
#1287=ORIENTED_EDGE('',*,*,#1034,.F.) ;
#1288=ORIENTED_EDGE('',*,*,#1106,.F.) ;
#1289=ORIENTED_EDGE('',*,*,#1285,.F.) ;
#1310=ORIENTED_EDGE('',*,*,#1303,.F.) ;
#1311=ORIENTED_EDGE('',*,*,#1166,.T.) ;
#1312=ORIENTED_EDGE('',*,*,#1039,.T.) ;
#1313=ORIENTED_EDGE('',*,*,#1308,.F.) ;
#1322=ORIENTED_EDGE('',*,*,#1320,.T.) ;
#1323=ORIENTED_EDGE('',*,*,#1068,.F.) ;
#1324=ORIENTED_EDGE('',*,*,#1274,.T.) ;
#1340=ORIENTED_EDGE('',*,*,#1333,.F.) ;
#1341=ORIENTED_EDGE('',*,*,#1338,.T.) ;
#1342=ORIENTED_EDGE('',*,*,#1197,.F.) ;
#1343=ORIENTED_EDGE('',*,*,#1148,.T.) ;
#1344=ORIENTED_EDGE('',*,*,#1178,.F.) ;
#1372=ORIENTED_EDGE('',*,*,#1360,.T.) ;
#1373=ORIENTED_EDGE('',*,*,#1365,.T.) ;
#1374=ORIENTED_EDGE('',*,*,#1333,.T.) ;
#1375=ORIENTED_EDGE('',*,*,#1173,.T.) ;
#1376=ORIENTED_EDGE('',*,*,#1303,.T.) ;
#1377=ORIENTED_EDGE('',*,*,#1370,.T.) ;
#1386=ORIENTED_EDGE('',*,*,#1204,.F.) ;
#1387=ORIENTED_EDGE('',*,*,#1338,.F.) ;
#1388=ORIENTED_EDGE('',*,*,#1365,.F.) ;
#1389=ORIENTED_EDGE('',*,*,#1384,.T.) ;
#1398=ORIENTED_EDGE('',*,*,#1360,.F.) ;
#1399=ORIENTED_EDGE('',*,*,#1396,.T.) ;
#1400=ORIENTED_EDGE('',*,*,#1254,.F.) ;
#1401=ORIENTED_EDGE('',*,*,#1236,.F.) ;
#1402=ORIENTED_EDGE('',*,*,#1384,.F.) ;
#1406=ORIENTED_EDGE('',*,*,#1370,.F.) ;
#1407=ORIENTED_EDGE('',*,*,#1308,.T.) ;
#1408=ORIENTED_EDGE('',*,*,#1285,.T.) ;
#1409=ORIENTED_EDGE('',*,*,#1320,.F.) ;
#1410=ORIENTED_EDGE('',*,*,#1396,.F.) ;
#51=CLOSED_SHELL('Closed Shell',(#107,#138,#173,#275,#358,#448,#479,#496,#515,#531,#562,#636,#669,#699,#732,#744,#761,#823,#900,#988,#1008,#1056,#1114,#1131,#1143,#1154,#1185,#1231,#1242,#1280,#1291,#1315,#1326,#1346,#1379,#1391,#1404,#1412)) ;
#59=VECTOR('Line Direction',#58,1.) ;
#68=VECTOR('Line Direction',#67,1.) ;
#82=VECTOR('Line Direction',#81,1.) ;
#96=VECTOR('Line Direction',#95,1.) ;
#115=VECTOR('Line Direction',#114,1.) ;
#122=VECTOR('Line Direction',#121,1.) ;
#129=VECTOR('Line Direction',#128,1.) ;
#146=VECTOR('Line Direction',#145,1.) ;
#163=VECTOR('Line Direction',#162,1.) ;
#220=VECTOR('Line Direction',#219,1.) ;
#243=VECTOR('Line Direction',#242,1.) ;
#250=VECTOR('Line Direction',#249,1.) ;
#332=VECTOR('Line Direction',#331,1.) ;
#366=VECTOR('Line Direction',#365,1.) ;
#373=VECTOR('Line Direction',#372,1.) ;
#396=VECTOR('Line Direction',#395,1.) ;
#469=VECTOR('Line Direction',#468,1.) ;
#487=VECTOR('Line Direction',#486,1.) ;
#504=VECTOR('Line Direction',#503,1.) ;
#599=VECTOR('Line Direction',#598,1.) ;
#623=VECTOR('Line Direction',#622,1.) ;
#644=VECTOR('Line Direction',#643,1.) ;
#651=VECTOR('Line Direction',#650,1.) ;
#658=VECTOR('Line Direction',#657,1.) ;
#682=VECTOR('Line Direction',#681,1.) ;
#689=VECTOR('Line Direction',#688,1.) ;
#707=VECTOR('Line Direction',#706,1.) ;
#721=VECTOR('Line Direction',#720,1.) ;
#752=VECTOR('Line Direction',#751,1.) ;
#871=VECTOR('Line Direction',#870,1.) ;
#991=VECTOR('Line Direction',#990,1.) ;
#998=VECTOR('Line Direction',#997,1.) ;
#1064=VECTOR('Line Direction',#1063,1.) ;
#1122=VECTOR('Line Direction',#1121,1.) ;
#1162=VECTOR('Line Direction',#1161,1.) ;
#1176=VECTOR('Line Direction',#1175,1.) ;
#1306=VECTOR('Line Direction',#1305,1.) ;
#1336=VECTOR('Line Direction',#1335,1.) ;
#1382=VECTOR('Line Direction',#1381,1.) ;
#1394=VECTOR('Line Direction',#1393,1.) ;
#1414=ADVANCED_BREP_SHAPE_REPRESENTATION('NONE',(#1413),#46) ;
#49=SHAPE_REPRESENTATION(' ',(#48),#46) ;
#107=ADVANCED_FACE('salome-dt',(#106),#56,.T.) ;
#138=ADVANCED_FACE('salome-dt',(#137),#112,.T.) ;
#173=ADVANCED_FACE('salome-dt',(#172),#143,.F.) ;
#275=ADVANCED_FACE('salome-dt',(#274),#178,.F.) ;
#358=ADVANCED_FACE('salome-dt',(#357),#280,.T.) ;
#448=ADVANCED_FACE('salome-dt',(#447),#363,.T.) ;
#479=ADVANCED_FACE('salome-dt',(#478),#453,.F.) ;
#496=ADVANCED_FACE('salome-dt',(#495),#484,.T.) ;
#515=ADVANCED_FACE('salome-dt',(#514),#501,.F.) ;
#531=ADVANCED_FACE('salome-dt',(#530),#520,.T.) ;
#562=ADVANCED_FACE('salome-dt',(#561),#536,.T.) ;
#636=ADVANCED_FACE('salome-dt',(#635),#567,.T.) ;
#669=ADVANCED_FACE('salome-dt',(#668),#641,.F.) ;
#699=ADVANCED_FACE('salome-dt',(#698),#143,.F.) ;
#732=ADVANCED_FACE('salome-dt',(#731),#704,.F.) ;
#744=ADVANCED_FACE('salome-dt',(#743),#737,.F.) ;
#761=ADVANCED_FACE('salome-dt',(#760),#749,.F.) ;
#823=ADVANCED_FACE('salome-dt',(#822),#766,.F.) ;
#900=ADVANCED_FACE('salome-dt',(#899),#828,.T.) ;
#988=ADVANCED_FACE('salome-dt',(#987),#905,.T.) ;
#1008=ADVANCED_FACE('salome-dt',(#1007),#453,.F.) ;
#1056=ADVANCED_FACE('salome-dt',(#1055),#1013,.F.) ;
#1114=ADVANCED_FACE('salome-dt',(#1113),#1061,.F.) ;
#1131=ADVANCED_FACE('salome-dt',(#1130),#1119,.T.) ;
#1143=ADVANCED_FACE('salome-dt',(#1142),#1136,.F.) ;
#1154=ADVANCED_FACE('salome-dt',(#1153),#766,.F.) ;
#1185=ADVANCED_FACE('salome-dt',(#1184),#1159,.T.) ;
#1231=ADVANCED_FACE('salome-dt',(#1230),#1190,.T.) ;
#1242=ADVANCED_FACE('salome-dt',(#1241),#1190,.T.) ;
#1280=ADVANCED_FACE('salome-dt',(#1279),#1247,.T.) ;
#1291=ADVANCED_FACE('salome-dt',(#1290),#1013,.F.) ;
#1315=ADVANCED_FACE('salome-dt',(#1314),#1296,.T.) ;
#1326=ADVANCED_FACE('salome-dt',(#1325),#1247,.T.) ;
#1346=ADVANCED_FACE('salome-dt',(#1345),#1159,.T.) ;
#1379=ADVANCED_FACE('salome-dt',(#1378),#1351,.T.) ;
#1391=ADVANCED_FACE('salome-dt',(#1390),#1296,.T.) ;
#1404=ADVANCED_FACE('salome-dt',(#1403),#1296,.T.) ;
#1412=ADVANCED_FACE('salome-dt',(#1411),#1296,.T.) ;
#4=APPLICATION_PROTOCOL_DEFINITION('international standard','config_control_design',1994,#1) ;
#32=APPROVAL_DATE_TIME(#13,#21) ;
#151=B_SPLINE_CURVE_WITH_KNOTS('',5,(#152,#153,#154,#155,#156,#157),.UNSPECIFIED.,.F.,.U.,(6,6),(0.,262.512182241),.UNSPECIFIED.) ;
#179=B_SPLINE_CURVE_WITH_KNOTS('',5,(#180,#181,#182,#183,#184,#185),.UNSPECIFIED.,.F.,.U.,(6,6),(0.,513.349185032),.UNSPECIFIED.) ;
#189=B_SPLINE_CURVE_WITH_KNOTS('',5,(#190,#191,#192,#193,#194,#195,#196,#197,#198,#199,#200,#201,#202,#203,#204),.UNSPECIFIED.,.F.,.U.,(6,3,3,3,6),(0.,40.8007074522,121.804701136,202.690157742,261.266947291),.UNSPECIFIED.) ;
#208=B_SPLINE_CURVE_WITH_KNOTS('',5,(#209,#210,#211,#212,#213,#214),.UNSPECIFIED.,.F.,.U.,(6,6),(0.,513.34918228),.UNSPECIFIED.) ;
#232=B_SPLINE_CURVE_WITH_KNOTS('',4,(#233,#234,#235,#236,#237),.UNSPECIFIED.,.F.,.U.,(5,5),(0.,609.023219998),.UNSPECIFIED.) ;
#255=B_SPLINE_CURVE_WITH_KNOTS('',4,(#256,#257,#258,#259,#260),.UNSPECIFIED.,.F.,.U.,(5,5),(0.,609.023215856),.UNSPECIFIED.) ;
#290=B_SPLINE_CURVE_WITH_KNOTS('',5,(#291,#292,#293,#294,#295,#296,#297,#298,#299,#300,#301,#302),.UNSPECIFIED.,.F.,.U.,(6,3,3,6),(1.09459919716E-008,29.2628125892,153.081839976,306.163679941),.UNSPECIFIED.) ;
#311=B_SPLINE_CURVE_WITH_KNOTS('',5,(#312,#313,#314,#315,#316,#317,#318,#319,#320,#321,#322,#323,#324,#325,#326),.UNSPECIFIED.,.F.,.U.,(6,3,3,3,6),(0.,438.419443329,681.647993916,927.26871154,1384.91472028),.UNSPECIFIED.) ;
#337=B_SPLINE_CURVE_WITH_KNOTS('',5,(#338,#339,#340,#341,#342,#343,#344,#345,#346),.UNSPECIFIED.,.F.,.U.,(6,3,6),(0.,612.526723978,1228.25620433),.UNSPECIFIED.) ;
#378=B_SPLINE_CURVE_WITH_KNOTS('',4,(#379,#380,#381,#382,#383),.UNSPECIFIED.,.F.,.U.,(5,5),(0.,306.166375817),.UNSPECIFIED.) ;
#401=B_SPLINE_CURVE_WITH_KNOTS('',4,(#402,#403,#404,#405,#406),.UNSPECIFIED.,.F.,.U.,(5,5),(0.,270.164907545),.UNSPECIFIED.) ;
#410=B_SPLINE_CURVE_WITH_KNOTS('',5,(#411,#412,#413,#414,#415,#416,#417,#418,#419,#420,#421,#422,#423,#424,#425),.UNSPECIFIED.,.F.,.U.,(6,3,3,3,6),(0.,81.3476193523,122.034157578,203.40627798,260.487465059),.UNSPECIFIED.) ;
#429=B_SPLINE_CURVE_WITH_KNOTS('',4,(#430,#431,#432,#433,#434),.UNSPECIFIED.,.F.,.U.,(5,5),(0.,270.16490692),.UNSPECIFIED.) ;
#454=B_SPLINE_CURVE_WITH_KNOTS('',5,(#455,#456,#457,#458,#459,#460,#461,#462,#463),.UNSPECIFIED.,.F.,.U.,(6,3,6),(0.,460.112332192,486.441705498),.UNSPECIFIED.) ;
#575=B_SPLINE_CURVE_WITH_KNOTS('',5,(#576,#577,#578,#579,#580,#581,#582,#583,#584,#585,#586,#587,#588,#589,#590,#591,#592,#593),.UNSPECIFIED.,.F.,.U.,(6,3,3,3,3,6),(1.08227289331E-008,29.9998690021,164.834756707,329.669513403,645.859047538,1228.25386723),.UNSPECIFIED.) ;
#604=B_SPLINE_CURVE_WITH_KNOTS('',5,(#605,#606,#607,#608,#609,#610,#611,#612,#613,#614,#615,#616,#617,#618,#619),.UNSPECIFIED.,.F.,.U.,(6,3,3,3,6),(0.,438.419447191,681.647999208,927.268717157,1384.9147266),.UNSPECIFIED.) ;
#670=B_SPLINE_CURVE_WITH_KNOTS('',5,(#671,#672,#673,#674,#675,#676),.UNSPECIFIED.,.F.,.U.,(6,6),(0.,262.512183839),.UNSPECIFIED.) ;
#710=B_SPLINE_CURVE_WITH_KNOTS('',4,(#711,#712,#713,#714,#715),.UNSPECIFIED.,.F.,.U.,(5,5),(0.,486.441709371),.UNSPECIFIED.) ;
#767=B_SPLINE_CURVE_WITH_KNOTS('',5,(#768,#769,#770,#771,#772,#773,#774,#775,#776,#777,#778,#779,#780,#781,#782,#783,#784,#785,#786,#787,#788),.UNSPECIFIED.,.F.,.U.,(6,3,3,3,3,3,6),(0.,250.315755801,367.318951567,505.498885112,589.675731824,662.702872144,777.312424395),.UNSPECIFIED.) ;
#794=B_SPLINE_CURVE_WITH_KNOTS('',5,(#795,#796,#797,#798,#799,#800),.UNSPECIFIED.,.F.,.U.,(6,6),(1076.70415944,1720.90904749),.UNSPECIFIED.) ;
#829=B_SPLINE_CURVE_WITH_KNOTS('',5,(#830,#831,#832,#833,#834,#835,#836,#837,#838,#839,#840,#841,#842,#843,#844,#845,#846,#847,#848,#849,#850,#851,#852,#853,#854,#855,#856,#857,#858,#859,#860,#861,#862,#863,#864,#865),.UNSPECIFIED.,.F.,.U.,(6,3,3,3,3,3,3,3,3,3,3,6),(0.,85.1526836793,159.060671197,238.163746741,340.176680179,429.629919104,524.342927227,631.95253552,761.848387653,907.224641677,1074.98899174,1076.70413741),.UNSPECIFIED.) ;
#876=B_SPLINE_CURVE_WITH_KNOTS('',5,(#877,#878,#879,#880,#881,#882,#883,#884,#885,#886,#887,#888,#889,#890,#891),.UNSPECIFIED.,.F.,.U.,(6,3,3,3,6),(0.,282.647627948,591.978240167,967.975033293,1178.79882654),.UNSPECIFIED.) ;
#906=B_SPLINE_CURVE_WITH_KNOTS('',5,(#907,#908,#909,#910,#911,#912,#913,#914,#915,#916,#917,#918,#919,#920,#921,#922,#923,#924,#925,#926,#927,#928,#929,#930,#931,#932,#933),.UNSPECIFIED.,.F.,.U.,(6,3,3,3,3,3,3,3,6),(0.,17.7416404482,35.4832808964,64.6043992818,212.136077673,424.272155346,730.592719704,995.29845247,1441.03436623),.UNSPECIFIED.) ;
#937=B_SPLINE_CURVE_WITH_KNOTS('',5,(#938,#939,#940,#941,#942,#943,#944,#945,#946,#947,#948,#949,#950,#951,#952,#953,#954,#955,#956,#957,#958,#959,#960,#961,#962,#963,#964),.UNSPECIFIED.,.F.,.U.,(6,3,3,3,3,3,3,3,6),(0.,17.2299535722,34.4599071445,63.5810255299,211.624397441,423.248794882,729.569362954,994.275095785,1440.01100677),.UNSPECIFIED.) ;
#968=B_SPLINE_CURVE_WITH_KNOTS('',5,(#969,#970,#971,#972,#973,#974,#975,#976,#977),.UNSPECIFIED.,.F.,.U.,(6,3,6),(0.,591.978240644,1178.79881226),.UNSPECIFIED.) ;
#1014=B_SPLINE_CURVE_WITH_KNOTS('',5,(#1015,#1016,#1017,#1018,#1019,#1020,#1021,#1022,#1023,#1024,#1025,#1026,#1027,#1028,#1029),.UNSPECIFIED.,.F.,.U.,(6,3,3,3,6),(0.,201.550779026,394.071701679,516.735995114,610.374542145),.UNSPECIFIED.) ;
#1040=B_SPLINE_CURVE_WITH_KNOTS('',5,(#1041,#1042,#1043,#1044,#1045,#1046),.UNSPECIFIED.,.F.,.U.,(6,6),(1076.70415458,1720.90904823),.UNSPECIFIED.) ;
#1069=B_SPLINE_CURVE_WITH_KNOTS('',5,(#1070,#1071,#1072,#1073,#1074,#1075,#1076,#1077,#1078,#1079,#1080,#1081,#1082,#1083,#1084,#1085,#1086,#1087,#1088,#1089,#1090,#1091,#1092,#1093,#1094,#1095,#1096,#1097,#1098,#1099,#1100,#1101,#1102,#1103,#1104,#1105),.UNSPECIFIED.,.F.,.U.,(6,3,3,3,3,3,3,3,3,3,3,6),(0.,85.152685185,159.060674465,238.163751015,340.176690998,429.629938056,524.342950723,631.952559177,761.848409831,907.224662136,1074.98901342,1076.70415891),.UNSPECIFIED.) ;
#1205=B_SPLINE_CURVE_WITH_KNOTS('',5,(#1206,#1207,#1208,#1209,#1210,#1211,#1212,#1213,#1214,#1215,#1216,#1217,#1218,#1219,#1220,#1221,#1222,#1223),.UNSPECIFIED.,.F.,.U.,(6,3,3,3,3,6),(0.,229.820891896,459.641783792,802.408982433,1196.73127636,1285.31114868),.UNSPECIFIED.) ;
#1255=B_SPLINE_CURVE_WITH_KNOTS('',5,(#1256,#1257,#1258,#1259,#1260,#1261,#1262,#1263,#1264,#1265,#1266,#1267,#1268,#1269,#1270,#1271,#1272,#1273),.UNSPECIFIED.,.F.,.U.,(6,3,3,3,3,6),(0.,229.820891957,459.641783915,802.408983279,1196.73127847,1285.31115073),.UNSPECIFIED.) ;
#1413=MANIFOLD_SOLID_BREP('salome-dt',#51) ;
#11=CALENDAR_DATE(2020,17,12) ;
#30=CC_DESIGN_APPROVAL(#21,(#16,#6,#14)) ;
#18=CC_DESIGN_DATE_AND_TIME_ASSIGNMENT(#13,#17,(#16)) ;
#29=CC_DESIGN_DATE_AND_TIME_ASSIGNMENT(#13,#28,(#14)) ;
#17=DATE_TIME_ROLE('classification_date') ;
#28=DATE_TIME_ROLE('creation_date') ;
#27=CC_DESIGN_PERSON_AND_ORGANIZATION_ASSIGNMENT(#25,#26,(#16)) ;
#33=CC_DESIGN_PERSON_AND_ORGANIZATION_ASSIGNMENT(#25,#34,(#6)) ;
#35=CC_DESIGN_PERSON_AND_ORGANIZATION_ASSIGNMENT(#25,#36,(#6,#14)) ;
#37=CC_DESIGN_PERSON_AND_ORGANIZATION_ASSIGNMENT(#25,#38,(#5)) ;
#26=PERSON_AND_ORGANIZATION_ROLE('classification_officer') ;
#34=PERSON_AND_ORGANIZATION_ROLE('design_supplier') ;
#36=PERSON_AND_ORGANIZATION_ROLE('creator') ;
#38=PERSON_AND_ORGANIZATION_ROLE('design_owner') ;
#39=CC_DESIGN_SECURITY_CLASSIFICATION(#16,(#6)) ;
#76=CIRCLE('generated circle',#75,2008.10344828) ;
#90=CIRCLE('generated circle',#89,1637.93103448) ;
#228=CIRCLE('generated circle',#227,2008.10344828) ;
#284=CIRCLE('generated circle',#283,3103.44827586) ;
#307=CIRCLE('generated circle',#306,3103.44827586) ;
#390=CIRCLE('generated circle',#389,1637.93103448) ;
#524=CIRCLE('generated circle',#523,1604.31034483) ;
#540=CIRCLE('generated circle',#539,3103.44827586) ;
#547=CIRCLE('generated circle',#546,1604.31034483) ;
#554=CIRCLE('generated circle',#553,1604.31034483) ;
#571=CIRCLE('generated circle',#570,3103.44827586) ;
#805=CIRCLE('generated circle',#804,975.517241379) ;
#812=CIRCLE('generated circle',#811,636.379310345) ;
#1038=CIRCLE('generated circle',#1037,636.379310345) ;
#1147=CIRCLE('generated circle',#1146,636.379310345) ;
#1170=CIRCLE('generated circle',#1169,525.862068966) ;
#1194=CIRCLE('generated circle',#1193,636.379310345) ;
#1201=CIRCLE('generated circle',#1200,636.379310345) ;
#1235=CIRCLE('generated circle',#1234,636.379310345) ;
#1251=CIRCLE('generated circle',#1250,636.379310345) ;
#1284=CIRCLE('generated circle',#1283,636.379310345) ;
#1300=CIRCLE('generated circle',#1299,525.862068966) ;
#1319=CIRCLE('generated circle',#1318,636.379310345) ;
#1330=CIRCLE('generated circle',#1329,525.862068966) ;
#1355=CIRCLE('generated circle',#1354,525.862068966) ;
#1364=CIRCLE('generated circle',#1363,525.862068966) ;
#1369=CIRCLE('generated circle',#1368,525.862068966) ;
#1159=CONICAL_SURFACE('Cone',#1158,525.862068966,0.134697392332) ;
#1296=CONICAL_SURFACE('Cone',#1295,525.862068966,0.134697392332) ;
#1415=SHAPE_REPRESENTATION_RELATIONSHIP(' ',' ',#49,#1414) ;
#178=CYLINDRICAL_SURFACE('generated cylinder',#177,2008.10344828) ;
#280=CYLINDRICAL_SURFACE('generated cylinder',#279,3103.44827586) ;
#363=CYLINDRICAL_SURFACE('generated cylinder',#362,1637.93103448) ;
#501=CYLINDRICAL_SURFACE('generated cylinder',#500,1379.31034483) ;
#567=CYLINDRICAL_SURFACE('generated cylinder',#566,3103.44827586) ;
#704=CYLINDRICAL_SURFACE('generated cylinder',#703,1379.31034483) ;
#737=CYLINDRICAL_SURFACE('generated cylinder',#736,77.5862068966) ;
#905=CYLINDRICAL_SURFACE('generated cylinder',#904,1506.03448276) ;
#1190=CYLINDRICAL_SURFACE('generated cylinder',#1189,636.379310345) ;
#1247=CYLINDRICAL_SURFACE('generated cylinder',#1246,636.379310345) ;
#766=TOROIDAL_SURFACE('homeo Torus',#765,1604.31034483,975.517241379) ;
#1013=TOROIDAL_SURFACE('homeo Torus',#1012,1604.31034483,975.517241379) ;
#3=DESIGN_CONTEXT(' ',#1,'design') ;
#65=EDGE_CURVE('',#62,#64,#60,.T.) ;
#72=EDGE_CURVE('',#64,#71,#69,.T.) ;
#79=EDGE_CURVE('',#78,#71,#76,.T.) ;
#86=EDGE_CURVE('',#85,#78,#83,.T.) ;
#93=EDGE_CURVE('',#85,#92,#90,.T.) ;
#98=EDGE_CURVE('',#92,#62,#97,.T.) ;
#119=EDGE_CURVE('',#64,#118,#116,.T.) ;
#126=EDGE_CURVE('',#62,#125,#123,.T.) ;
#131=EDGE_CURVE('',#125,#118,#130,.T.) ;
#150=EDGE_CURVE('',#118,#149,#147,.T.) ;
#160=EDGE_CURVE('',#149,#159,#151,.F.) ;
#165=EDGE_CURVE('',#71,#159,#164,.T.) ;
#188=EDGE_CURVE('',#159,#187,#179,.F.) ;
#207=EDGE_CURVE('',#187,#206,#189,.F.) ;
#217=EDGE_CURVE('',#206,#216,#208,.T.) ;
#224=EDGE_CURVE('',#216,#223,#221,.T.) ;
#231=EDGE_CURVE('',#230,#223,#228,.F.) ;
#240=EDGE_CURVE('',#230,#239,#232,.F.) ;
#247=EDGE_CURVE('',#246,#239,#244,.T.) ;
#254=EDGE_CURVE('',#253,#246,#251,.T.) ;
#261=EDGE_CURVE('',#78,#253,#255,.F.) ;
#289=EDGE_CURVE('',#286,#288,#284,.T.) ;
#303=EDGE_CURVE('',#288,#85,#290,.T.) ;
#310=EDGE_CURVE('',#309,#253,#307,.T.) ;
#329=EDGE_CURVE('',#328,#309,#311,.T.) ;
#336=EDGE_CURVE('',#335,#328,#333,.T.) ;
#347=EDGE_CURVE('',#286,#335,#337,.T.) ;
#370=EDGE_CURVE('',#92,#369,#367,.T.) ;
#377=EDGE_CURVE('',#288,#376,#374,.T.) ;
#386=EDGE_CURVE('',#376,#385,#378,.T.) ;
#393=EDGE_CURVE('',#385,#392,#390,.F.) ;
#400=EDGE_CURVE('',#399,#392,#397,.T.) ;
#409=EDGE_CURVE('',#399,#408,#401,.T.) ;
#428=EDGE_CURVE('',#408,#427,#410,.T.) ;
#435=EDGE_CURVE('',#427,#369,#429,.F.) ;
#466=EDGE_CURVE('',#369,#465,#454,.T.) ;
#471=EDGE_CURVE('',#465,#125,#470,.T.) ;
#489=EDGE_CURVE('',#465,#149,#488,.T.) ;
#506=EDGE_CURVE('',#427,#187,#505,.T.) ;
#525=EDGE_CURVE('',#309,#246,#524,.T.) ;
#543=EDGE_CURVE('',#239,#542,#540,.T.) ;
#550=EDGE_CURVE('',#549,#542,#547,.T.) ;
#555=EDGE_CURVE('',#246,#549,#554,.T.) ;
#574=EDGE_CURVE('',#376,#573,#571,.T.) ;
#596=EDGE_CURVE('',#573,#595,#575,.T.) ;
#603=EDGE_CURVE('',#595,#602,#600,.T.) ;
#620=EDGE_CURVE('',#602,#542,#604,.T.) ;
#625=EDGE_CURVE('',#385,#230,#624,.T.) ;
#648=EDGE_CURVE('',#392,#647,#645,.T.) ;
#655=EDGE_CURVE('',#654,#223,#652,.T.) ;
#660=EDGE_CURVE('',#647,#654,#659,.T.) ;
#679=EDGE_CURVE('',#216,#678,#670,.T.) ;
#686=EDGE_CURVE('',#678,#685,#683,.F.) ;
#691=EDGE_CURVE('',#685,#654,#690,.T.) ;
#709=EDGE_CURVE('',#408,#206,#708,.T.) ;
#718=EDGE_CURVE('',#717,#399,#710,.F.) ;
#723=EDGE_CURVE('',#717,#678,#722,.T.) ;
#754=EDGE_CURVE('',#286,#573,#753,.T.) ;
#793=EDGE_CURVE('',#790,#792,#767,.T.) ;
#801=EDGE_CURVE('',#790,#328,#794,.T.) ;
#808=EDGE_CURVE('',#549,#807,#805,.F.) ;
#813=EDGE_CURVE('',#792,#807,#812,.T.) ;
#868=EDGE_CURVE('',#867,#790,#829,.T.) ;
#875=EDGE_CURVE('',#874,#867,#872,.T.) ;
#892=EDGE_CURVE('',#874,#335,#876,.T.) ;
#936=EDGE_CURVE('',#935,#874,#906,.T.) ;
#967=EDGE_CURVE('',#935,#966,#937,.T.) ;
#978=EDGE_CURVE('',#966,#595,#968,.T.) ;
#995=EDGE_CURVE('',#994,#717,#992,.F.) ;
#1000=EDGE_CURVE('',#994,#647,#999,.T.) ;
#1034=EDGE_CURVE('',#1031,#1033,#1014,.T.) ;
#1039=EDGE_CURVE('',#807,#1033,#1038,.T.) ;
#1047=EDGE_CURVE('',#1031,#602,#1040,.T.) ;
#1068=EDGE_CURVE('',#966,#1067,#1065,.T.) ;
#1106=EDGE_CURVE('',#1067,#1031,#1069,.T.) ;
#1124=EDGE_CURVE('',#994,#685,#1123,.T.) ;
#1148=EDGE_CURVE('',#867,#792,#1147,.T.) ;
#1166=EDGE_CURVE('',#1165,#807,#1163,.T.) ;
#1173=EDGE_CURVE('',#1172,#1165,#1170,.F.) ;
#1178=EDGE_CURVE('',#1172,#792,#1177,.T.) ;
#1197=EDGE_CURVE('',#867,#1196,#1194,.F.) ;
#1204=EDGE_CURVE('',#1196,#1203,#1201,.F.) ;
#1224=EDGE_CURVE('',#874,#1203,#1205,.T.) ;
#1236=EDGE_CURVE('',#1203,#935,#1235,.F.) ;
#1254=EDGE_CURVE('',#935,#1253,#1251,.F.) ;
#1274=EDGE_CURVE('',#966,#1253,#1255,.T.) ;
#1285=EDGE_CURVE('',#1033,#1067,#1284,.T.) ;
#1303=EDGE_CURVE('',#1165,#1302,#1300,.F.) ;
#1308=EDGE_CURVE('',#1302,#1033,#1307,.T.) ;
#1320=EDGE_CURVE('',#1253,#1067,#1319,.F.) ;
#1333=EDGE_CURVE('',#1332,#1172,#1330,.F.) ;
#1338=EDGE_CURVE('',#1332,#1196,#1337,.T.) ;
#1360=EDGE_CURVE('',#1357,#1359,#1355,.T.) ;
#1365=EDGE_CURVE('',#1359,#1332,#1364,.T.) ;
#1370=EDGE_CURVE('',#1302,#1357,#1369,.T.) ;
#1384=EDGE_CURVE('',#1359,#1203,#1383,.T.) ;
#1396=EDGE_CURVE('',#1357,#1253,#1395,.T.) ;
#99=EDGE_LOOP('',(#100,#101,#102,#103,#104,#105)) ;
#132=EDGE_LOOP('',(#133,#134,#135,#136)) ;
#166=EDGE_LOOP('',(#167,#168,#169,#170,#171)) ;
#262=EDGE_LOOP('',(#263,#264,#265,#266,#267,#268,#269,#270,#271,#272,#273)) ;
#348=EDGE_LOOP('',(#349,#350,#351,#352,#353,#354,#355,#356)) ;
#436=EDGE_LOOP('',(#437,#438,#439,#440,#441,#442,#443,#444,#445,#446)) ;
#472=EDGE_LOOP('',(#473,#474,#475,#476,#477)) ;
#490=EDGE_LOOP('',(#491,#492,#493,#494)) ;
#507=EDGE_LOOP('',(#508,#509,#510,#511,#512,#513)) ;
#526=EDGE_LOOP('',(#527,#528,#529)) ;
#556=EDGE_LOOP('',(#557,#558,#559,#560)) ;
#626=EDGE_LOOP('',(#627,#628,#629,#630,#631,#632,#633,#634)) ;
#661=EDGE_LOOP('',(#662,#663,#664,#665,#666,#667)) ;
#692=EDGE_LOOP('',(#693,#694,#695,#696,#697)) ;
#724=EDGE_LOOP('',(#725,#726,#727,#728,#729,#730)) ;
#738=EDGE_LOOP('',(#739,#740,#741,#742)) ;
#755=EDGE_LOOP('',(#756,#757,#758,#759)) ;
#814=EDGE_LOOP('',(#815,#816,#817,#818,#819,#820,#821)) ;
#893=EDGE_LOOP('',(#894,#895,#896,#897,#898)) ;
#979=EDGE_LOOP('',(#980,#981,#982,#983,#984,#985,#986)) ;
#1001=EDGE_LOOP('',(#1002,#1003,#1004,#1005,#1006)) ;
#1048=EDGE_LOOP('',(#1049,#1050,#1051,#1052,#1053,#1054)) ;
#1107=EDGE_LOOP('',(#1108,#1109,#1110,#1111,#1112)) ;
#1125=EDGE_LOOP('',(#1126,#1127,#1128,#1129)) ;
#1137=EDGE_LOOP('',(#1138,#1139,#1140,#1141)) ;
#1149=EDGE_LOOP('',(#1150,#1151,#1152)) ;
#1179=EDGE_LOOP('',(#1180,#1181,#1182,#1183)) ;
#1225=EDGE_LOOP('',(#1226,#1227,#1228,#1229)) ;
#1237=EDGE_LOOP('',(#1238,#1239,#1240)) ;
#1275=EDGE_LOOP('',(#1276,#1277,#1278)) ;
#1286=EDGE_LOOP('',(#1287,#1288,#1289)) ;
#1309=EDGE_LOOP('',(#1310,#1311,#1312,#1313)) ;
#1321=EDGE_LOOP('',(#1322,#1323,#1324)) ;
#1339=EDGE_LOOP('',(#1340,#1341,#1342,#1343,#1344)) ;
#1371=EDGE_LOOP('',(#1372,#1373,#1374,#1375,#1376,#1377)) ;
#1385=EDGE_LOOP('',(#1386,#1387,#1388,#1389)) ;
#1397=EDGE_LOOP('',(#1398,#1399,#1400,#1401,#1402)) ;
#1405=EDGE_LOOP('',(#1406,#1407,#1408,#1409,#1410)) ;
#106=FACE_OUTER_BOUND('',#99,.T.) ;
#137=FACE_OUTER_BOUND('',#132,.T.) ;
#172=FACE_OUTER_BOUND('',#166,.T.) ;
#274=FACE_OUTER_BOUND('',#262,.T.) ;
#357=FACE_OUTER_BOUND('',#348,.T.) ;
#447=FACE_OUTER_BOUND('',#436,.T.) ;
#478=FACE_OUTER_BOUND('',#472,.T.) ;
#495=FACE_OUTER_BOUND('',#490,.T.) ;
#514=FACE_OUTER_BOUND('',#507,.T.) ;
#530=FACE_OUTER_BOUND('',#526,.T.) ;
#561=FACE_OUTER_BOUND('',#556,.T.) ;
#635=FACE_OUTER_BOUND('',#626,.T.) ;
#668=FACE_OUTER_BOUND('',#661,.T.) ;
#698=FACE_OUTER_BOUND('',#692,.T.) ;
#731=FACE_OUTER_BOUND('',#724,.T.) ;
#743=FACE_OUTER_BOUND('',#738,.T.) ;
#760=FACE_OUTER_BOUND('',#755,.T.) ;
#822=FACE_OUTER_BOUND('',#814,.T.) ;
#899=FACE_OUTER_BOUND('',#893,.T.) ;
#987=FACE_OUTER_BOUND('',#979,.T.) ;
#1007=FACE_OUTER_BOUND('',#1001,.T.) ;
#1055=FACE_OUTER_BOUND('',#1048,.T.) ;
#1113=FACE_OUTER_BOUND('',#1107,.T.) ;
#1130=FACE_OUTER_BOUND('',#1125,.T.) ;
#1142=FACE_OUTER_BOUND('',#1137,.T.) ;
#1153=FACE_OUTER_BOUND('',#1149,.T.) ;
#1184=FACE_OUTER_BOUND('',#1179,.T.) ;
#1230=FACE_OUTER_BOUND('',#1225,.T.) ;
#1241=FACE_OUTER_BOUND('',#1237,.T.) ;
#1279=FACE_OUTER_BOUND('',#1275,.T.) ;
#1290=FACE_OUTER_BOUND('',#1286,.T.) ;
#1314=FACE_OUTER_BOUND('',#1309,.T.) ;
#1325=FACE_OUTER_BOUND('',#1321,.T.) ;
#1345=FACE_OUTER_BOUND('',#1339,.T.) ;
#1378=FACE_OUTER_BOUND('',#1371,.T.) ;
#1390=FACE_OUTER_BOUND('',#1385,.T.) ;
#1403=FACE_OUTER_BOUND('',#1397,.T.) ;
#1411=FACE_OUTER_BOUND('',#1405,.T.) ;
#45=UNCERTAINTY_MEASURE_WITH_UNIT(LENGTH_MEASURE(0.005),#41,'distance_accuracy_value','CONFUSED CURVE UNCERTAINTY') ;
#60=LINE('Line',#57,#59) ;
#69=LINE('Line',#66,#68) ;
#83=LINE('Line',#80,#82) ;
#97=LINE('Line',#94,#96) ;
#116=LINE('Line',#113,#115) ;
#123=LINE('Line',#120,#122) ;
#130=LINE('Line',#127,#129) ;
#147=LINE('Line',#144,#146) ;
#164=LINE('Line',#161,#163) ;
#221=LINE('Line',#218,#220) ;
#244=LINE('Line',#241,#243) ;
#251=LINE('Line',#248,#250) ;
#333=LINE('Line',#330,#332) ;
#367=LINE('Line',#364,#366) ;
#374=LINE('Line',#371,#373) ;
#397=LINE('Line',#394,#396) ;
#470=LINE('Line',#467,#469) ;
#488=LINE('Line',#485,#487) ;
#505=LINE('Line',#502,#504) ;
#600=LINE('Line',#597,#599) ;
#624=LINE('Line',#621,#623) ;
#645=LINE('Line',#642,#644) ;
#652=LINE('Line',#649,#651) ;
#659=LINE('Line',#656,#658) ;
#683=LINE('Line',#680,#682) ;
#690=LINE('Line',#687,#689) ;
#708=LINE('Line',#705,#707) ;
#722=LINE('Line',#719,#721) ;
#753=LINE('Line',#750,#752) ;
#872=LINE('Line',#869,#871) ;
#992=LINE('Line',#989,#991) ;
#999=LINE('Line',#996,#998) ;
#1065=LINE('Line',#1062,#1064) ;
#1123=LINE('Line',#1120,#1122) ;
#1163=LINE('Line',#1160,#1162) ;
#1177=LINE('Line',#1174,#1176) ;
#1307=LINE('Line',#1304,#1306) ;
#1337=LINE('Line',#1334,#1336) ;
#1383=LINE('Line',#1380,#1382) ;
#1395=LINE('Line',#1392,#1394) ;
#2=MECHANICAL_CONTEXT(' ',#1,'mechanical') ;
#24=PERSONAL_ADDRESS(' ',' ',' ',' ',' ',' ',' ',' ',' ',' ',' ',' ',(#22),' ') ;
#56=PLANE('Plane',#55) ;
#112=PLANE('Plane',#111) ;
#143=PLANE('Plane',#142) ;
#453=PLANE('Plane',#452) ;
#484=PLANE('Plane',#483) ;
#520=PLANE('Plane',#519) ;
#536=PLANE('Plane',#535) ;
#641=PLANE('Plane',#640) ;
#749=PLANE('Plane',#748) ;
#828=PLANE('Plane',#827) ;
#1061=PLANE('Plane',#1060) ;
#1119=PLANE('Plane',#1118) ;
#1136=PLANE('Plane',#1135) ;
#1351=PLANE('Plane',#1350) ;
#43=PLANE_ANGLE_MEASURE_WITH_UNIT(PLANE_ANGLE_MEASURE(0.0174532925199),#42) ;
#7=PRODUCT_CATEGORY('part',$) ;
#9=PRODUCT_CATEGORY_RELATIONSHIP(' ',' ',#7,#8) ;
#6=PRODUCT_DEFINITION_FORMATION_WITH_SPECIFIED_SOURCE('a.000',' ',#5,.NOT_KNOWN.) ;
#8=PRODUCT_RELATED_PRODUCT_CATEGORY('detail',$,(#5)) ;
#50=SHAPE_DEFINITION_REPRESENTATION(#40,#49) ;
#62=VERTEX_POINT('',#61) ;
#64=VERTEX_POINT('',#63) ;
#71=VERTEX_POINT('',#70) ;
#78=VERTEX_POINT('',#77) ;
#85=VERTEX_POINT('',#84) ;
#92=VERTEX_POINT('',#91) ;
#118=VERTEX_POINT('',#117) ;
#125=VERTEX_POINT('',#124) ;
#149=VERTEX_POINT('',#148) ;
#159=VERTEX_POINT('',#158) ;
#187=VERTEX_POINT('',#186) ;
#206=VERTEX_POINT('',#205) ;
#216=VERTEX_POINT('',#215) ;
#223=VERTEX_POINT('',#222) ;
#230=VERTEX_POINT('',#229) ;
#239=VERTEX_POINT('',#238) ;
#246=VERTEX_POINT('',#245) ;
#253=VERTEX_POINT('',#252) ;
#286=VERTEX_POINT('',#285) ;
#288=VERTEX_POINT('',#287) ;
#309=VERTEX_POINT('',#308) ;
#328=VERTEX_POINT('',#327) ;
#335=VERTEX_POINT('',#334) ;
#369=VERTEX_POINT('',#368) ;
#376=VERTEX_POINT('',#375) ;
#385=VERTEX_POINT('',#384) ;
#392=VERTEX_POINT('',#391) ;
#399=VERTEX_POINT('',#398) ;
#408=VERTEX_POINT('',#407) ;
#427=VERTEX_POINT('',#426) ;
#465=VERTEX_POINT('',#464) ;
#542=VERTEX_POINT('',#541) ;
#549=VERTEX_POINT('',#548) ;
#573=VERTEX_POINT('',#572) ;
#595=VERTEX_POINT('',#594) ;
#602=VERTEX_POINT('',#601) ;
#647=VERTEX_POINT('',#646) ;
#654=VERTEX_POINT('',#653) ;
#678=VERTEX_POINT('',#677) ;
#685=VERTEX_POINT('',#684) ;
#717=VERTEX_POINT('',#716) ;
#790=VERTEX_POINT('',#789) ;
#792=VERTEX_POINT('',#791) ;
#807=VERTEX_POINT('',#806) ;
#867=VERTEX_POINT('',#866) ;
#874=VERTEX_POINT('',#873) ;
#935=VERTEX_POINT('',#934) ;
#966=VERTEX_POINT('',#965) ;
#994=VERTEX_POINT('',#993) ;
#1031=VERTEX_POINT('',#1030) ;
#1033=VERTEX_POINT('',#1032) ;
#1067=VERTEX_POINT('',#1066) ;
#1165=VERTEX_POINT('',#1164) ;
#1172=VERTEX_POINT('',#1171) ;
#1196=VERTEX_POINT('',#1195) ;
#1203=VERTEX_POINT('',#1202) ;
#1253=VERTEX_POINT('',#1252) ;
#1302=VERTEX_POINT('',#1301) ;
#1332=VERTEX_POINT('',#1331) ;
#1357=VERTEX_POINT('',#1356) ;
#1359=VERTEX_POINT('',#1358) ;
#41=(LENGTH_UNIT()NAMED_UNIT(*)SI_UNIT(.MILLI.,.METRE.)) ;
#42=(NAMED_UNIT(*)PLANE_ANGLE_UNIT()SI_UNIT($,.RADIAN.)) ;
#44=(NAMED_UNIT(*)SI_UNIT($,.STERADIAN.)SOLID_ANGLE_UNIT()) ;
#46=(GEOMETRIC_REPRESENTATION_CONTEXT(3)GLOBAL_UNCERTAINTY_ASSIGNED_CONTEXT((#45))GLOBAL_UNIT_ASSIGNED_CONTEXT((#41,#42,#44))REPRESENTATION_CONTEXT(' ',' ')) ;
ENDSEC;
END-ISO-10303-21;
