ISO-10303-21;
HEADER;
/* Generated by software containing ST-Developer
 * from STEP Tools, Inc. (www.steptools.com) 
 */

FILE_DESCRIPTION(
/* description */ (''),
/* implementation_level */ '2;1');

FILE_NAME(
/* name */ 
'C:\\Users\\pschwitalla\\OneDrive - igus GmbH\\Documents\\190520_Platt
form Tribocut\\01_Instant Quoting\\L\X\D6SUNGEN\\Oroox\\03_CNC calcula
tion\\40_Calculations\\Pockets\\3.2_NON-PLANAR FLOOR Pocket_v01.stp',
/* time_stamp */ '2022-03-28T19:34:22+02:00',
/* author */ ('pschwitalla'),
/* organization */ ('igus GmbH'),
/* preprocessor_version */ 'ST-DEVELOPER v18.1',
/* originating_system */ 'Autodesk Inventor 2020',
/* authorisation */ '');

FILE_SCHEMA (('AUTOMOTIVE_DESIGN { 1 0 10303 214 3 1 1 }'));
ENDSEC;

DATA;
#10=MECHANICAL_DESIGN_GEOMETRIC_PRESENTATION_REPRESENTATION('',(#13),#317);
#11=SHAPE_REPRESENTATION_RELATIONSHIP('SRR','None',#323,#12);
#12=ADVANCED_BREP_SHAPE_REPRESENTATION('',(#14),#316);
#13=STYLED_ITEM('',(#332),#14);
#14=MANIFOLD_SOLID_BREP('Solid1',#189);
#15=CIRCLE('',#209,1.7);
#16=CIRCLE('',#210,1.7);
#17=CYLINDRICAL_SURFACE('',#208,1.7);
#18=FACE_OUTER_BOUND('',#28,.T.);
#19=FACE_OUTER_BOUND('',#29,.T.);
#20=FACE_OUTER_BOUND('',#30,.T.);
#21=FACE_OUTER_BOUND('',#31,.T.);
#22=FACE_OUTER_BOUND('',#32,.T.);
#23=FACE_OUTER_BOUND('',#33,.T.);
#24=FACE_OUTER_BOUND('',#34,.T.);
#25=FACE_OUTER_BOUND('',#35,.T.);
#26=FACE_OUTER_BOUND('',#36,.T.);
#27=FACE_OUTER_BOUND('',#37,.T.);
#28=EDGE_LOOP('',(#122,#123,#124,#125));
#29=EDGE_LOOP('',(#126,#127,#128,#129));
#30=EDGE_LOOP('',(#130,#131,#132,#133));
#31=EDGE_LOOP('',(#134,#135,#136,#137));
#32=EDGE_LOOP('',(#138,#139,#140,#141));
#33=EDGE_LOOP('',(#142,#143,#144,#145));
#34=EDGE_LOOP('',(#146,#147,#148,#149));
#35=EDGE_LOOP('',(#150,#151,#152,#153));
#36=EDGE_LOOP('',(#154,#155,#156,#157,#158,#159,#160,#161));
#37=EDGE_LOOP('',(#162,#163,#164,#165,#166,#167,#168,#169));
#38=LINE('',#267,#60);
#39=LINE('',#269,#61);
#40=LINE('',#271,#62);
#41=LINE('',#272,#63);
#42=LINE('',#275,#64);
#43=LINE('',#277,#65);
#44=LINE('',#278,#66);
#45=LINE('',#281,#67);
#46=LINE('',#283,#68);
#47=LINE('',#284,#69);
#48=LINE('',#287,#70);
#49=LINE('',#289,#71);
#50=LINE('',#290,#72);
#51=LINE('',#293,#73);
#52=LINE('',#295,#74);
#53=LINE('',#296,#75);
#54=LINE('',#302,#76);
#55=LINE('',#305,#77);
#56=LINE('',#307,#78);
#57=LINE('',#308,#79);
#58=LINE('',#310,#80);
#59=LINE('',#311,#81);
#60=VECTOR('',#219,1.);
#61=VECTOR('',#220,1.);
#62=VECTOR('',#221,1.);
#63=VECTOR('',#222,1.);
#64=VECTOR('',#225,1.);
#65=VECTOR('',#226,1.);
#66=VECTOR('',#227,1.);
#67=VECTOR('',#230,1.);
#68=VECTOR('',#231,1.);
#69=VECTOR('',#232,1.);
#70=VECTOR('',#235,1.);
#71=VECTOR('',#236,1.);
#72=VECTOR('',#237,1.);
#73=VECTOR('',#240,1.);
#74=VECTOR('',#241,1.);
#75=VECTOR('',#242,1.);
#76=VECTOR('',#249,1.);
#77=VECTOR('',#252,1.);
#78=VECTOR('',#253,1.);
#79=VECTOR('',#254,1.);
#80=VECTOR('',#257,1.);
#81=VECTOR('',#258,1.);
#82=VERTEX_POINT('',#265);
#83=VERTEX_POINT('',#266);
#84=VERTEX_POINT('',#268);
#85=VERTEX_POINT('',#270);
#86=VERTEX_POINT('',#274);
#87=VERTEX_POINT('',#276);
#88=VERTEX_POINT('',#280);
#89=VERTEX_POINT('',#282);
#90=VERTEX_POINT('',#286);
#91=VERTEX_POINT('',#288);
#92=VERTEX_POINT('',#292);
#93=VERTEX_POINT('',#294);
#94=VERTEX_POINT('',#298);
#95=VERTEX_POINT('',#300);
#96=VERTEX_POINT('',#304);
#97=VERTEX_POINT('',#306);
#98=EDGE_CURVE('',#82,#83,#38,.T.);
#99=EDGE_CURVE('',#83,#84,#39,.T.);
#100=EDGE_CURVE('',#85,#84,#40,.T.);
#101=EDGE_CURVE('',#82,#85,#41,.T.);
#102=EDGE_CURVE('',#86,#82,#42,.T.);
#103=EDGE_CURVE('',#87,#85,#43,.T.);
#104=EDGE_CURVE('',#86,#87,#44,.T.);
#105=EDGE_CURVE('',#88,#86,#45,.T.);
#106=EDGE_CURVE('',#89,#87,#46,.T.);
#107=EDGE_CURVE('',#88,#89,#47,.T.);
#108=EDGE_CURVE('',#90,#88,#48,.T.);
#109=EDGE_CURVE('',#91,#89,#49,.T.);
#110=EDGE_CURVE('',#90,#91,#50,.T.);
#111=EDGE_CURVE('',#92,#90,#51,.T.);
#112=EDGE_CURVE('',#93,#91,#52,.T.);
#113=EDGE_CURVE('',#92,#93,#53,.T.);
#114=EDGE_CURVE('',#94,#92,#15,.T.);
#115=EDGE_CURVE('',#95,#93,#16,.T.);
#116=EDGE_CURVE('',#94,#95,#54,.T.);
#117=EDGE_CURVE('',#96,#94,#55,.T.);
#118=EDGE_CURVE('',#97,#95,#56,.T.);
#119=EDGE_CURVE('',#96,#97,#57,.T.);
#120=EDGE_CURVE('',#83,#96,#58,.T.);
#121=EDGE_CURVE('',#84,#97,#59,.T.);
#122=ORIENTED_EDGE('',*,*,#98,.T.);
#123=ORIENTED_EDGE('',*,*,#99,.T.);
#124=ORIENTED_EDGE('',*,*,#100,.F.);
#125=ORIENTED_EDGE('',*,*,#101,.F.);
#126=ORIENTED_EDGE('',*,*,#102,.T.);
#127=ORIENTED_EDGE('',*,*,#101,.T.);
#128=ORIENTED_EDGE('',*,*,#103,.F.);
#129=ORIENTED_EDGE('',*,*,#104,.F.);
#130=ORIENTED_EDGE('',*,*,#105,.T.);
#131=ORIENTED_EDGE('',*,*,#104,.T.);
#132=ORIENTED_EDGE('',*,*,#106,.F.);
#133=ORIENTED_EDGE('',*,*,#107,.F.);
#134=ORIENTED_EDGE('',*,*,#108,.T.);
#135=ORIENTED_EDGE('',*,*,#107,.T.);
#136=ORIENTED_EDGE('',*,*,#109,.F.);
#137=ORIENTED_EDGE('',*,*,#110,.F.);
#138=ORIENTED_EDGE('',*,*,#111,.T.);
#139=ORIENTED_EDGE('',*,*,#110,.T.);
#140=ORIENTED_EDGE('',*,*,#112,.F.);
#141=ORIENTED_EDGE('',*,*,#113,.F.);
#142=ORIENTED_EDGE('',*,*,#114,.T.);
#143=ORIENTED_EDGE('',*,*,#113,.T.);
#144=ORIENTED_EDGE('',*,*,#115,.F.);
#145=ORIENTED_EDGE('',*,*,#116,.F.);
#146=ORIENTED_EDGE('',*,*,#117,.T.);
#147=ORIENTED_EDGE('',*,*,#116,.T.);
#148=ORIENTED_EDGE('',*,*,#118,.F.);
#149=ORIENTED_EDGE('',*,*,#119,.F.);
#150=ORIENTED_EDGE('',*,*,#120,.T.);
#151=ORIENTED_EDGE('',*,*,#119,.T.);
#152=ORIENTED_EDGE('',*,*,#121,.F.);
#153=ORIENTED_EDGE('',*,*,#99,.F.);
#154=ORIENTED_EDGE('',*,*,#121,.T.);
#155=ORIENTED_EDGE('',*,*,#118,.T.);
#156=ORIENTED_EDGE('',*,*,#115,.T.);
#157=ORIENTED_EDGE('',*,*,#112,.T.);
#158=ORIENTED_EDGE('',*,*,#109,.T.);
#159=ORIENTED_EDGE('',*,*,#106,.T.);
#160=ORIENTED_EDGE('',*,*,#103,.T.);
#161=ORIENTED_EDGE('',*,*,#100,.T.);
#162=ORIENTED_EDGE('',*,*,#120,.F.);
#163=ORIENTED_EDGE('',*,*,#98,.F.);
#164=ORIENTED_EDGE('',*,*,#102,.F.);
#165=ORIENTED_EDGE('',*,*,#105,.F.);
#166=ORIENTED_EDGE('',*,*,#108,.F.);
#167=ORIENTED_EDGE('',*,*,#111,.F.);
#168=ORIENTED_EDGE('',*,*,#114,.F.);
#169=ORIENTED_EDGE('',*,*,#117,.F.);
#170=PLANE('',#203);
#171=PLANE('',#204);
#172=PLANE('',#205);
#173=PLANE('',#206);
#174=PLANE('',#207);
#175=PLANE('',#211);
#176=PLANE('',#212);
#177=PLANE('',#213);
#178=PLANE('',#214);
#179=ADVANCED_FACE('',(#18),#170,.T.);
#180=ADVANCED_FACE('',(#19),#171,.T.);
#181=ADVANCED_FACE('',(#20),#172,.T.);
#182=ADVANCED_FACE('',(#21),#173,.T.);
#183=ADVANCED_FACE('',(#22),#174,.T.);
#184=ADVANCED_FACE('',(#23),#17,.F.);
#185=ADVANCED_FACE('',(#24),#175,.T.);
#186=ADVANCED_FACE('',(#25),#176,.T.);
#187=ADVANCED_FACE('',(#26),#177,.T.);
#188=ADVANCED_FACE('',(#27),#178,.F.);
#189=CLOSED_SHELL('',(#179,#180,#181,#182,#183,#184,#185,#186,#187,#188));
#190=DERIVED_UNIT_ELEMENT(#192,1.);
#191=DERIVED_UNIT_ELEMENT(#318,3.);
#192=(
MASS_UNIT()
NAMED_UNIT(*)
SI_UNIT($,.GRAM.)
);
#193=DERIVED_UNIT((#190,#191));
#194=MEASURE_REPRESENTATION_ITEM('density measure',
POSITIVE_RATIO_MEASURE(1.),#193);
#195=PROPERTY_DEFINITION_REPRESENTATION(#200,#197);
#196=PROPERTY_DEFINITION_REPRESENTATION(#201,#198);
#197=REPRESENTATION('material name',(#199),#316);
#198=REPRESENTATION('density',(#194),#316);
#199=DESCRIPTIVE_REPRESENTATION_ITEM('Generic','Generic');
#200=PROPERTY_DEFINITION('material property','material name',#325);
#201=PROPERTY_DEFINITION('material property','density of part',#325);
#202=AXIS2_PLACEMENT_3D('placement',#263,#215,#216);
#203=AXIS2_PLACEMENT_3D('',#264,#217,#218);
#204=AXIS2_PLACEMENT_3D('',#273,#223,#224);
#205=AXIS2_PLACEMENT_3D('',#279,#228,#229);
#206=AXIS2_PLACEMENT_3D('',#285,#233,#234);
#207=AXIS2_PLACEMENT_3D('',#291,#238,#239);
#208=AXIS2_PLACEMENT_3D('',#297,#243,#244);
#209=AXIS2_PLACEMENT_3D('',#299,#245,#246);
#210=AXIS2_PLACEMENT_3D('',#301,#247,#248);
#211=AXIS2_PLACEMENT_3D('',#303,#250,#251);
#212=AXIS2_PLACEMENT_3D('',#309,#255,#256);
#213=AXIS2_PLACEMENT_3D('',#312,#259,#260);
#214=AXIS2_PLACEMENT_3D('',#313,#261,#262);
#215=DIRECTION('axis',(0.,0.,1.));
#216=DIRECTION('refdir',(1.,0.,0.));
#217=DIRECTION('center_axis',(-1.,0.,2.22044604925031E-16));
#218=DIRECTION('ref_axis',(2.22044604925031E-16,0.,1.));
#219=DIRECTION('',(2.22044604925031E-16,0.,1.));
#220=DIRECTION('',(0.,1.,0.));
#221=DIRECTION('',(2.22044604925031E-16,0.,1.));
#222=DIRECTION('',(0.,1.,0.));
#223=DIRECTION('center_axis',(-3.04361669637981E-16,0.,-1.));
#224=DIRECTION('ref_axis',(-1.,0.,3.04361669637981E-16));
#225=DIRECTION('',(-1.,0.,3.04361669637981E-16));
#226=DIRECTION('',(-1.,0.,3.04361669637981E-16));
#227=DIRECTION('',(0.,1.,0.));
#228=DIRECTION('center_axis',(1.,0.,-2.22044604925031E-16));
#229=DIRECTION('ref_axis',(-2.22044604925031E-16,0.,-1.));
#230=DIRECTION('',(-2.22044604925031E-16,0.,-1.));
#231=DIRECTION('',(-2.22044604925031E-16,0.,-1.));
#232=DIRECTION('',(0.,1.,0.));
#233=DIRECTION('center_axis',(2.22044604925031E-16,0.,1.));
#234=DIRECTION('ref_axis',(1.,0.,-2.22044604925031E-16));
#235=DIRECTION('',(1.,0.,-2.22044604925031E-16));
#236=DIRECTION('',(1.,0.,-2.22044604925031E-16));
#237=DIRECTION('',(0.,1.,0.));
#238=DIRECTION('center_axis',(-1.,0.,1.04114833794687E-15));
#239=DIRECTION('ref_axis',(1.04114833794687E-15,0.,1.));
#240=DIRECTION('',(1.04114833794687E-15,0.,1.));
#241=DIRECTION('',(1.04114833794687E-15,0.,1.));
#242=DIRECTION('',(0.,1.,0.));
#243=DIRECTION('center_axis',(0.,1.,0.));
#244=DIRECTION('ref_axis',(-1.,0.,4.83273551895656E-16));
#245=DIRECTION('center_axis',(0.,-1.,0.));
#246=DIRECTION('ref_axis',(-1.,0.,4.83273551895656E-16));
#247=DIRECTION('center_axis',(0.,-1.,0.));
#248=DIRECTION('ref_axis',(-1.,0.,4.83273551895656E-16));
#249=DIRECTION('',(0.,1.,0.));
#250=DIRECTION('center_axis',(1.,0.,-2.22044604925031E-16));
#251=DIRECTION('ref_axis',(-2.22044604925031E-16,0.,-1.));
#252=DIRECTION('',(-2.22044604925031E-16,0.,-1.));
#253=DIRECTION('',(-2.22044604925031E-16,0.,-1.));
#254=DIRECTION('',(0.,1.,0.));
#255=DIRECTION('center_axis',(2.22044604925031E-16,0.,1.));
#256=DIRECTION('ref_axis',(1.,0.,-2.22044604925031E-16));
#257=DIRECTION('',(1.,0.,-2.22044604925031E-16));
#258=DIRECTION('',(1.,0.,-2.22044604925031E-16));
#259=DIRECTION('center_axis',(0.,1.,0.));
#260=DIRECTION('ref_axis',(1.,0.,-2.22044604925031E-16));
#261=DIRECTION('center_axis',(0.,1.,0.));
#262=DIRECTION('ref_axis',(1.,0.,-2.22044604925031E-16));
#263=CARTESIAN_POINT('',(0.,0.,0.));
#264=CARTESIAN_POINT('Origin',(-5.,0.,-3.09433930956614));
#265=CARTESIAN_POINT('',(-5.,0.,-3.09433930956614));
#266=CARTESIAN_POINT('',(-5.,0.,0.447825488305955));
#267=CARTESIAN_POINT('',(-5.,0.,-3.09433930956614));
#268=CARTESIAN_POINT('',(-5.,2.9,0.447825488305955));
#269=CARTESIAN_POINT('',(-5.,0.,0.447825488305955));
#270=CARTESIAN_POINT('',(-5.,2.9,-3.09433930956614));
#271=CARTESIAN_POINT('',(-5.,2.9,-3.09433930956614));
#272=CARTESIAN_POINT('',(-5.,0.,-3.09433930956614));
#273=CARTESIAN_POINT('Origin',(5.,0.,-3.09433930956614));
#274=CARTESIAN_POINT('',(5.,0.,-3.09433930956614));
#275=CARTESIAN_POINT('',(5.,0.,-3.09433930956614));
#276=CARTESIAN_POINT('',(5.,2.9,-3.09433930956614));
#277=CARTESIAN_POINT('',(5.,2.9,-3.09433930956614));
#278=CARTESIAN_POINT('',(5.,0.,-3.09433930956614));
#279=CARTESIAN_POINT('Origin',(5.,0.,0.447825488305953));
#280=CARTESIAN_POINT('',(5.,0.,0.447825488305953));
#281=CARTESIAN_POINT('',(5.,0.,0.447825488305953));
#282=CARTESIAN_POINT('',(5.,2.9,0.447825488305953));
#283=CARTESIAN_POINT('',(5.,2.9,0.447825488305953));
#284=CARTESIAN_POINT('',(5.,0.,0.447825488305953));
#285=CARTESIAN_POINT('Origin',(1.03851750797313,0.,0.447825488305954));
#286=CARTESIAN_POINT('',(1.03851750797313,0.,0.447825488305954));
#287=CARTESIAN_POINT('',(1.03851750797313,0.,0.447825488305954));
#288=CARTESIAN_POINT('',(1.03851750797313,2.9,0.447825488305954));
#289=CARTESIAN_POINT('',(1.03851750797313,2.9,0.447825488305954));
#290=CARTESIAN_POINT('',(1.03851750797313,0.,0.447825488305954));
#291=CARTESIAN_POINT('Origin',(1.03851750797313,0.,-0.0943393095661418));
#292=CARTESIAN_POINT('',(1.03851750797313,0.,-0.0943393095661418));
#293=CARTESIAN_POINT('',(1.03851750797313,0.,-0.0943393095661418));
#294=CARTESIAN_POINT('',(1.03851750797313,2.9,-0.0943393095661418));
#295=CARTESIAN_POINT('',(1.03851750797313,2.9,-0.0943393095661418));
#296=CARTESIAN_POINT('',(1.03851750797313,0.,-0.0943393095661418));
#297=CARTESIAN_POINT('Origin',(-0.661482492026868,0.,-0.0943393095661409));
#298=CARTESIAN_POINT('',(-2.36148249202687,0.,-0.0943393095661405));
#299=CARTESIAN_POINT('Origin',(-0.661482492026868,0.,-0.0943393095661409));
#300=CARTESIAN_POINT('',(-2.36148249202687,2.9,-0.0943393095661405));
#301=CARTESIAN_POINT('Origin',(-0.661482492026868,2.9,-0.0943393095661409));
#302=CARTESIAN_POINT('',(-2.36148249202687,0.,-0.0943393095661405));
#303=CARTESIAN_POINT('Origin',(-2.36148249202687,0.,0.447825488305955));
#304=CARTESIAN_POINT('',(-2.36148249202687,0.,0.447825488305955));
#305=CARTESIAN_POINT('',(-2.36148249202687,0.,0.447825488305955));
#306=CARTESIAN_POINT('',(-2.36148249202687,2.9,0.447825488305955));
#307=CARTESIAN_POINT('',(-2.36148249202687,2.9,0.447825488305955));
#308=CARTESIAN_POINT('',(-2.36148249202687,0.,0.447825488305955));
#309=CARTESIAN_POINT('Origin',(-5.,0.,0.447825488305955));
#310=CARTESIAN_POINT('',(-5.,0.,0.447825488305955));
#311=CARTESIAN_POINT('',(-5.,2.9,0.447825488305955));
#312=CARTESIAN_POINT('Origin',(1.77635683940025E-15,2.9,-1.32325691063009));
#313=CARTESIAN_POINT('Origin',(1.77635683940025E-15,0.,-1.32325691063009));
#314=UNCERTAINTY_MEASURE_WITH_UNIT(LENGTH_MEASURE(0.001),#318,
'DISTANCE_ACCURACY_VALUE',
'Maximum model space distance between geometric entities at asserted c
onnectivities');
#315=UNCERTAINTY_MEASURE_WITH_UNIT(LENGTH_MEASURE(0.001),#318,
'DISTANCE_ACCURACY_VALUE',
'Maximum model space distance between geometric entities at asserted c
onnectivities');
#316=(
GEOMETRIC_REPRESENTATION_CONTEXT(3)
GLOBAL_UNCERTAINTY_ASSIGNED_CONTEXT((#314))
GLOBAL_UNIT_ASSIGNED_CONTEXT((#318,#319,#320))
REPRESENTATION_CONTEXT('','3D')
);
#317=(
GEOMETRIC_REPRESENTATION_CONTEXT(3)
GLOBAL_UNCERTAINTY_ASSIGNED_CONTEXT((#315))
GLOBAL_UNIT_ASSIGNED_CONTEXT((#318,#319,#320))
REPRESENTATION_CONTEXT('','3D')
);
#318=(
LENGTH_UNIT()
NAMED_UNIT(*)
SI_UNIT(.CENTI.,.METRE.)
);
#319=(
NAMED_UNIT(*)
PLANE_ANGLE_UNIT()
SI_UNIT($,.RADIAN.)
);
#320=(
NAMED_UNIT(*)
SI_UNIT($,.STERADIAN.)
SOLID_ANGLE_UNIT()
);
#321=SHAPE_DEFINITION_REPRESENTATION(#322,#323);
#322=PRODUCT_DEFINITION_SHAPE('',$,#325);
#323=SHAPE_REPRESENTATION('',(#202),#316);
#324=PRODUCT_DEFINITION_CONTEXT('part definition',#329,'design');
#325=PRODUCT_DEFINITION('Part 2a_nonflat pocket',
'3.2_NON-PLANAR FLOOR Pocket_v01',#326,#324);
#326=PRODUCT_DEFINITION_FORMATION('',$,#331);
#327=PRODUCT_RELATED_PRODUCT_CATEGORY('3.2_NON-PLANAR FLOOR Pocket_v01',
'3.2_NON-PLANAR FLOOR Pocket_v01',(#331));
#328=APPLICATION_PROTOCOL_DEFINITION('international standard',
'automotive_design',2009,#329);
#329=APPLICATION_CONTEXT(
'Core Data for Automotive Mechanical Design Process');
#330=PRODUCT_CONTEXT('part definition',#329,'mechanical');
#331=PRODUCT('Part 2a_nonflat pocket','3.2_NON-PLANAR FLOOR Pocket_v01',
$,(#330));
#332=PRESENTATION_STYLE_ASSIGNMENT((#333));
#333=SURFACE_STYLE_USAGE(.BOTH.,#336);
#334=SURFACE_STYLE_RENDERING_WITH_PROPERTIES($,#340,(#335));
#335=SURFACE_STYLE_TRANSPARENT(0.);
#336=SURFACE_SIDE_STYLE('',(#337,#334));
#337=SURFACE_STYLE_FILL_AREA(#338);
#338=FILL_AREA_STYLE('',(#339));
#339=FILL_AREA_STYLE_COLOUR('',#340);
#340=COLOUR_RGB('',0.749019607843137,0.749019607843137,0.749019607843137);
ENDSEC;
END-ISO-10303-21;
