<?xml version="1.0" encoding="UTF-8" standalone="no"?>
<svg
   xmlns:osb="http://www.openswatchbook.org/uri/2009/osb"
   xmlns:dc="http://purl.org/dc/elements/1.1/"
   xmlns:cc="http://creativecommons.org/ns#"
   xmlns:rdf="http://www.w3.org/1999/02/22-rdf-syntax-ns#"
   xmlns:svg="http://www.w3.org/2000/svg"
   xmlns="http://www.w3.org/2000/svg"
   xmlns:sodipodi="http://sodipodi.sourceforge.net/DTD/sodipodi-0.dtd"
   xmlns:inkscape="http://www.inkscape.org/namespaces/inkscape"
   width="60.598389mm"
   height="46.004654mm"
   viewBox="0 0 60.598389 46.004654"
   version="1.1"
   id="svg1193"
   inkscape:export-filename="D:\Work\AnalysisSitus\docs\imgs\logobird.png"
   inkscape:export-xdpi="96"
   inkscape:export-ydpi="96"
   inkscape:version="1.0.1 (3bc2e813f5, 2020-09-07)"
   sodipodi:docname="logobird.svg">
  <defs
     id="defs1187">
    <linearGradient
       id="linearGradient4461"
       osb:paint="solid">
      <stop
         style="stop-color:#000000;stop-opacity:1;"
         offset="0"
         id="stop4459" />
    </linearGradient>
    <linearGradient
       id="linearGradient4437"
       osb:paint="solid">
      <stop
         style="stop-color:#000000;stop-opacity:1;"
         offset="0"
         id="stop4435" />
    </linearGradient>
    <filter
       style="color-interpolation-filters:sRGB"
       inkscape:label="Greyscale"
       id="filter26610">
      <feColorMatrix
         values="0.21 0.72 0.072 0 0 0.21 0.72 0.072 0 0 0.21 0.72 0.072 0 0 0 0 0 1 0 "
         id="feColorMatrix26608" />
    </filter>
  </defs>
  <sodipodi:namedview
     id="base"
     pagecolor="#ffffff"
     bordercolor="#666666"
     borderopacity="1.0"
     inkscape:pageopacity="0.0"
     inkscape:pageshadow="2"
     inkscape:zoom="1.5005594"
     inkscape:cx="80.389462"
     inkscape:cy="-67.555714"
     inkscape:document-units="mm"
     inkscape:current-layer="layer1"
     inkscape:document-rotation="0"
     showgrid="false"
     inkscape:window-width="1920"
     inkscape:window-height="1137"
     inkscape:window-x="-8"
     inkscape:window-y="-8"
     inkscape:window-maximized="1"
     inkscape:snap-global="false" />
  <metadata
     id="metadata1190">
    <rdf:RDF>
      <cc:Work
         rdf:about="">
        <dc:format>image/svg+xml</dc:format>
        <dc:type
           rdf:resource="http://purl.org/dc/dcmitype/StillImage" />
        <dc:title></dc:title>
      </cc:Work>
    </rdf:RDF>
  </metadata>
  <g
     inkscape:label="Layer 1"
     inkscape:groupmode="layer"
     id="layer1"
     transform="translate(21.790675,-130.06266)">
    <path
       sodipodi:nodetypes="ccccccc"
       inkscape:connector-curvature="0"
       id="path5814-1-5-6-9-3-9-2-8-32"
       d="m 20.133242,175.51034 c 1.50447,-2.26004 0.99735,-1.62187 0.78335,-5.20229 0,0 -1.47464,0.942 -1.74484,-0.36744 -0.29099,0.89374 -1.50607,0.76714 -1.50607,0.76714 -0.16629,0.81061 -0.34046,1.50341 -0.40282,3.41561 0,0 0.73586,-0.12428 1.15156,-0.62311 0.99845,0.094 0.91044,0.56899 1.71882,2.01009 z"
       style="fill:#ffc09a;fill-opacity:1;stroke:none;stroke-width:0.349698px;stroke-linecap:butt;stroke-linejoin:miter;stroke-opacity:1;filter:url(#filter26610)"
       inkscape:export-xdpi="96"
       inkscape:export-ydpi="96" />
    <path
       inkscape:transform-center-y="-1.8314766"
       inkscape:transform-center-x="-1.7826785"
       sodipodi:nodetypes="cccccccccc"
       inkscape:connector-curvature="0"
       id="path5814-1-5-6-9-3-9-7-2-2-0-6-15-6-4-6"
       d="m 21.844452,169.08652 c -0.18474,-1.05459 -0.91154,-2.81094 -0.91154,-2.81094 -1.20551,0.12471 -2.45102,1.5338 -2.81845,1.97471 -0.4687,1.5355 -0.64449,2.30982 -0.71529,3.93281 0.24499,-0.4673 0.33473,-0.8216 1.10376,-1.32043 0.71708,0.35335 0.97225,0.74407 0.97225,0.74407 0,0 0.23493,-0.71081 1.28456,-1.18882 0.57158,0.62354 0.92202,1.61176 1.14804,2.16675 -0.16798,-2.03505 -0.16959,-2.30844 -0.0633,-3.49815 z"
       style="fill:#ff8e54;fill-opacity:1;stroke:none;stroke-width:0.235153px;stroke-linecap:butt;stroke-linejoin:miter;stroke-opacity:1;filter:url(#filter26610)"
       inkscape:export-xdpi="96"
       inkscape:export-ydpi="96" />
    <path
       inkscape:transform-center-y="-2.1511297"
       inkscape:transform-center-x="2.2394813"
       sodipodi:nodetypes="cccccc"
       inkscape:connector-curvature="0"
       id="path5814-1-5-6-9-3-9-7-2-2-0-6-1-6"
       d="m 23.783262,135.08486 c -3.1915,0.88392 -1.36302,1.82071 -1.36302,1.82071 0,0 4.02123,-0.12353 6.45042,0.22749 -1.8163,-0.91489 -1.05747,-1.30997 0.63444,-1.47609 -2.52743,-0.26096 -3.32151,-0.35162 -5.72183,-0.57215 z"
       style="fill:#822e00;fill-opacity:1;stroke:none;stroke-width:0.29101px;stroke-linecap:butt;stroke-linejoin:miter;stroke-opacity:1;filter:url(#filter26610)"
       inkscape:export-xdpi="96"
       inkscape:export-ydpi="96" />
    <path
       inkscape:transform-center-y="-1.8172132"
       inkscape:transform-center-x="1.7282644"
       sodipodi:nodetypes="cccccc"
       inkscape:connector-curvature="0"
       id="path5814-1-5-6-9-3-9-7-2-2-0-6-9-4-91-8"
       d="m 20.460802,132.09807 c 0,0 5.43429,0.33411 7.35346,1.39215 -0.23961,-0.33658 -2.42987,-1.56982 -2.42987,-1.56982 0,0 1.34366,-0.20916 1.89875,-0.34977 -1.96195,-0.50838 -3.75895,-0.92206 -5.34037,-0.98678 -0.73709,0.4255 0.0604,0.57307 -1.48197,1.51422 z"
       style="fill:#813f1a;fill-opacity:1;stroke:none;stroke-width:0.235153px;stroke-linecap:butt;stroke-linejoin:miter;stroke-opacity:1;filter:url(#filter26610)"
       inkscape:export-xdpi="96"
       inkscape:export-ydpi="96" />
    <path
       sodipodi:nodetypes="ccccssscc"
       inkscape:connector-curvature="0"
       id="path5814-1-5-6-9-3-8-7-0"
       d="m 32.634492,143.06518 0.0525,-3.12903 c 0,0 1.93793,-0.52081 3.33152,-0.53558 -4.11518,-1.64606 -6.41865,-2.80536 -14.14824,-2.55424 0,0 1.37088,-0.0382 3.05051,0.48536 1.16528,0.36325 2.46067,1.21624 3.39091,1.90522 0.90316,0.66892 1.7067,1.25805 2.43196,2.05865 0.87254,0.96317 1.89083,1.76962 1.89083,1.76962 z"
       style="fill:#ffa373;fill-opacity:1;stroke:none;stroke-width:0.235153px;stroke-linecap:butt;stroke-linejoin:miter;stroke-opacity:1;filter:url(#filter26610)"
       inkscape:export-xdpi="96"
       inkscape:export-ydpi="96" />
    <path
       inkscape:transform-center-y="-1.7022991"
       inkscape:transform-center-x="1.894183"
       sodipodi:nodetypes="cccccccsc"
       inkscape:connector-curvature="0"
       id="path5814-1-5-6-9-3-9-7-2-2-0-6-9-4-9-8"
       d="m 19.967392,138.20974 c 1.68887,-0.9318 2.73937,-1.3152 4.66805,-0.93899 -0.32466,-0.23705 -2.43755,-0.92815 -2.43755,-0.92815 0.19107,-0.485 0.72858,-0.79034 0.72858,-0.79034 -0.5291,-0.22045 -0.58519,-0.69601 -0.58519,-0.69601 0,0 0.20427,-0.95294 1.54687,-1.19592 -2.06526,-0.11707 -3.25647,-0.28904 -5.44634,1.13658 0,0 -0.325,1.59769 0.55435,2.31538 0.544,0.444 0.81624,0.81806 0.97123,1.09745 z"
       style="fill:#813f1a;fill-opacity:1;stroke:none;stroke-width:0.235153px;stroke-linecap:butt;stroke-linejoin:miter;stroke-opacity:1;filter:url(#filter26610)"
       inkscape:export-xdpi="96"
       inkscape:export-ydpi="96" />
    <path
       inkscape:transform-center-y="-1.8314715"
       inkscape:transform-center-x="-1.7826752"
       sodipodi:nodetypes="cccccc"
       inkscape:connector-curvature="0"
       id="path5814-1-5-6-9-3-9-7-2-2-0-6-9-6"
       d="m 22.555652,152.48002 c -1.23172,-1.89918 -1.94739,-0.56097 -1.94739,-0.56097 0,0 0.2975,2.56455 0.22669,4.18755 0.69549,-1.32659 1.59669,-0.84829 1.95176,0.21095 -0.0289,-1.67056 -0.17655,-2.25571 -0.23103,-3.83753 z"
       style="fill:#6a2500;fill-opacity:1;stroke:none;stroke-width:0.235153px;stroke-linecap:butt;stroke-linejoin:miter;stroke-opacity:1;filter:url(#filter26610)"
       inkscape:export-xdpi="96"
       inkscape:export-ydpi="96" />
    <path
       inkscape:transform-center-y="-1.8314728"
       inkscape:transform-center-x="-1.7826792"
       sodipodi:nodetypes="cccccc"
       inkscape:connector-curvature="0"
       id="path5814-1-5-6-9-3-9-7-2-2-0-6-7"
       d="m 22.457712,149.72803 c -1.23171,-1.89918 -1.94738,-0.56097 -1.94738,-0.56097 0,0 0.57674,2.56455 0.50593,4.18755 0.69549,-1.32658 1.17047,-0.90708 1.52556,0.15216 -0.0289,-1.67056 -0.0296,-2.19692 -0.0841,-3.77874 z"
       style="fill:#822e00;fill-opacity:1;stroke:none;stroke-width:0.235153px;stroke-linecap:butt;stroke-linejoin:miter;stroke-opacity:1;filter:url(#filter26610)"
       inkscape:export-xdpi="96"
       inkscape:export-ydpi="96" />
    <path
       inkscape:transform-center-y="-2.110589"
       inkscape:transform-center-x="-0.92011902"
       sodipodi:nodetypes="ccccc"
       inkscape:connector-curvature="0"
       id="path5814-1-5-6-9-3-9-7-2-2-0-5"
       d="m 22.302842,147.94554 c -1.77918,-1.39947 -3.2287,-1.04999 -3.2287,-1.04999 0,0 1.37425,2.24075 1.83151,3.79961 0.58197,-2.76438 0.80565,-1.58487 1.48386,-0.69709 -0.12398,-2.10723 0.14601,-0.28482 -0.0867,-2.05253 z"
       style="fill:#6a2500;fill-opacity:1;stroke:none;stroke-width:0.235153px;stroke-linecap:butt;stroke-linejoin:miter;stroke-opacity:1;filter:url(#filter26610)"
       inkscape:export-xdpi="96"
       inkscape:export-ydpi="96" />
    <path
       inkscape:transform-center-y="-2.110592"
       inkscape:transform-center-x="-0.92012817"
       sodipodi:nodetypes="ccccccc"
       inkscape:connector-curvature="0"
       id="path5814-1-5-6-9-3-9-7-2-2-1-4"
       d="m 21.845582,141.91795 -3.14703,0.56847 1.16787,1.61995 0.0289,2.29592 c 0.72227,-0.11022 1.88378,1.81157 2.43324,2.83119 0.003,-2.65585 -0.34545,-3.44907 -1.04147,-5.15506 z"
       style="fill:#813f1a;fill-opacity:1;stroke:none;stroke-width:0.235153px;stroke-linecap:butt;stroke-linejoin:miter;stroke-opacity:1;filter:url(#filter26610)"
       inkscape:export-xdpi="96"
       inkscape:export-ydpi="96" />
    <path
       inkscape:transform-center-y="-2.1105943"
       inkscape:transform-center-x="-0.92012642"
       sodipodi:nodetypes="cccccc"
       inkscape:connector-curvature="0"
       id="path5814-1-5-6-9-3-9-7-2-2-4"
       d="m 19.101032,142.12468 -3.00006,0.73749 1.0209,1.45093 2.16975,1.09042 c 0.72226,-0.11023 1.3085,0.17731 1.85796,1.19693 0.23066,-2.13641 -1.88164,-2.93143 -2.04855,-4.47577 z"
       style="fill:#6a2500;fill-opacity:1;stroke:none;stroke-width:0.235153px;stroke-linecap:butt;stroke-linejoin:miter;stroke-opacity:1;filter:url(#filter26610)"
       inkscape:export-xdpi="96"
       inkscape:export-ydpi="96" />
    <path
       sodipodi:nodetypes="ccccccc"
       inkscape:connector-curvature="0"
       id="path5814-1-5-6-9-3-9-7-2-6"
       d="m 22.849622,147.59465 c 0.28573,-0.91657 0.55776,-2.82206 0.55776,-2.82206 -0.10661,-1.16042 -0.75491,-1.89439 -0.73503,-2.60521 l -1.66425,-0.82457 -0.33014,1.74312 c 0,0 0.78554,1.46867 1.24115,2.70323 0.58212,0.44152 0.7075,0.72372 0.93051,1.80549 z"
       style="fill:#6a2500;fill-opacity:1;stroke:none;stroke-width:0.235153px;stroke-linecap:butt;stroke-linejoin:miter;stroke-opacity:1;filter:url(#filter26610)"
       inkscape:export-xdpi="96"
       inkscape:export-ydpi="96" />
    <path
       sodipodi:nodetypes="cccscc"
       inkscape:connector-curvature="0"
       id="path5814-1-5-6-9-3-8-6-8-89-0"
       d="m 18.777792,162.40706 c 0,0 -0.0545,-1.30842 0.5388,-1.69015 0.35321,0.19463 0.4882,1.43612 0.4882,1.43612 0,0 0.76726,-2.67795 0.91428,-4.47842 0.0449,-0.54969 -1.06976,0.45892 -2.27699,0.67505 0.31993,2.42292 0.13516,1.89624 0.33571,4.0574 z"
       style="fill:#ff8343;fill-opacity:1;stroke:none;stroke-width:0.235153px;stroke-linecap:butt;stroke-linejoin:miter;stroke-opacity:1;filter:url(#filter26610)"
       inkscape:export-xdpi="96"
       inkscape:export-ydpi="96" />
    <path
       inkscape:transform-center-y="-1.8314719"
       inkscape:transform-center-x="-1.7826802"
       sodipodi:nodetypes="cccccc"
       inkscape:connector-curvature="0"
       id="path5814-1-5-6-9-3-9-7-2-2-0-6-9-4-5"
       d="m 22.486192,155.36284 c -1.23172,-1.89917 -1.63562,-0.37389 -1.63562,-0.37389 0,0 -0.61703,5.24579 -1.06196,7.15978 0.69548,-1.32659 2.88534,-2.57344 3.24042,-1.5142 -0.0289,-1.67055 -0.135,-2.71297 -0.18948,-4.29479 z"
       style="fill:#813f1a;fill-opacity:1;stroke:none;stroke-width:0.235153px;stroke-linecap:butt;stroke-linejoin:miter;stroke-opacity:1;filter:url(#filter26610)"
       inkscape:export-xdpi="96"
       inkscape:export-ydpi="96" />
    <path
       sodipodi:nodetypes="cccscc"
       inkscape:connector-curvature="0"
       id="path5814-1-5-6-9-3-8-6-8-6-5"
       d="m 18.590712,160.28701 c 0,0 0.27812,-1.84883 0.87136,-2.23056 0.45714,0.23621 0.86232,0.97887 0.86232,0.97887 0,0 0.53198,-1.27963 0.26996,-3.91724 -0.20824,-2.09617 -2.48313,0.16794 -4.29312,-0.84224 1.13055,1.96566 1.94344,3.1849 2.28948,6.01117 z"
       style="fill:#ff9e6a;fill-opacity:1;stroke:none;stroke-width:0.235153px;stroke-linecap:butt;stroke-linejoin:miter;stroke-opacity:1;filter:url(#filter26610)"
       inkscape:export-xdpi="96"
       inkscape:export-ydpi="96" />
    <path
       sodipodi:nodetypes="ccccccc"
       inkscape:connector-curvature="0"
       id="path5814-1-5-6-9-3-9-2-0-3"
       d="m 19.238252,156.74739 c 1.41572,-0.76391 1.66928,-1.51885 1.57882,-2.51556 -0.15605,-0.12578 -4.40527,-6.43178 -4.40527,-6.43178 l -0.65459,-0.65167 -0.29634,0.79606 2.34065,5.89386 c 0.99472,0.89938 1.56155,1.5249 1.43656,2.90899 z"
       style="fill:#ffeee3;fill-opacity:1;stroke:none;stroke-width:0.365543px;stroke-linecap:butt;stroke-linejoin:miter;stroke-opacity:1;filter:url(#filter26610)"
       inkscape:export-xdpi="96"
       inkscape:export-ydpi="96" />
    <path
       sodipodi:nodetypes="ccccccc"
       inkscape:connector-curvature="0"
       id="path5814-1-5-6-9-3-9-2-9"
       d="m 19.031632,156.36053 c 0.14612,-1.84981 -0.21325,-2.78096 -0.87463,-3.67748 -0.14696,0 -5.94926,-2.79269 -5.94926,-2.79269 l -0.69438,-0.11991 0.36623,1.00458 4.70575,3.88719 c 0.99845,0.094 1.63791,0.25721 2.44629,1.69831 z"
       style="fill:#ffc09a;fill-opacity:1;stroke:none;stroke-width:0.349698px;stroke-linecap:butt;stroke-linejoin:miter;stroke-opacity:1;filter:url(#filter26610)"
       inkscape:export-xdpi="96"
       inkscape:export-ydpi="96" />
    <path
       sodipodi:nodetypes="ccccccc"
       inkscape:connector-curvature="0"
       id="path5814-1-5-6-9-3-9-1"
       d="m 14.762302,152.02916 c -0.58788,-0.61727 -0.79787,-1.75835 -0.79787,-1.75835 l -3.96237,-1.89604 -0.4624699,-0.0815 0.24391,0.68205 3.1341599,2.63912 c 0,0 1.02161,0.0766 1.84464,0.41466 z"
       style="fill:#ff883a;fill-opacity:1;stroke:none;stroke-width:0.235153px;stroke-linecap:butt;stroke-linejoin:miter;stroke-opacity:1;filter:url(#filter26610)"
       inkscape:export-xdpi="96"
       inkscape:export-ydpi="96" />
    <path
       sodipodi:nodetypes="ccscccc"
       inkscape:connector-curvature="0"
       id="path5814-1-5-6-9-3-8-6-8-8-1-4-5"
       d="m 16.467482,169.66641 c 0.0581,0.93515 0.86874,2.75481 0.86874,2.75481 0.0812,-0.43799 0.21007,-1.5743 0.49223,-2.92789 0.40397,-1.93803 0.96957,-4.3324 0.86245,-5.85297 -0.30985,-0.0471 -2.32518,0.86429 -3.33218,2.08198 -0.25957,1.40186 -1.08023,4.00387 -1.58103,5.66706 0.76938,-0.78529 1.83367,-1.93626 2.68979,-1.72299 z"
       style="fill:#ff9c69;fill-opacity:1;stroke:none;stroke-width:0.235153px;stroke-linecap:butt;stroke-linejoin:miter;stroke-opacity:1;filter:url(#filter26610)"
       inkscape:export-xdpi="96"
       inkscape:export-ydpi="96" />
    <path
       sodipodi:nodetypes="cccccc"
       inkscape:connector-curvature="0"
       id="path5814-1-5-6-9-3-8-6-8-8-1-0"
       d="m 15.486082,169.69036 c 0,0 0.44439,-1.55785 1.03764,-1.93958 0.16615,0.9221 0.81035,1.77908 0.81035,1.77908 0.0728,-1.0808 0.81258,-2.52671 0.33232,-5.07079 -0.31322,-0.0108 -1.60784,0.7231 -2.46681,2.04936 0.40086,0.65309 0.59097,1.47188 0.2865,3.18193 z"
       style="fill:#e68351;fill-opacity:1;stroke:none;stroke-width:0.235153px;stroke-linecap:butt;stroke-linejoin:miter;stroke-opacity:1;filter:url(#filter26610)"
       inkscape:export-xdpi="96"
       inkscape:export-ydpi="96" />
    <path
       sodipodi:nodetypes="cccc"
       inkscape:connector-curvature="0"
       id="path5814-1-5-6-9-3-8-6-8-8-4-3-4"
       d="m 15.345172,166.30763 c 1.37184,-0.94578 3.04972,-3.23876 2.9017,-4.69998 0,0 -2.05028,0.77505 -2.53514,1.80616 -0.14425,1.28804 -0.21211,1.76515 -0.36656,2.89382 z"
       style="fill:#b65d2d;fill-opacity:1;stroke:none;stroke-width:0.241359px;stroke-linecap:butt;stroke-linejoin:miter;stroke-opacity:1;filter:url(#filter26610)"
       inkscape:export-xdpi="96"
       inkscape:export-ydpi="96" />
    <path
       sodipodi:nodetypes="cccccc"
       inkscape:connector-curvature="0"
       id="path5814-1-5-6-9-3-8-6-8-8-9"
       d="m 15.706432,163.82712 c 0,0 0.73538,-1.18372 1.32863,-1.56545 1.0599,0.50642 1.66253,1.61281 1.66253,1.61281 0.0728,-1.0808 0.23061,-1.82004 -0.10417,-4.32254 -0.31322,-0.0108 -2.06509,-0.56556 -3.00721,0.2203 0.15144,1.67154 0.4247,2.34484 0.12022,4.05488 z"
       style="fill:#d26d38;fill-opacity:1;stroke:none;stroke-width:0.235153px;stroke-linecap:butt;stroke-linejoin:miter;stroke-opacity:1;filter:url(#filter26610)"
       inkscape:export-xdpi="96"
       inkscape:export-ydpi="96" />
    <path
       sodipodi:nodetypes="cccscc"
       inkscape:connector-curvature="0"
       id="path5814-1-5-6-9-3-8-6-8-67"
       d="m 15.660172,161.1436 c 0,0 0.5899,-1.30842 1.18314,-1.69016 1.0599,0.50641 1.90155,1.60241 1.90155,1.60241 0,0 0.0331,-1.9863 -1.2889,-4.68627 -0.92637,-1.89186 -1.40231,-1.49486 -3.21231,-2.50503 0.31994,2.42292 1.11205,4.24492 1.41652,7.27905 z"
       style="fill:#fa752f;fill-opacity:1;stroke:none;stroke-width:0.235153px;stroke-linecap:butt;stroke-linejoin:miter;stroke-opacity:1;filter:url(#filter26610)"
       inkscape:export-xdpi="96"
       inkscape:export-ydpi="96" />
    <path
       sodipodi:nodetypes="cccscc"
       inkscape:connector-curvature="0"
       id="path5814-1-5-6-9-3-8-6-4"
       d="m 15.166922,158.72243 c 0,0 0.2991,-1.40374 0.79793,-1.90257 1.14317,0.27021 2.14941,1.00799 2.14941,1.00799 0,0 -0.18515,-1.84196 -2.53914,-4.16927 -1.49797,-1.48099 -4.62761,-3.54384 -6.4843899,-5.35207 3.1507199,4.15654 5.1353999,7.5153 6.0761899,10.41592 z"
       style="fill:#ff8b4f;fill-opacity:1;stroke:none;stroke-width:0.235153px;stroke-linecap:butt;stroke-linejoin:miter;stroke-opacity:1;filter:url(#filter26610)"
       inkscape:export-xdpi="96"
       inkscape:export-ydpi="96" />
    <path
       sodipodi:nodetypes="cccccc"
       inkscape:connector-curvature="0"
       id="path5814-1-5-6-9-3-74-4-3"
       d="m 21.344802,141.48312 -1.24086,-2.97809 -2.40458,1.82077 1.52203,1.45465 c 0,0 0.96288,1.35766 2.04417,1.52563 -0.13647,-1.37523 0.0793,-1.82296 0.0793,-1.82296 z"
       style="fill:#882f00;fill-opacity:1;stroke:none;stroke-width:0.235153px;stroke-linecap:butt;stroke-linejoin:miter;stroke-opacity:1;filter:url(#filter26610)"
       inkscape:export-xdpi="96"
       inkscape:export-ydpi="96" />
    <path
       sodipodi:nodetypes="cccccc"
       inkscape:connector-curvature="0"
       id="path5814-1-5-6-9-3-74-0"
       d="m 20.304442,138.83201 c -0.24942,-0.75864 -1.23342,-1.76763 -1.23342,-1.76763 l -1.95317,1.78927 0.77669,1.38116 1.3933,0.0349 z"
       style="fill:#6a2500;fill-opacity:1;stroke:none;stroke-width:0.235153px;stroke-linecap:butt;stroke-linejoin:miter;stroke-opacity:1;filter:url(#filter26610)"
       inkscape:export-xdpi="96"
       inkscape:export-ydpi="96" />
    <path
       sodipodi:nodetypes="cccccccc"
       inkscape:connector-curvature="0"
       id="path5814-1-5-6-9-3-4-5-2-5-4-9"
       d="m 26.187582,146.24761 c 0,0 0.24705,-2.70003 0.60337,-4.09559 1.44009,-0.32662 4.39516,0.7206 6.45878,1.26991 -2.52387,-2.44965 -6.06816,-4.89603 -6.06816,-4.89603 l -3.13908,0.19263 -1.5486,0.72954 0.19842,2.6534 c 0.62354,0.63839 2.1294,0.55334 3.49527,4.14614 z"
       style="fill:#6a2500;fill-opacity:1;stroke:none;stroke-width:0.235153px;stroke-linecap:butt;stroke-linejoin:miter;stroke-opacity:1;filter:url(#filter26610)"
       inkscape:export-xdpi="96"
       inkscape:export-ydpi="96" />
    <path
       sodipodi:nodetypes="cccccccc"
       inkscape:connector-curvature="0"
       id="path5814-1-5-6-9-3-4-5-2-5-6"
       d="m 23.660532,142.82272 c 0,0 0.27676,-2.35857 -0.10924,-3.21966 0.579,-0.31177 2.01976,-0.77888 3.68253,-1.22428 l -2.99498,-1.22899 -2.56008,0.10356 -1.65253,0.85573 0.56958,2.74247 c 0.4157,0.8017 1.53556,0.76861 3.06472,1.97117 z"
       style="fill:#541c00;fill-opacity:1;stroke:none;stroke-width:0.235153px;stroke-linecap:butt;stroke-linejoin:miter;stroke-opacity:1;filter:url(#filter26610)"
       inkscape:export-xdpi="96"
       inkscape:export-ydpi="96" />
    <path
       sodipodi:nodetypes="ccccccc"
       inkscape:connector-curvature="0"
       id="path5814-1-5-6-9-3-9-7-6"
       d="m 21.222452,147.96782 c -0.13227,-1.17578 -0.79787,-2.49321 -0.79787,-2.49321 -1.16107,-0.66137 -2.00766,-1.27877 -2.22811,-1.95483 l -1.44718,0.10965 0.24391,1.35811 2.14946,1.97775 c 0.59614,-0.0734 1.32576,0.16372 2.07979,1.00253 z"
       style="fill:#882f00;fill-opacity:1;stroke:none;stroke-width:0.235153px;stroke-linecap:butt;stroke-linejoin:miter;stroke-opacity:1;filter:url(#filter26610)"
       inkscape:export-xdpi="96"
       inkscape:export-ydpi="96" />
    <path
       sodipodi:nodetypes="cccccccc"
       inkscape:connector-curvature="0"
       id="path5814-1-5-6-9-3-4-5-2-0"
       d="m 18.487632,146.31698 c 0,0 -1.61466,-1.84043 -1.57456,-2.70153 0.57901,-0.31177 1.01593,-1.1259 3.25189,-1.0275 -0.53644,-0.52175 -1.90542,-1.60036 -2.27285,-2.29848 l -2.05433,0.84414 -0.88053,1.20462 -0.85566,0.97577 c 0,0 2.85688,1.80043 4.38604,3.00298 z"
       style="fill:#541c00;fill-opacity:1;stroke:none;stroke-width:0.235153px;stroke-linecap:butt;stroke-linejoin:miter;stroke-opacity:1;filter:url(#filter26610)"
       inkscape:export-xdpi="96"
       inkscape:export-ydpi="96" />
    <path
       sodipodi:nodetypes="cccccccc"
       inkscape:connector-curvature="0"
       id="path5814-1-5-6-9-3-4-5-4"
       d="m 16.376162,144.54584 c 0,0 -0.9893,-1.27037 -1.07837,-2.07208 0.25238,-0.579 0.73755,-1.03592 2.56365,-2.17908 l -3.98427,-0.096 -1.03092,-0.16369 -0.88053,1.20463 -0.85565,0.97575 c 0,0 3.45484,1.55848 5.26609,2.33048 z"
       style="fill:#882f00;fill-opacity:1;stroke:none;stroke-width:0.235153px;stroke-linecap:butt;stroke-linejoin:miter;stroke-opacity:1;filter:url(#filter26610)"
       inkscape:export-xdpi="96"
       inkscape:export-ydpi="96" />
    <path
       sodipodi:nodetypes="cccccscc"
       inkscape:connector-curvature="0"
       id="path5814-1-5-6-9-3-7-5"
       d="m 17.830612,134.23549 c 0,0 0.90232,-0.42942 -0.0845,-1.81515 -2.69795,0.79785 -3.4491,1.00194 -5.9791,2.76559 0,0 0.78719,0.6778 0.84493,1.66985 0,0 0.69733,0.35453 1.10803,0.4982 0.12726,-0.65418 0.66535,-1.33771 1.05106,-1.85959 0.89233,-1.20741 1.85254,-1.48357 3.05958,-1.2589 z"
       style="fill:#882f00;fill-opacity:1;stroke:none;stroke-width:0.235153px;stroke-linecap:butt;stroke-linejoin:miter;stroke-opacity:1;filter:url(#filter26610)"
       inkscape:export-xdpi="96"
       inkscape:export-ydpi="96" />
    <path
       inkscape:transform-center-y="-2.2428206"
       inkscape:transform-center-x="0.93914655"
       sodipodi:nodetypes="cccccc"
       inkscape:connector-curvature="0"
       id="path5814-1-5-6-9-3-9-7-2-2-0-6-15-9-7-8"
       d="m 28.521372,133.59188 c -0.64397,0.12548 -1.28974,0.42286 -1.28974,0.42286 0,0 0.13889,0.73431 0.4106,1.23986 0.95184,0.2725 1.56543,0.92449 3.20033,1.83558 -0.63812,-1.26548 -0.48036,-2.0129 1.12353,-2.01903 -1.31389,-0.66551 -2.47114,-0.93455 -3.44472,-1.47927 z"
       style="fill:#822e00;fill-opacity:1;stroke:none;stroke-width:0.235153px;stroke-linecap:butt;stroke-linejoin:miter;stroke-opacity:1;filter:url(#filter26610)"
       inkscape:export-xdpi="96"
       inkscape:export-ydpi="96" />
    <path
       inkscape:transform-center-y="-2.1285486"
       inkscape:transform-center-x="1.256845"
       sodipodi:nodetypes="cccccc"
       inkscape:connector-curvature="0"
       id="path5814-1-5-6-9-3-9-7-2-2-0-6-15-9-2"
       d="m 26.556572,131.38779 c -0.62302,0.20564 -1.22617,0.58202 -1.22617,0.58202 0,0 0.36514,0.45288 0.69838,0.92017 0.97858,0.15037 2.08576,0.69841 3.63766,1.17875 -1.10667,-1.00937 -1.09655,-1.43934 0.49379,-1.6475 -1.38727,-0.49465 -2.5692,-0.61574 -3.60366,-1.03344 z"
       style="fill:#822e00;fill-opacity:1;stroke:none;stroke-width:0.235153px;stroke-linecap:butt;stroke-linejoin:miter;stroke-opacity:1;filter:url(#filter26610)"
       inkscape:export-xdpi="96"
       inkscape:export-ydpi="96" />
    <path
       sodipodi:nodetypes="cscccscccc"
       inkscape:connector-curvature="0"
       id="path5814-1-5-6-9-8"
       d="m 22.088092,133.49532 c 1.75769,0.11288 2.6647,0.3394 3.65373,0.67349 1.59085,0.5374 2.19269,1.32141 3.05268,1.57003 l 1.20971,0.54139 c 0.53825,-1.48343 -2.44872,-1.96005 -1.63775,-2.7069 0,0 -3.07166,-1.26735 -6.67978,-1.47431 -1.43789,-0.0825 -3.01093,0.20327 -4.43239,0.49941 1.13474,1.39217 0.44913,1.70854 0.44913,1.70854 l 0.551,0.39552 c 1.80922,-0.95625 2.7412,-1.14244 3.83367,-1.20717 z"
       style="fill:#c44400;fill-opacity:1;stroke:none;stroke-width:0.235153px;stroke-linecap:butt;stroke-linejoin:miter;stroke-opacity:1;filter:url(#filter26610)"
       inkscape:export-xdpi="96"
       inkscape:export-ydpi="96" />
    <path
       sodipodi:nodetypes="cccscccc"
       inkscape:connector-curvature="0"
       id="path5814-1-5-6-6"
       d="m -0.89019791,135.82646 c 0,0 4.91107001,1.19191 7.34157001,1.89456 l 5.4461899,1.41477 c -0.39284,-0.46519 0.18963,-0.73002 0.15721,-1.08019 -0.0287,-0.30931 -0.71866,-0.75061 -0.42322,-1.05589 l -6.3279799,-2.95357 c -1.12191,-1.22076 -11.72483,0.22392 -11.72483,0.22392 z"
       style="fill:#ffc3a3;fill-opacity:1;stroke:none;stroke-width:0.235153px;stroke-linecap:butt;stroke-linejoin:miter;stroke-opacity:1;filter:url(#filter26610)"
       inkscape:export-xdpi="96"
       inkscape:export-ydpi="96" />
    <path
       sodipodi:nodetypes="sacscscs"
       inkscape:connector-curvature="0"
       id="path5814-1-5-5-4-6-5-8"
       d="m -15.158378,133.67621 c 2.73823,1.02344 4.71671,1.48569 7.0725401,2.23649 5.60183,1.78531 15.87391,5.39065 16.79337,5.39377 0.97292,-0.18489 1.2472,-1.50614 2.5956699,-2.13336 0.9539,-0.44369 -13.9460099,-3.99004 -13.9460099,-3.99004 -0.54577,-0.003 -7.02902,-1.85484 -8.3006201,-2.07571 -3.51231,-0.61002 -7.83472,-1.37001 -7.83472,-1.37001 0,0 2.37991,1.47543 3.61977,1.93886 z"
       style="fill:#ffe1d0;fill-opacity:1;stroke:none;stroke-width:0.235153px;stroke-linecap:butt;stroke-linejoin:miter;stroke-opacity:1;filter:url(#filter26610)"
       inkscape:export-xdpi="96"
       inkscape:export-ydpi="96" />
    <path
       sodipodi:nodetypes="cscssascc"
       inkscape:connector-curvature="0"
       id="path5814-1-5-5-4-6-53"
       d="m -0.46695791,134.02701 c 2.18766001,-0.28329 5.14782001,0.0817 7.10721001,0.76595 2.66147,0.92935 4.0974999,2.32335 5.0169499,2.32648 0.43864,-0.0834 0.88705,-0.15372 1.00971,-0.3693 0.14939,-0.2626 -0.0984,-0.69401 -0.34942,-1.03844 -0.61968,-0.85017 -1.52045,-1.15459 -2.3923499,-1.51719 -1.51543,-0.63023 -3.5302,-0.86834 -4.80179,-1.0892 -3.51231,-0.61003 -6.97743,-0.96892 -6.97743,-0.96892 0,0 0.3127,1.11756 1.38711999,1.89062 z"
       style="fill:#fed0b8;fill-opacity:1;stroke:none;stroke-width:0.235153px;stroke-linecap:butt;stroke-linejoin:miter;stroke-opacity:1;filter:url(#filter26610)"
       inkscape:export-xdpi="96"
       inkscape:export-ydpi="96" />
    <path
       sodipodi:nodetypes="ccczcc"
       inkscape:connector-curvature="0"
       id="path5814-1-5-5-4-4"
       d="m -5.9927079,134.38229 c 2.03078,-0.37414 3.92938,-0.36069 5.52574999,-0.35528 -0.37858,-0.20042 -1.38212999,-1.8897 -1.38212999,-1.8897 -6.02193,-0.6641 -14.3998701,-0.98364 -15.3364701,-0.837 -0.9366,0.14662 -1.14065,0.23472 -1.59239,0.43793 0.70414,0.22257 10.2621101,2.03896 12.7852401,2.64405 z"
       style="fill:#ffdfce;fill-opacity:1;stroke:none;stroke-width:0.235153px;stroke-linecap:butt;stroke-linejoin:miter;stroke-opacity:1;filter:url(#filter26610)"
       inkscape:export-xdpi="96"
       inkscape:export-ydpi="96" />
    <path
       sodipodi:nodetypes="cccccc"
       inkscape:connector-curvature="0"
       id="path5814-1-5-6-9-3-8-7-7-0"
       d="m 28.825272,138.62893 c 0.10392,-1.06002 0.78418,-1.28801 0.78418,-1.28801 0.97688,0.14549 2.64583,1.20552 3.33579,1.39019 -3.52133,-2.69155 -5.24382,-4.23143 -9.46435,-5.06767 0,0 -2.12816,0.94702 -0.65107,1.90277 3.4528,-0.36788 5.18993,0.0655 5.99545,3.06272 z"
       style="fill:#d4723f;fill-opacity:1;stroke:none;stroke-width:0.235153px;stroke-linecap:butt;stroke-linejoin:miter;stroke-opacity:1;filter:url(#filter26610)"
       inkscape:export-xdpi="96"
       inkscape:export-ydpi="96" />
    <path
       inkscape:transform-center-y="-2.2070161"
       inkscape:transform-center-x="1.0517068"
       sodipodi:nodetypes="ccccccc"
       inkscape:connector-curvature="0"
       id="path5814-1-5-6-9-3-9-7-2-2-0-6-15-9-76-1"
       d="m 29.848492,132.12277 c -0.63784,0.15368 -1.7588,0.49139 -1.7588,0.49139 0,0 -0.16532,0.6776 0.12836,1.17072 0.96288,0.23036 2.24299,0.76495 3.75012,1.37133 -0.52014,-0.55946 0.60795,-0.82041 0.60795,-0.82041 0,0 -0.49513,-0.83687 0.2899,-0.87442 -1.34187,-0.60709 -2.02095,-0.83722 -3.01753,-1.33861 z"
       style="fill:#813f1a;fill-opacity:1;stroke:none;stroke-width:0.235153px;stroke-linecap:butt;stroke-linejoin:miter;stroke-opacity:1;filter:url(#filter26610)"
       inkscape:export-xdpi="96"
       inkscape:export-ydpi="96" />
    <path
       sodipodi:nodetypes="cc"
       inkscape:connector-curvature="0"
       id="path4563-7-3-5-6-2-7"
       d="m 18.304732,134.78544 c 3.87688,-2.64481 7.83461,-0.56136 10.69202,1.02221"
       style="fill:none;stroke:#f3f3f3;stroke-width:0.222192;stroke-linecap:round;stroke-linejoin:miter;stroke-miterlimit:4;stroke-dasharray:none;stroke-opacity:1;filter:url(#filter26610)"
       inkscape:export-xdpi="96"
       inkscape:export-ydpi="96" />
    <path
       sodipodi:nodetypes="acaccccccccca"
       inkscape:connector-curvature="0"
       id="path5814-1-5-5-7"
       d="m 9.9528221,134.2398 c 0.6695499,0.25777 1.9244099,0.96395 1.9244099,0.96395 0,0 1.82456,-1.29342 2.85284,-1.70628 1.98513,-0.79705 4.71192,-1.10859 6.25633,-1.42921 -0.47037,-0.5415 2.03498,-0.4823 2.73611,-0.51538 -0.37858,-0.20042 -2.04509,-0.91468 -2.04509,-0.91468 l -1.73249,-0.10817 -2.19759,0.17148 -2.07861,0.37469 -4.27011,0.8922 -2.9246599,0.87291 -1.50956,0.56937 c 0.93878,0.15615 2.02368,0.4577 2.98842,0.82912 z"
       style="fill:#632300;fill-opacity:1;stroke:none;stroke-width:0.235153px;stroke-linecap:butt;stroke-linejoin:miter;stroke-opacity:1;filter:url(#filter26610)"
       inkscape:export-xdpi="96"
       inkscape:export-ydpi="96" />
    <path
       sodipodi:nodetypes="cccccccccc"
       inkscape:connector-curvature="0"
       id="path5814-1-8"
       d="m 8.4232421,147.50202 c 1.8567699,0.91832 4.6851099,2.83087 5.5280999,2.82202 0,0 0.0729,0.22888 0.11152,0.47477 0.5163,0.24957 2.59706,1.29833 3.75429,1.89208 1.15722,0.59374 3.1909,1.6664 3.1909,1.6664 l -0.24469,-4.25508 -1.2072,-2.2281 -4.36528,-1.21571 -6.9705899,-2.85542 z"
       style="fill:#ffe2d1;fill-opacity:1;stroke:none;stroke-width:0.235153px;stroke-linecap:butt;stroke-linejoin:miter;stroke-opacity:1;filter:url(#filter26610)"
       inkscape:export-xdpi="96"
       inkscape:export-ydpi="96" />
    <path
       sodipodi:nodetypes="ccccc"
       inkscape:connector-curvature="0"
       id="path5814-1-5-6-9-3-0-9-5-0"
       d="m 20.819752,153.08386 c 0.12471,-1.39258 -0.18946,-3.33719 -0.18946,-3.33719 -1.5147,-0.70801 -1.9847,-1.0935 -3.50461,-0.46989 -0.25144,0.72884 -0.40501,1.17398 -0.84191,2.31247 1.53778,-0.7671 4.0995,0.154 4.53598,1.49461 z"
       style="fill:#ffddc7;fill-opacity:1;stroke:none;stroke-width:0.235153px;stroke-linecap:butt;stroke-linejoin:miter;stroke-opacity:1;filter:url(#filter26610)"
       inkscape:export-xdpi="96"
       inkscape:export-ydpi="96" />
    <path
       sodipodi:nodetypes="ccccccc"
       inkscape:connector-curvature="0"
       id="path5814-1-5-6-9-3-9-0-8"
       d="m 18.066302,151.65641 c -0.58788,-0.61728 -1.35906,-1.9662 -1.35906,-1.9662 l -2.25802,-0.48269 -2.14604,-0.0398 1.00256,1.34195 c 0.62355,0.27021 2.48983,1.16862 2.48983,1.16862 0.76661,0.10741 1.55092,0.0681 2.27073,-0.0219 z"
       style="fill:#ffd4b8;fill-opacity:1;stroke:none;stroke-width:0.235153px;stroke-linecap:butt;stroke-linejoin:miter;stroke-opacity:1;filter:url(#filter26610)"
       inkscape:export-xdpi="96"
       inkscape:export-ydpi="96" />
    <path
       sodipodi:nodetypes="cccccc"
       inkscape:connector-curvature="0"
       id="path5814-1-5-6-9-3-0-9-9"
       d="m 20.844112,150.68322 -1.43655,-2.91111 -4.13844,-2.0168 0.57483,1.1392 c 0.20785,0.64434 1.37913,1.52973 1.13969,2.80333 1.28837,-1.27632 3.86047,0.98538 3.86047,0.98538 z"
       style="fill:#ffebde;fill-opacity:1;stroke:none;stroke-width:0.235153px;stroke-linecap:butt;stroke-linejoin:miter;stroke-opacity:1;filter:url(#filter26610)"
       inkscape:export-xdpi="96"
       inkscape:export-ydpi="96" />
    <path
       sodipodi:nodetypes="ccccc"
       inkscape:connector-curvature="0"
       id="path5814-1-5-6-9-3-0-6-6-7"
       d="m 14.057892,146.3483 c -0.88647,-0.5596 -1.99775,-1.38342 -1.99775,-1.38342 l -1.54749,0.67086 c 0,0 0.58999,0.44744 1.72165,1.78488 0.052,-1.00806 0.41333,-1.36489 1.82359,-1.07232 z"
       style="fill:#ffebde;fill-opacity:1;stroke:none;stroke-width:0.235153px;stroke-linecap:butt;stroke-linejoin:miter;stroke-opacity:1;filter:url(#filter26610)"
       inkscape:export-xdpi="96"
       inkscape:export-ydpi="96" />
    <path
       sodipodi:nodetypes="ccccc"
       inkscape:connector-curvature="0"
       id="path5814-1-5-6-9-3-0-6-8"
       d="m 13.060212,145.93389 c -0.88647,-0.55961 -1.99774,-1.38343 -1.99774,-1.38343 l -1.5474899,0.67088 c 0,0 0.5899799,0.44743 1.7216499,1.78486 0.052,-1.00806 0.41332,-1.36488 1.82358,-1.07231 z"
       style="fill:#ffd2b7;fill-opacity:1;stroke:none;stroke-width:0.235153px;stroke-linecap:butt;stroke-linejoin:miter;stroke-opacity:1;filter:url(#filter26610)"
       inkscape:export-xdpi="96"
       inkscape:export-ydpi="96" />
    <path
       sodipodi:nodetypes="cccccc"
       inkscape:connector-curvature="0"
       id="path5814-1-5-6-9-3-8-2-3"
       d="m 13.395472,150.55452 -0.85842,-1.15054 4.04929,-0.2405 c 0,0 -4.65113,-0.52236 -6.56175,-2.53587 -0.7936299,0.94062 -0.3549899,1.54283 -0.3549899,1.54283 0.6760699,0.79365 3.7258699,2.38408 3.7258699,2.38408 z"
       style="fill:#ffb995;fill-opacity:1;stroke:none;stroke-width:0.235153px;stroke-linecap:butt;stroke-linejoin:miter;stroke-opacity:1;filter:url(#filter26610)"
       inkscape:export-xdpi="96"
       inkscape:export-ydpi="96" />
    <path
       sodipodi:nodetypes="cccccc"
       inkscape:connector-curvature="0"
       id="path5814-1-5-6-9-3-0-97"
       d="m 20.205092,148.93486 -2.3303,-3.11896 -2.57958,-1.78817 -2.62603,0.18311 c 0,0 2.8971,2.74415 4.02876,4.08159 0.16628,-1.95377 3.50715,0.64243 3.50715,0.64243 z"
       style="fill:#ffd2b7;fill-opacity:1;stroke:none;stroke-width:0.235153px;stroke-linecap:butt;stroke-linejoin:miter;stroke-opacity:1;filter:url(#filter26610)"
       inkscape:export-xdpi="96"
       inkscape:export-ydpi="96" />
    <path
       sodipodi:nodetypes="cccccccsscc"
       inkscape:connector-curvature="0"
       id="path5814-1-5-2"
       d="m 10.780902,139.17537 3.06084,1.38348 0.6094,0.39065 0.66568,0.138 c 1.65867,-0.25195 2.796,-0.43251 3.50986,-1.54529 l -2.7401,-1.13927 -1.11813,-0.96531 c 0,0 -1.62146,-0.63422 -2.35353,-0.65006 -0.33004,-0.007 -0.68193,0.10596 -0.94668,0.30562 -0.12252,0.0924 0.48894,0.92296 0.48894,0.92296 z"
       style="fill:#000000;fill-opacity:1;stroke:none;stroke-width:0.235153px;stroke-linecap:butt;stroke-linejoin:miter;stroke-opacity:1;filter:url(#filter26610)"
       inkscape:export-xdpi="96"
       inkscape:export-ydpi="96" />
    <path
       sodipodi:nodetypes="acscaa"
       inkscape:connector-curvature="0"
       id="path5814-1-5-7-5"
       d="m 15.749792,139.52775 c 0.87291,0.0807 1.6762,-0.61339 2.30608,-1.26426 0,0 -1.16121,0.592 -2.45678,-0.0395 -1.16254,-0.56675 -1.07359,-1.9897 -0.92513,-2.55386 -0.83454,0.0254 -1.17132,1.39151 -0.99226,2.16485 0.20096,0.86789 1.18102,1.61077 2.06809,1.69281 z"
       style="fill:#882f00;fill-opacity:1;stroke:none;stroke-width:0.235153px;stroke-linecap:butt;stroke-linejoin:miter;stroke-opacity:1;filter:url(#filter26610)"
       inkscape:export-xdpi="96"
       inkscape:export-ydpi="96" />
    <path
       sodipodi:nodetypes="cccccccc"
       inkscape:connector-curvature="0"
       id="path5814-1-5-6-9-3-4-0"
       d="m 14.446612,143.61647 c 0,0 -0.58432,-0.99271 -0.94064,-1.73504 0,0 0.20851,-0.24441 1.54468,-0.70464 l -3.14345,-1.83769 -1.03091,-0.16368 -0.9844499,1.18978 -1.03307,0.94105 c 0,0 3.7765999,1.53821 5.5878399,2.31022 z"
       style="fill:#c44400;fill-opacity:1;stroke:none;stroke-width:0.235153px;stroke-linecap:butt;stroke-linejoin:miter;stroke-opacity:1;filter:url(#filter26610)"
       inkscape:export-xdpi="96"
       inkscape:export-ydpi="96" />
    <path
       inkscape:transform-center-y="-1.2433009"
       inkscape:transform-center-x="0.82371939"
       sodipodi:nodetypes="ccccccacc"
       inkscape:connector-curvature="0"
       id="path5814-1-5-6-9-3-9-7-2-2-0-6-9-4-9-0-2"
       d="m 22.393982,136.79741 c -1.39043,-0.31274 -1.46416,-0.69257 -1.46416,-0.69257 0.0831,-0.35423 0.31683,-0.57724 0.31683,-0.57724 -0.23009,-0.161 -0.61455,-0.61856 -0.61455,-0.61856 0,0 -0.0287,-0.6372 1.65738,-1.04982 -0.89812,-0.0855 -2.35674,0.27023 -3.69117,1.00281 0,0 0.38186,0.56428 0.47501,0.88626 0.0925,0.31968 0.14354,0.61503 0.071,0.99586 0.68439,-0.14459 1.86683,0.14434 3.24965,0.0532 z"
       style="fill:#773b1a;fill-opacity:1;stroke:none;stroke-width:0.132524px;stroke-linecap:butt;stroke-linejoin:miter;stroke-opacity:1;filter:url(#filter26610)"
       inkscape:export-xdpi="96"
       inkscape:export-ydpi="96" />
    <path
       sodipodi:nodetypes="acscaa"
       inkscape:connector-curvature="0"
       id="path5814-1-5-7-4-4"
       d="m 18.718332,134.06752 c -0.7301,-0.4852 -1.76654,-0.25535 -2.62984,0.0187 0,0 1.30308,0.0299 2.14389,1.20047 0.75446,1.05047 8.7e-4,2.26085 -0.39736,2.68703 0.74665,0.37367 1.69132,-0.66915 1.90062,-1.43487 0.23487,-0.85933 -0.27539,-1.97827 -1.01731,-2.47138 z"
       style="fill:#732800;fill-opacity:1;stroke:none;stroke-width:0.235153px;stroke-linecap:butt;stroke-linejoin:miter;stroke-opacity:1;filter:url(#filter26610)"
       inkscape:export-xdpi="96"
       inkscape:export-ydpi="96" />
    <circle
       r="2.1949201"
       cy="136.39232"
       cx="16.769079"
       id="path4531-8"
       style="fill:#ffff00;fill-opacity:1;stroke:#ffc250;stroke-width:0.444384;stroke-miterlimit:4;stroke-dasharray:none;stroke-opacity:1;filter:url(#filter26610)"
       inkscape:export-xdpi="96"
       inkscape:export-ydpi="96"
       transform="matrix(1.3932939,0,0,1.3932939,-6.5510954,-53.267578)" />
    <path
       sodipodi:nodetypes="cccccccccc"
       inkscape:connector-curvature="0"
       id="path5814-0"
       d="m 2.2049821,139.78227 c 0.71708,0.47286 2.38303,2.24656 2.38303,2.24656 l 3.83523,5.47319 c 0,0 0.63688,-0.9276 -0.20295,-3.69904 3.5272799,2.45651 6.7648299,3.00238 7.1984099,2.81868 -1.05085,-0.7128 -1.56155,-1.28556 -1.56155,-1.28556 l 1.16577,-1.36516 -6.3153899,-2.66447 -8.04574001,-2.79443 z"
       style="fill:#ffbe9b;fill-opacity:1;stroke:none;stroke-width:0.235153px;stroke-linecap:butt;stroke-linejoin:miter;stroke-opacity:1;filter:url(#filter26610)"
       inkscape:export-xdpi="96"
       inkscape:export-ydpi="96" />
    <path
       sodipodi:nodetypes="ccccsc"
       inkscape:connector-curvature="0"
       id="path5814-1-5-6-9-3-8-62"
       d="m 9.6330321,149.07505 0.8611199,-1.98826 c 0,0 0.61019,-0.22581 1.84474,0.42086 0,0 -4.3571899,-5.93088 -11.1766199,-8.57635 0,0 3.01456,2.00995 4.78898,4.82028 1.24413,1.97045 3.68178,5.32347 3.68178,5.32347 z"
       style="fill:#ffa373;fill-opacity:1;stroke:none;stroke-width:0.235153px;stroke-linecap:butt;stroke-linejoin:miter;stroke-opacity:1;filter:url(#filter26610)"
       inkscape:export-xdpi="96"
       inkscape:export-ydpi="96" />
    <circle
       r="1.3276923"
       cy="136.13991"
       cx="16.546392"
       id="path4531-3-65"
       style="fill:#000000;fill-opacity:1;stroke:#000000;stroke-width:0.444384;stroke-miterlimit:4;stroke-dasharray:none;stroke-opacity:1;filter:url(#filter26610)"
       inkscape:export-xdpi="96"
       inkscape:export-ydpi="96"
       transform="matrix(1.3932939,0,0,1.3932939,-6.5510954,-53.267578)" />
    <circle
       r="0.53040206"
       cy="135.64998"
       cx="17.155066"
       id="path4531-3-6-6"
       style="fill:#fffbfb;fill-opacity:1;stroke:none;stroke-width:0.444384;stroke-miterlimit:4;stroke-dasharray:none;stroke-opacity:1;filter:url(#filter26610)"
       inkscape:export-xdpi="96"
       inkscape:export-ydpi="96"
       transform="matrix(1.3932939,0,0,1.3932939,-6.5510954,-53.267578)" />
    <path
       sodipodi:nodetypes="cac"
       inkscape:connector-curvature="0"
       id="path4563-7-3-6"
       d="m 8.7773321,141.44241 c 5.9790799,2.41291 9.0164699,3.26345 11.2235099,7.1012 1.72618,3.00161 0.78893,7.33579 0.38554,10.38054"
       style="fill:none;stroke:#f3f3f3;stroke-width:0.444384;stroke-linecap:round;stroke-linejoin:miter;stroke-miterlimit:4;stroke-dasharray:none;stroke-opacity:1;filter:url(#filter26610)"
       inkscape:export-xdpi="96"
       inkscape:export-ydpi="96" />
    <path
       sodipodi:nodetypes="cc"
       inkscape:connector-curvature="0"
       id="path4563-7-3-5-6-1-3"
       d="m 20.620232,137.71678 c 6.39638,-3.27469 14.00428,7.91525 15.10528,8.78649"
       style="fill:none;stroke:#f3f3f3;stroke-width:0.222192;stroke-linecap:round;stroke-linejoin:miter;stroke-miterlimit:4;stroke-dasharray:none;stroke-opacity:1;filter:url(#filter26610)"
       inkscape:export-xdpi="96"
       inkscape:export-ydpi="96" />
    <path
       sodipodi:nodetypes="ccscccccccccccc"
       inkscape:connector-curvature="0"
       id="path5814-1-5-6-9-3-8-6-8-89-3-1"
       d="m 17.972852,169.02503 c 0,0 0.91201,-1.65136 1.5053,-2.03311 0.1777,0.24941 0.63571,0.30195 0.8248,0.54276 0.42327,0.53905 0.5411,1.18784 0.5411,1.18784 0,0 0.19448,-0.7699 0.49586,-1.10247 0,0 0.18468,-0.32361 0.64194,-0.32361 0,0 0.34083,0.15991 0.50712,0.46129 0.22863,-0.28059 0.71421,-0.26499 0.71421,-0.26499 0.39491,0.23903 0.86815,1.70437 0.86815,1.70437 0,0 -0.40952,-2.48229 -0.5797,-4.17549 -1.1005,-0.99215 -1.58829,-1.64391 -1.58829,-1.64391 -0.33068,0.48501 -0.94189,0.71155 -0.94189,0.71155 0,0 -0.8812,-0.22328 -1.21924,-0.53926 0,0 -0.79523,0.84584 -1.08662,0.89801 -0.32439,2.51646 -0.49877,2.3535 -0.68274,4.57702 z"
       style="fill:#ff8343;fill-opacity:1;stroke:none;stroke-width:0.235153px;stroke-linecap:butt;stroke-linejoin:miter;stroke-opacity:1;filter:url(#filter26610)"
       inkscape:export-xdpi="96"
       inkscape:export-ydpi="96" />
    <path
       inkscape:transform-center-y="-1.8314682"
       inkscape:transform-center-x="-1.7826734"
       sodipodi:nodetypes="ssccccccs"
       inkscape:connector-curvature="0"
       id="path5814-1-5-6-9-3-9-7-2-2-0-6-15-5-6-7"
       d="m 23.191852,161.95304 c -0.0529,-0.60681 0.0857,-1.4612 -0.45109,-1.68175 -0.15693,-0.0645 -0.51198,-0.11905 -0.71774,-0.3836 -0.27924,0.55848 -0.60124,0.63381 -0.60124,0.63381 0,0 -0.40181,-0.23048 -0.78393,-0.39215 0.44235,0.6867 -0.61087,1.53264 -0.819,1.85061 0.10287,0.98471 -0.28303,0.90379 0.10177,2.68846 0.54852,-1.67197 2.25071,0.54792 3.60518,0.63716 -0.13322,-1.2711 -0.18698,-1.66713 -0.33395,-3.35254 z"
       style="opacity:0.98;fill:#ca5e23;fill-opacity:1;stroke:none;stroke-width:0.235153px;stroke-linecap:butt;stroke-linejoin:miter;stroke-opacity:1;filter:url(#filter26610)"
       inkscape:export-xdpi="96"
       inkscape:export-ydpi="96" />
    <path
       sodipodi:nodetypes="ccccccccccc"
       inkscape:connector-curvature="0"
       id="path5814-1-5-5-1-7-1"
       d="m 29.816212,133.38654 c 1.41072,-0.98054 1.89991,-0.70639 0.0322,-1.26377 l -0.86723,-0.13618 -1.39128,-0.43269 -1.36152,-0.29228 -2.82317,-0.53297 -1.71953,-0.0961 -1.26092,-0.0375 c 0.46162,0.53054 0.79638,0.36998 1.26763,0.79948 4.53489,0.15838 5.4163,1.45193 8.12374,1.99195 z"
       style="fill:#4d230d;fill-opacity:1;stroke:none;stroke-width:0.147003px;stroke-linecap:butt;stroke-linejoin:miter;stroke-opacity:1;filter:url(#filter26610)"
       inkscape:export-xdpi="96"
       inkscape:export-ydpi="96" />
    <path
       sodipodi:nodetypes="ccccc"
       inkscape:connector-curvature="0"
       id="path5814-1-5-6-9-3-3-3"
       d="m 8.7744521,141.42826 c 0,0 0.81829,-0.59822 1.3069699,-1.3147 -9.0282699,-2.56733 -18.1771099,-4.73068 -27.15534,-7.466 2.00763,1.79505 17.82188009,6.19337 17.82188009,6.19337 z"
       style="fill:#ffece1;fill-opacity:1;stroke:none;stroke-width:0.235153px;stroke-linecap:butt;stroke-linejoin:miter;stroke-opacity:1;filter:url(#filter26610)"
       inkscape:export-xdpi="96"
       inkscape:export-ydpi="96" />
    <path
       sodipodi:nodetypes="cssc"
       inkscape:connector-curvature="0"
       id="path4563-7-3-5-0"
       d="m 8.6744521,141.41853 c 1.5435999,-0.72535 1.3823399,-2.74906 3.0914199,-2.13888 0.42436,0.1515 1.55062,1.00938 2.28856,1.44136 1.11013,0.64988 2.25098,0.47486 3.75323,-0.46986"
       style="fill:none;stroke:#f3f3f3;stroke-width:0.222192;stroke-linecap:round;stroke-linejoin:miter;stroke-miterlimit:4;stroke-dasharray:none;stroke-opacity:1;filter:url(#filter26610)"
       inkscape:export-xdpi="96"
       inkscape:export-ydpi="96" />
    <path
       inkscape:transform-center-y="-1.8314708"
       inkscape:transform-center-x="-1.7826723"
       sodipodi:nodetypes="sccccs"
       inkscape:connector-curvature="0"
       id="path5814-1-5-6-9-3-9-7-2-2-0-6-15-5-8"
       d="m 19.851382,162.1735 c 0,-0.60911 0.0781,-1.04977 -0.3188,-1.79932 0,0 -0.43812,0.47411 -0.80555,0.91502 0.10288,0.98471 -0.0405,2.25591 -0.11134,3.87892 0.6955,-1.32659 0.90593,-0.73073 1.51086,0.75473 -0.2361,-1.46334 -0.27517,-2.34103 -0.27517,-3.74935 z"
       style="fill:#d26d38;fill-opacity:1;stroke:none;stroke-width:0.235153px;stroke-linecap:butt;stroke-linejoin:miter;stroke-opacity:1;filter:url(#filter26610)"
       inkscape:export-xdpi="96"
       inkscape:export-ydpi="96" />
    <path
       sodipodi:nodetypes="cccc"
       inkscape:connector-curvature="0"
       id="path5814-1-5-6-9-3-8-6-8-8-4-2"
       d="m 16.071812,167.61785 c 1.64641,-3.29084 1.15441,-2.75561 2.68123,-4.08412 0,0 -1.051,-0.93298 -1.72858,-1.3229 0.15145,1.67155 -0.64818,3.69698 -0.95265,5.40702 z"
       style="fill:#ff8e54;fill-opacity:1;stroke:none;stroke-width:0.235153px;stroke-linecap:butt;stroke-linejoin:miter;stroke-opacity:1;filter:url(#filter26610)"
       inkscape:export-xdpi="96"
       inkscape:export-ydpi="96" />
    <circle
       r="0.27320346"
       cy="136.20464"
       cx="16.371588"
       id="path4531-3-6-4-1"
       style="fill:#545454;fill-opacity:1;stroke:none;stroke-width:0.228896;stroke-miterlimit:4;stroke-dasharray:none;stroke-opacity:1;filter:url(#filter26610)"
       inkscape:export-xdpi="96"
       inkscape:export-ydpi="96"
       transform="matrix(1.3932939,0,0,1.3932939,-6.5510954,-53.267578)" />
    <path
       sodipodi:nodetypes="cczcccccccccsc"
       inkscape:connector-curvature="0"
       id="path5814-1-5-5-1-0"
       d="m 9.0723821,133.96578 c 0.45375,0.11576 1.1382599,0.36019 1.1382599,0.36019 0,0 0.73671,-0.70248 1.79858,-1.15836 1.06187,-0.45587 3.65542,-0.86232 4.6581,-1.13425 -1.15913,-0.83737 2.92027,-0.76097 3.38087,-0.81817 -0.25919,-0.0977 -3.59667,-0.10528 -3.59667,-0.10528 l -1.14726,0.0295 -1.44043,0.21924 -1.35224,0.33252 -2.7720099,0.7552 -1.886,0.67144 -0.73911,0.31782 c 0.64715,0.27526 0.76431,0.17843 1.37593,0.35863 z"
       style="fill:#4d230d;fill-opacity:1;stroke:none;stroke-width:0.147003px;stroke-linecap:butt;stroke-linejoin:miter;stroke-opacity:1;filter:url(#filter26610)"
       inkscape:export-xdpi="96"
       inkscape:export-ydpi="96" />
    <path
       sodipodi:nodetypes="cczcccccccsc"
       inkscape:connector-curvature="0"
       id="path5814-1-5-5-1-5-8"
       d="m 7.5716121,133.63255 c 0.12378,0.0581 0.35411,0.22033 0.35411,0.22033 0,0 0.2327,-0.26575 0.54825,-0.42371 0.31557,-0.15795 0.63502,-0.20593 0.92735,-0.29099 -0.22433,-0.1063 1.0181899,-0.61835 1.0181899,-0.61835 0,0 -0.7189999,0.0805 -1.3583099,0.22397 l -0.39303,0.10087 -0.80826,0.2365 -0.55555,0.22467 -0.21966,0.11014 c 0.17508,0.0322 0.32189,0.12532 0.48691,0.21657 z"
       style="fill:#3c1500;fill-opacity:1;stroke:none;stroke-width:0.0498211px;stroke-linecap:butt;stroke-linejoin:miter;stroke-opacity:1;filter:url(#filter26610)"
       inkscape:export-xdpi="96"
       inkscape:export-ydpi="96" />
    <path
       sodipodi:nodetypes="ccsccc"
       inkscape:connector-curvature="0"
       id="path5814-1-5-6-9-3-71-6"
       d="m 13.366802,136.18544 c 0,0 -0.75882,-0.6203 -1.09888,-0.9171 -1.63292,-1.10464 -4.0864599,-1.59428 -4.9603899,-1.80697 -0.18821,-0.0457 -0.30616,0.0335 -0.30616,0.0335 0.0872,0.22224 1.7269169,0.70505 4.4538569,3.74728 1.054441,0.16276 1.393882,-0.81763 1.911573,-1.05671 z"
       style="fill:#c44400;fill-opacity:1;stroke:none;stroke-width:0.235153px;stroke-linecap:butt;stroke-linejoin:miter;stroke-opacity:1;filter:url(#filter26610)"
       inkscape:export-xdpi="96"
       inkscape:export-ydpi="96" />
    <path
       sodipodi:nodetypes="cssc"
       inkscape:connector-curvature="0"
       id="path4563-5-8-1"
       d="m 7.0793321,133.41783 c 1.27236,-0.53613 8.3627099,-2.78033 12.8350999,-2.84721 5.71662,-0.0855 11.01489,1.64341 13.24186,3.13216 l 2.76702,1.84978"
       style="fill:none;stroke:#ffffff;stroke-width:0.422;stroke-linecap:round;stroke-linejoin:miter;stroke-miterlimit:4;stroke-dasharray:none;stroke-dashoffset:0;stroke-opacity:1;filter:url(#filter26610)"
       inkscape:export-xdpi="96"
       inkscape:export-ydpi="96" />
    <path
       sodipodi:nodetypes="cccc"
       inkscape:connector-curvature="0"
       id="path5814-1-5-6-9-3-72-7"
       d="m 5.3518021,134.44001 c -1.37723,-0.40781 -3.06692,-0.52284 -4.23689,-0.43606 0.64667,0.15799 1.80542,0.63594 2.06996,0.79026 0.54012,-0.13595 1.35125,-0.32114 2.16693,-0.3542 z"
       style="fill:#a7663e;fill-opacity:1;stroke:none;stroke-width:0.235153px;stroke-linecap:butt;stroke-linejoin:miter;stroke-opacity:1;filter:url(#filter26610)"
       inkscape:export-xdpi="96"
       inkscape:export-ydpi="96" />
    <path
       sodipodi:nodetypes="cc"
       inkscape:connector-curvature="0"
       id="path4563-7-3-5-6-2-7-0-8"
       d="m -0.67821791,133.95428 c 2.59651001,0.0318 4.74738001,-0.0348 7.52256001,0.91259"
       style="fill:none;stroke:#ffdfce;stroke-width:0.133315;stroke-linecap:round;stroke-linejoin:miter;stroke-miterlimit:4;stroke-dasharray:none;stroke-dashoffset:0;stroke-opacity:1;filter:url(#filter26610)"
       inkscape:export-xdpi="96"
       inkscape:export-ydpi="96" />
    <path
       inkscape:transform-center-y="-1.8475809"
       inkscape:transform-center-x="-2.9211394"
       sodipodi:nodetypes="cccccc"
       inkscape:connector-curvature="0"
       id="path5814-1-5-6-9-3-9-7-2-2-0-6-15-1-1"
       d="m 22.854242,171.01554 c -0.58499,-0.5553 -1.53389,-0.95522 -1.53389,-0.95522 0,0 -0.76607,0.3745 -1.36814,0.81929 0.16858,0.99336 0.24665,2.15713 0.13062,3.79442 1.13967,-1.33826 1.91799,-1.34503 2.90924,0.1535 -0.14316,-1.60494 -0.20042,-2.5927 -0.13777,-3.81199 z"
       style="fill:#ffa475;fill-opacity:1;stroke:none;stroke-width:0.302337px;stroke-linecap:butt;stroke-linejoin:miter;stroke-opacity:1;filter:url(#filter26610)"
       inkscape:export-xdpi="96"
       inkscape:export-ydpi="96" />
    <path
       sodipodi:nodetypes="cscscscccsscc"
       inkscape:connector-curvature="0"
       id="path5814-1-5-5-1-7-5-3"
       d="m 22.497502,172.45724 c -2.10206,0.66675 -0.82814,0.80276 -1.78264,0.0619 l -0.71015,-0.55123 c 0,0 0.0828,-0.42491 0.002,-0.612 -0.15925,-0.36632 -0.87821,-0.81528 -0.87821,-0.81528 0,0 0.3092,-0.59481 0.28789,-0.9133 -0.0348,-0.51986 -0.66433,-1.41489 -0.66433,-1.41489 l 0.98587,0.19173 c 0.91879,0.2589 0.30664,-0.7018 1.03304,-0.44286 -0.0495,0.64403 -0.33088,1.29725 -0.25602,1.76919 0.087,0.5482 0.55448,0.89032 0.85275,1.29385 0.37244,0.50391 0.91527,0.87255 1.13049,1.43293 z"
       style="fill:#f39a6b;fill-opacity:1;stroke:none;stroke-width:0.14427px;stroke-linecap:butt;stroke-linejoin:miter;stroke-opacity:1;filter:url(#filter26610)"
       inkscape:export-xdpi="96"
       inkscape:export-ydpi="96" />
    <path
       sodipodi:nodetypes="cscscscccsscc"
       inkscape:connector-curvature="0"
       id="path5814-1-5-5-1-7-5-6-89"
       d="m 20.546592,169.18657 c -1.92322,-1.07913 -1.15198,-0.0564 -1.2633,-1.25925 l -0.0829,-0.89514 c 0,0 0.36679,-0.22996 0.44805,-0.41692 0.15863,-0.36659 -0.004,-1.19829 -0.004,-1.19829 0,0 0.64556,-0.1807 0.86353,-0.4139 0.35582,-0.38061 0.57907,-1.45186 0.57907,-1.45186 l 0.53371,0.8508 c 0.4388,0.84775 0.72191,-0.25567 1.02924,0.45162 -0.50404,0.40394 -1.17325,0.64487 -1.46667,1.02202 -0.34084,0.43806 -0.27113,1.01322 -0.36195,1.50672 -0.11341,0.61626 -0.0116,1.26449 -0.27368,1.80455 z"
       style="fill:#ff9157;fill-opacity:1;stroke:none;stroke-width:0.14427px;stroke-linecap:butt;stroke-linejoin:miter;stroke-opacity:1;filter:url(#filter26610)"
       inkscape:export-xdpi="96"
       inkscape:export-ydpi="96" />
    <path
       sodipodi:nodetypes="csc"
       inkscape:connector-curvature="0"
       id="path4563-7-3-5-6-2-9-3"
       d="m 20.103942,138.50503 c 0.601775,1.40258 0.388337,2.4954 1.30671,3.02362 2.24988,1.29407 7.22588,5.32735 7.52714,12.87663"
       style="fill:none;stroke:#f3f3f3;stroke-width:0.222192;stroke-linecap:round;stroke-linejoin:miter;stroke-miterlimit:4;stroke-dasharray:0.666575, 0.666575;stroke-dashoffset:0;stroke-opacity:1;filter:url(#filter26610)"
       inkscape:export-xdpi="96"
       inkscape:export-ydpi="96" />
  </g>
</svg>
