         20.6            0       -2.811
         25.2            1      -3.8396
         29.8          1.6      -4.6429
         34.4          2.2       -5.615
           39            3      -5.9236
         43.6            5      -5.9319
           48          8.2      -5.0416
         50.6         12.8      -2.6643
         54.6         16.8     -0.83391
         59.2         18.6      -1.0868
         63.8           19      -1.7563
         68.4           19      -3.1767
           73         18.8       -4.217
         77.6         21.2      -3.7926
           81         25.4      -1.9199
         84.6         29.2     -0.33878
         89.2         31.8      0.11268
         93.8         33.8      0.15571
         98.4         36.8      -1.2225
          103         39.2      -1.8269
        107.6         40.6      -1.8909
        112.2         42.2      -2.4224
        116.8         44.2       -2.317
        121.4           46      -2.4136
          126         47.8      -2.6491
        130.6         49.6      -2.5217
        135.2         51.4      -2.8289
        139.8         53.4      -2.6611
        144.4         55.6      -2.4557
        148.8         58.4      -2.8934
        153.2         61.8      -3.6316
        157.8         64.2      -3.4979
        162.4           66      -3.3961
          167         68.2      -3.5679
        171.6         70.2      -3.2104
        176.2         72.8      -3.5818
        180.8         75.8      -4.1171
        185.4         77.8      -3.6375
          190         80.4       -3.379
        193.4         83.2      -3.5856
        191.6         87.8      -6.4904
        189.8         92.4      -8.9872
          188           97       -11.11
        186.2        101.6      -12.088
        184.4        106.2       -11.62
        182.8        110.8      -9.9698
          181        115.4      -7.3423
        179.4          120      -4.9999
        176.4        121.8      -4.1041
          172        119.8      -3.6206
        167.4        117.6      -3.5533
        162.8          116      -3.0792
        158.2        115.2      -2.7555
        153.6        113.8      -2.5936
          149        111.8      -2.5091
        144.4        109.6      -2.3594
        139.8        107.8      -2.3566
        135.2        105.8      -2.5278
        130.6          106      -2.2174
          126        105.8      -2.0646
        121.6        103.6      -1.9602
        117.2        101.2      -1.7402
        112.6           99      -1.4008
          108           97       -1.448
        103.4           95      -1.4381
         98.8           93      -1.1715
         94.4         90.8      -1.1902
           90         88.6     -0.97059
         85.4         86.6     -0.71475
           81         85.8     -0.76024
         76.4         86.2     -0.86443
         71.8         85.8     -0.85946
         67.2         84.2     -0.94952
         62.6         82.4      -1.0913
           58         80.2     -0.82883
         53.6         77.8     -0.39757
           49           75      -0.1955
         44.8         72.8     -0.31358
         40.2           72     -0.87953
         35.6           72      -1.9173
           31           72      -3.2219
         26.4         71.8      -4.4546
         21.8         69.8      -4.1373
         18.6         66.2      -2.9209
           16         61.8      -1.1679
         12.2         58.8    -0.012081
          7.6         56.6     -0.26403
            3           55     -0.25608
          0.4         52.2      -0.6585
          2.2         47.6      -1.7346
            4           43      -3.0694
          5.8         38.4       -4.533
          7.6         33.8      -5.3812
          9.4         29.2       -5.366
           11         24.6       -4.668
         12.8           20      -5.5098
         14.6         15.4      -6.8959
         16.4         10.8       -6.531
         18.2          6.2      -5.8172
           20          1.6      -3.5722
        61.13       23.054      -2.4795
       48.881       70.118     -0.44624
         37.9        67.73      -2.7871
       43.232       68.193      -1.1605
       57.845       75.251      -0.7944
       66.456       79.324      -1.1889
       55.344       21.676     -0.85497
       84.799       34.217       -1.902
       89.797       36.716      -2.5488
       83.964       81.999      -1.3246
       14.233       28.303       -4.807
       12.476       33.056      -5.1906
       121.44       98.651      -2.1278
       131.34       54.476      -5.2983
       126.74       52.676       -5.219
       122.14       50.876      -5.0634
          112       94.084      -2.0319
        98.51       88.081      -1.7347
       116.74       96.248      -2.0883
        107.4       92.084      -1.8007
       104.06       43.985      -4.6019
         79.7       30.237      -1.6118
       89.403       83.684      -1.4988
       98.725       41.786      -3.6746
        78.33       81.746     -0.89116
       161.23       111.39      -4.2288
       132.71       101.63      -2.8402
       143.66       104.72      -3.4971
       158.54       69.076      -5.9758
       49.581       17.819      -1.1916
        167.6       73.116      -6.1409
       153.52       66.786      -6.0287
       16.746       56.949     -0.89813
         66.1        23.27      -3.7558
       183.12       97.744      -11.655
       35.968       6.8068      -6.0772
       20.976       61.828      -2.3968
        166.5       112.77      -4.7317
       8.8764       42.256      -3.7604
       179.57        107.1      -10.662
        181.4       80.716      -6.3343
       45.583       12.601      -3.9057
       11.742       53.848     -0.67488
       21.276       10.056      -6.6838
       75.981       25.987      -3.5901
       70.885       23.166      -3.9733
       186.72       88.544      -8.2539
       26.948       5.5341      -6.0735
       7.0764       46.856      -2.1608
       171.54       114.85      -5.2276
         22.9          0.5      -3.5647
        17.36        32.16      -5.0878
       40.935       63.708       -2.922
        63.43       27.428      -3.7646
       85.389       39.286      -4.4794
       50.087       23.297      -1.0494
       47.433       65.113      -1.2917
       57.248       26.519        -2.71
       121.04       93.648      -3.2579
       127.49       57.553      -7.4464
       122.89       55.753      -7.7385
       79.622       35.593      -3.4305
       111.41       89.168      -2.9828
       81.338       77.607      -2.2889
       116.15       91.282      -2.9371
       22.087       56.591      -1.5493
       87.947       78.763      -2.3377
       99.763       46.833      -6.6961
       154.26       71.816      -8.4099
       44.192       17.807      -2.3104
       144.31       60.602      -5.3306
       164.94       107.95      -6.9014
       74.627       30.924      -2.8879
       17.676       19.256      -5.2978
       16.493       51.769     -0.97684
        112.8       47.116      -4.6006
       68.586       27.487        -4.31
          153       108.88      -3.4564
       28.885       67.634      -4.2992
       170.65       109.86      -7.5682
       11.953       46.112      -2.7204
        149.1        64.57      -5.8972
       137.62       101.53      -3.4445
       176.86       78.773      -6.6775
       148.25       106.52       -3.586
       175.77       117.35      -5.1708
       53.209       72.455     -0.53877
       94.301        39.57      -3.2159
       94.088       85.609      -1.4871
       181.19       102.36      -11.992
       6.7045       51.762      -0.7224
       163.04       71.176      -5.9933
       19.484       14.659      -6.5767
       184.92       93.141        -10.4
       10.684       37.659      -4.7557
       117.54       49.084      -5.1665
       102.93       90.146      -1.7919
       125.65          101      -2.3048
       70.839        81.15     -0.99477
       62.004       77.598     -0.99221
       15.678       23.778      -4.2512
       178.12       111.62      -8.5619
       185.77       82.514       -5.792
       171.97       74.914      -6.1513
       31.601       5.7232      -6.1353
       22.526       5.2407       -5.585
       40.027       6.9283      -5.9735
       62.022       72.705      -1.4087
       98.383       83.118      -2.6914
       57.733       70.197      -1.2016
       80.203       41.035      -5.9652
       59.718       31.198       -4.515
       168.16       77.964      -8.3067
       143.98       65.876      -8.0892
       123.63       60.629       -6.766
       74.209       36.377      -4.2846
       147.51       101.64      -5.3966
       120.45       88.621      -5.3792
       45.087       60.237       -3.067
       115.51       86.325      -5.5776
       135.08       97.313      -4.7547
       152.53       103.88      -5.6173
       85.378       73.979      -4.5468
       142.64       99.353      -5.4599
       163.65       76.076      -8.6536
       178.22       98.401      -12.237
       22.554        18.52      -4.9684
       113.53       52.044      -7.3175
       22.078       50.946     -0.82402
       32.756       10.409      -6.3095
       65.959       31.727      -4.7994
        70.29       76.295      -1.5888
       20.583       23.243       -3.798
       177.45        83.67      -8.8014
       24.359       13.907      -6.1445
       169.15       104.86      -9.2861
       132.08       59.352      -7.7481
        37.87       11.136      -5.9498
       104.27       48.967      -7.0026
       176.34       103.35      -11.231
       181.85        89.28      -9.5676
       36.009       63.147       -4.127
       160.18       106.54      -6.1503
       25.709       60.096      -3.5108
       40.762       14.102      -4.1964
        76.38       77.166      -1.8318
       93.368       80.697      -2.7773
       94.601       44.496      -6.2041
        149.4       69.496      -8.4159
       125.63       96.094      -3.2862
       158.98       73.994      -8.6109
       15.719       36.969      -4.9627
       89.772       41.737      -5.0379
       13.754        41.52      -3.9762
       135.86       56.178      -4.9598
       108.57       45.159      -4.3092
         33.3       68.191      -3.6792
       43.498       9.0857      -5.7229
       156.88       110.91       -3.362
       22.827       65.665      -4.0131
       189.59       84.362      -5.3143
       74.374       82.844     -0.76238
       9.9814       49.543      -1.8428
        46.88       20.831      -1.6978
       53.546       25.179      -1.7205
       72.475       27.679      -4.1147
       129.07       102.56      -2.4761
       23.574       2.9382      -4.5632
       45.882        25.45      -1.8474
       49.775       27.988      -2.2722
       62.033       67.765      -2.8203
       42.344       22.156      -1.7512
       62.477       35.717       -4.209
       97.732       78.062      -4.7891
       90.068       46.824      -7.2259
       100.19       51.759       -7.135
       164.26       80.959      -10.598
       159.57       78.934      -9.8775
       73.939       72.504      -3.5741
       154.83       76.782      -10.002
       149.99        74.51      -9.7109
       146.89       96.634      -8.2658
       95.421       49.554      -7.1965
       144.32       71.237      -9.5817
       20.581       35.943      -5.0679
       119.78       83.601      -7.3122
       25.509       22.526      -3.0303
       50.108       60.824      -2.9717
       39.344       18.856      -2.7655
       111.03       84.235      -5.3671
       27.433       17.769       -4.527
       18.657       40.937       -4.135
       119.04       58.835      -6.9146
       90.425       74.351      -5.6961
       53.944       29.864      -2.8341
       26.867       55.275      -2.7403
       136.71       61.035      -7.5148
       38.955       59.185      -4.6507
       173.29       99.356      -11.826
       52.259       66.428      -1.4225
       163.77       103.15       -9.088
       172.91       81.731      -9.0645
       124.98       90.639      -5.1387
       129.85           98      -3.3288
       106.88       87.159      -2.9015
       128.22        62.43      -7.9533
       180.06       93.852      -11.558
       108.94       49.908      -7.2931
        70.34       31.432      -3.9596
          175       108.13      -9.3168
       31.584        64.02      -4.5966
       18.934       27.688       -4.445
       66.015       74.825      -1.5052
       182.21       84.967      -8.0271
       25.645       9.7181      -6.5192
       156.06       106.07      -5.4102
          139       97.824       -5.322
       26.676       64.127      -4.3756
       77.293       38.593      -5.0447
       19.642       53.772     -0.46841
       76.003       43.085      -6.7936
       45.496       30.296       -2.823
       50.107        32.82       -3.709
       48.093       56.289       -3.377
       137.59       93.334      -7.2834
       42.744       55.502      -4.0315
       41.203       26.928      -2.3446
       27.336       49.943      -2.4448
       88.216       69.906      -7.0983
       119.78       63.709      -7.3197
       90.805       51.993      -6.7826
       145.02       76.572      -9.6903
       160.22       83.866      -10.009
       23.603       39.975      -4.4662
       109.44       54.848      -7.1607
       37.684       23.378      -1.7905
        173.5       86.626      -10.742
       156.55       101.35       -8.024
       139.89       68.825      -9.7344
       102.29       80.045      -5.3083
       30.429       21.749      -2.7756
        55.17       62.096      -3.2446
       57.453       35.683      -4.3785
        32.97       59.394      -4.6528
       131.91       93.423      -5.5887
       68.436        35.84      -4.3711
       80.505       72.616      -4.4165
        84.16       44.207      -6.9428
       34.713           15      -4.7835
       142.53       94.502      -8.0381
       151.44       98.618      -8.4441
       18.663       47.133      -2.4423
       115.08        81.41      -7.3247
       124.45       85.729      -8.0508
       167.76       99.932       -10.89
        132.9       64.329      -9.2243
        22.16       31.336      -4.7228
       118.29       53.959      -7.4323
       28.914       13.014      -6.1732
       65.888       70.244      -2.5473
       102.48       85.451      -2.4466
       140.41       58.028      -5.1376
       168.49       82.434      -10.306
       93.875       76.606      -4.9388
       174.21       111.98      -7.3115
       172.53       103.09      -10.684
        66.27       65.413      -4.9435
       97.312       73.339      -7.2511
       59.936        39.97      -3.1345
       101.71       75.137      -7.1731
       77.295        68.29      -6.2083
       45.751       35.303      -4.3348
       40.714       31.971      -3.5158
       128.95       67.335      -8.2586
       123.89       80.779      -8.6242
        46.04       51.671      -3.3188
       146.59       91.733      -9.8102
       65.369       40.048       -3.587
       36.411       28.159      -2.7517
       134.68       89.109      -8.8616
       141.04       89.763        -9.64
          156       96.216        -10.1
       115.19       61.916      -7.0578
       168.26       87.806      -11.479
       37.873       54.282      -4.9025
       110.61       79.322      -7.2446
       28.635       26.355      -2.8142
       163.08        98.22      -10.784
       170.08       95.397      -12.441
        150.6       79.511      -9.7487
       128.97       87.726       -7.963
       31.355       52.983      -3.4697
       86.209       50.011      -7.0636
       53.003       56.823      -3.7565
       95.107       54.549      -7.1509
       140.06       73.781      -9.7037
        25.41       35.025      -4.8389
       23.552        46.19      -2.9557
       155.66       81.955      -9.6421
        113.9        56.97      -7.3399
       104.62       53.865      -7.3617
       106.58       82.319      -5.2832
       34.705       19.719      -2.8039
       23.537       26.867      -3.6892
       79.817       45.572      -6.5219
       58.003       65.656      -2.8778
       139.76       64.335        -8.14
       83.888       69.915      -6.8999
       69.225       72.443      -2.5995
       53.944       33.832      -4.5371
       29.157       8.5166       -6.137
       29.208       58.387      -3.9763
       15.573       44.882      -3.2408
       160.03       102.78      -8.1638
       128.04       93.045      -4.9783
       75.578       47.905      -6.7637
       31.922       48.057      -3.1752
       101.13       70.285      -7.1159
       28.518       38.964      -4.5556
       62.592       44.278      -3.7871
       106.18        58.54      -7.0328
       86.043       65.641      -7.0216
       40.877       37.199      -4.0948
       86.816       54.923      -7.0953
       58.036       57.837      -3.3117
       114.65       76.497      -6.8423
       115.93        66.79       -7.096
       53.707       38.535      -3.7337
       81.614       64.957      -7.1142
       132.83       84.267       -9.689
       140.45       78.897      -9.5975
       35.731       33.261      -4.0611
       156.29       86.848      -9.4161
       135.71       71.452      -9.7887
       145.24       86.724      -9.6293
       100.57       56.669      -6.9534
       71.637       68.204      -4.9655
       70.353       40.459      -5.9279
       151.73       93.638      -9.6937
        119.3       78.495      -6.6777
       93.324       70.139      -7.2559
       175.05       94.468      -11.911
       51.019       52.223      -3.6384
       124.37       65.499      -6.9052
       106.22       77.094      -7.1341
       41.302       50.928       -4.621
       26.734       30.583      -4.2067
       164.43       85.452      -11.116
       32.957       25.386      -2.2077
       31.441       17.354      -4.1577
       82.936       47.903      -7.0118
       159.19       98.473      -10.391
       166.41       96.379      -11.563
       34.208       55.673      -4.3403
       70.923        63.02      -5.1518
       44.861       40.231       -3.752
       44.333       47.081      -3.6314
       162.68       93.564      -11.185
       125.07       70.381      -7.4348
       57.629       44.365      -3.5895
       111.34       64.996      -7.0361
       123.49       75.814       -7.445
       96.297       59.591      -7.0729
       102.02       61.655      -7.0567
       118.66       73.573      -6.8839
        84.48       61.079      -6.9343
        82.26       52.547      -6.8968
       35.709       38.621      -4.1252
       151.74       84.944      -9.8472
       55.932       52.832      -3.4506
       137.74       85.161      -9.8223
       30.164       34.024      -4.4941
       135.87       76.382      -9.6968
       62.056       62.816      -4.5914
       90.961       65.822      -6.8552
       36.596       49.546      -4.1423
       105.67       72.197      -7.1067
       67.512       44.482      -4.0814
       177.05        90.04      -11.171
       110.28       74.546      -6.9453
       128.26       82.788      -9.7406
       155.92       91.525      -9.6002
       171.83       91.028       -12.26
       28.131       45.356      -2.9406
       79.257       49.573      -6.2092
       91.041       56.495       -6.974
       136.33       66.678      -9.7178
       49.658       37.094      -4.3156
       97.242       69.341       -6.864
       75.655       52.628      -6.5627
       64.876       48.646      -3.4631
       63.368       57.643      -3.3113
       79.613        60.48      -7.0804
       131.52       74.058      -9.7759
       50.251       41.837      -3.2863
       105.06       67.306      -7.1239
       40.283       42.113      -3.9394
       35.555       44.733      -3.4755
        160.8       88.707      -10.939
       100.15       65.823      -7.0608
       131.89       79.373      -9.7242
       167.22       92.069      -11.355
       144.73       81.657       -9.653
       112.07       69.911      -7.0129
       120.51       68.566      -7.0066
       32.171       29.902      -3.5086
       110.83       60.414      -7.0398
       71.984       45.159      -6.1502
       152.17       89.291      -9.9404
       88.632       62.205      -7.1943
       132.75       68.224        -9.46
       158.91       93.819      -10.807
       71.188       49.925      -5.3882
       54.001        48.29      -3.5222
       95.558       64.983      -7.0378
       107.09       63.149      -7.0954
        48.97       47.969      -3.6129
        60.18       48.321      -3.6131
       127.52       77.992      -9.4706
       60.561       53.831      -3.6738
       66.828       60.778      -4.1311
       136.15       80.911      -9.5645
       82.507       57.037      -7.1848
        39.97       46.761      -4.4724
        77.51       64.105      -6.5323
       32.247       41.591        -3.89
       54.158       42.466      -3.7927
       164.75       89.213      -10.593
       148.93       87.415      -9.7583
       115.92       70.733      -7.3474
       108.27       69.386      -7.1393
       148.47       82.795      -9.5329
       70.926       58.153      -4.1254
       78.136       56.301      -6.6144
       92.668       62.163      -7.0729
       127.12       73.922      -8.7439
       51.695       45.314      -3.5499
       47.248        44.41      -3.7389
       87.367       58.653      -7.0363
       141.79       84.515      -9.8411
        32.07       37.882      -4.3208
        73.94       65.246      -5.3183
       75.022        60.24      -5.8894
       67.148       53.652      -3.7096
       129.41       71.012      -9.0055
       74.276       56.234       -6.244
       70.944       54.302      -5.0164