ISO-10303-21;
HEADER;
/* Generated by software containing ST-Developer
 * from STEP Tools, Inc. (www.steptools.com) 
 */

FILE_DESCRIPTION(
/* description */ (''),
/* implementation_level */ '2;1');

FILE_NAME(
/* name */ 
'C:\\Users\\AndrzejPapierok\\Desktop\\DetectionTestCases\\TopEdgeFille
ts\\TopEdgeFilletsConnected2.stp',
/* time_stamp */ '2022-09-07T12:17:17+02:00',
/* author */ ('AndrzejPapierok'),
/* organization */ (''),
/* preprocessor_version */ 'ST-DEVELOPER v19',
/* originating_system */ 'Autodesk Inventor 2023',
/* authorisation */ '');

FILE_SCHEMA (('AUTOMOTIVE_DESIGN { 1 0 10303 214 3 1 1 }'));
ENDSEC;

DATA;
#10=MECHANICAL_DESIGN_GEOMETRIC_PRESENTATION_REPRESENTATION('',(#13),#511);
#11=SHAPE_REPRESENTATION_RELATIONSHIP('SRR','None',#518,#12);
#12=ADVANCED_BREP_SHAPE_REPRESENTATION('',(#14),#510);
#13=STYLED_ITEM('',(#527),#14);
#14=MANIFOLD_SOLID_BREP('Solid1',#276);
#15=PLANE('',#319);
#16=PLANE('',#322);
#17=PLANE('',#325);
#18=PLANE('',#327);
#19=PLANE('',#331);
#20=PLANE('',#332);
#21=SPHERICAL_SURFACE('',#313,2.);
#22=SPHERICAL_SURFACE('',#315,2.);
#23=SPHERICAL_SURFACE('',#328,2.);
#24=(
BOUNDED_SURFACE()
B_SPLINE_SURFACE(2,2,((#442,#443,#444),(#445,#446,#447),(#448,#449,#450)),
 .UNSPECIFIED.,.F.,.F.,.F.)
B_SPLINE_SURFACE_WITH_KNOTS((3,3),(3,3),(-1.5707963267949,0.),(-1.5707963267949,
0.),.UNSPECIFIED.)
GEOMETRIC_REPRESENTATION_ITEM()
RATIONAL_B_SPLINE_SURFACE(((1.,0.707106781186548,1.),(0.707106781186549,
0.500000000000001,0.707106781186549),(1.,0.707106781186548,1.)))
REPRESENTATION_ITEM('')
SURFACE()
);
#25=FACE_OUTER_BOUND('',#43,.T.);
#26=FACE_OUTER_BOUND('',#44,.T.);
#27=FACE_OUTER_BOUND('',#45,.T.);
#28=FACE_OUTER_BOUND('',#46,.T.);
#29=FACE_OUTER_BOUND('',#47,.T.);
#30=FACE_OUTER_BOUND('',#48,.T.);
#31=FACE_OUTER_BOUND('',#49,.T.);
#32=FACE_OUTER_BOUND('',#50,.T.);
#33=FACE_OUTER_BOUND('',#51,.T.);
#34=FACE_OUTER_BOUND('',#52,.T.);
#35=FACE_OUTER_BOUND('',#53,.T.);
#36=FACE_OUTER_BOUND('',#54,.T.);
#37=FACE_OUTER_BOUND('',#55,.T.);
#38=FACE_OUTER_BOUND('',#56,.T.);
#39=FACE_OUTER_BOUND('',#57,.T.);
#40=FACE_OUTER_BOUND('',#58,.T.);
#41=FACE_OUTER_BOUND('',#59,.T.);
#42=FACE_OUTER_BOUND('',#60,.T.);
#43=EDGE_LOOP('',(#176,#177,#178,#179));
#44=EDGE_LOOP('',(#180,#181,#182,#183));
#45=EDGE_LOOP('',(#184,#185,#186,#187));
#46=EDGE_LOOP('',(#188,#189,#190,#191));
#47=EDGE_LOOP('',(#192,#193,#194,#195));
#48=EDGE_LOOP('',(#196,#197,#198));
#49=EDGE_LOOP('',(#199,#200,#201));
#50=EDGE_LOOP('',(#202,#203,#204,#205));
#51=EDGE_LOOP('',(#206,#207,#208,#209,#210));
#52=EDGE_LOOP('',(#211,#212,#213,#214));
#53=EDGE_LOOP('',(#215,#216,#217,#218));
#54=EDGE_LOOP('',(#219,#220,#221,#222));
#55=EDGE_LOOP('',(#223,#224,#225,#226,#227,#228,#229,#230));
#56=EDGE_LOOP('',(#231,#232,#233,#234));
#57=EDGE_LOOP('',(#235,#236,#237));
#58=EDGE_LOOP('',(#238,#239,#240,#241));
#59=EDGE_LOOP('',(#242,#243,#244,#245));
#60=EDGE_LOOP('',(#246,#247,#248,#249));
#61=LINE('',#429,#81);
#62=LINE('',#432,#82);
#63=LINE('',#438,#83);
#64=LINE('',#441,#84);
#65=LINE('',#459,#85);
#66=LINE('',#460,#86);
#67=LINE('',#466,#87);
#68=LINE('',#468,#88);
#69=LINE('',#475,#89);
#70=LINE('',#478,#90);
#71=LINE('',#480,#91);
#72=LINE('',#483,#92);
#73=LINE('',#487,#93);
#74=LINE('',#488,#94);
#75=LINE('',#491,#95);
#76=LINE('',#494,#96);
#77=LINE('',#497,#97);
#78=LINE('',#499,#98);
#79=LINE('',#500,#99);
#80=LINE('',#505,#100);
#81=VECTOR('',#339,10.);
#82=VECTOR('',#342,10.);
#83=VECTOR('',#347,10.);
#84=VECTOR('',#350,10.);
#85=VECTOR('',#361,10.);
#86=VECTOR('',#362,10.);
#87=VECTOR('',#367,10.);
#88=VECTOR('',#370,10.);
#89=VECTOR('',#381,10.);
#90=VECTOR('',#384,10.);
#91=VECTOR('',#387,10.);
#92=VECTOR('',#390,10.);
#93=VECTOR('',#395,10.);
#94=VECTOR('',#396,10.);
#95=VECTOR('',#399,10.);
#96=VECTOR('',#402,10.);
#97=VECTOR('',#405,10.);
#98=VECTOR('',#408,10.);
#99=VECTOR('',#409,10.);
#100=VECTOR('',#418,10.);
#101=CIRCLE('',#300,2.);
#102=CIRCLE('',#301,2.);
#103=CIRCLE('',#303,2.);
#104=CIRCLE('',#304,2.);
#105=CIRCLE('',#305,2.);
#106=CIRCLE('',#306,4.);
#107=CIRCLE('',#307,2.);
#108=CIRCLE('',#309,2.);
#109=CIRCLE('',#311,2.);
#110=CIRCLE('',#312,2.);
#111=CIRCLE('',#314,2.);
#112=CIRCLE('',#316,2.);
#113=CIRCLE('',#318,2.);
#114=CIRCLE('',#321,2.);
#115=CIRCLE('',#324,4.);
#116=CIRCLE('',#326,2.);
#117=CIRCLE('',#329,2.);
#118=VERTEX_POINT('',#425);
#119=VERTEX_POINT('',#426);
#120=VERTEX_POINT('',#428);
#121=VERTEX_POINT('',#430);
#122=VERTEX_POINT('',#434);
#123=VERTEX_POINT('',#435);
#124=VERTEX_POINT('',#437);
#125=VERTEX_POINT('',#439);
#126=VERTEX_POINT('',#451);
#127=VERTEX_POINT('',#452);
#128=VERTEX_POINT('',#457);
#129=VERTEX_POINT('',#462);
#130=VERTEX_POINT('',#463);
#131=VERTEX_POINT('',#465);
#132=VERTEX_POINT('',#474);
#133=VERTEX_POINT('',#476);
#134=VERTEX_POINT('',#482);
#135=VERTEX_POINT('',#486);
#136=VERTEX_POINT('',#490);
#137=VERTEX_POINT('',#492);
#138=VERTEX_POINT('',#496);
#139=EDGE_CURVE('',#118,#119,#101,.T.);
#140=EDGE_CURVE('',#119,#120,#61,.T.);
#141=EDGE_CURVE('',#120,#121,#102,.T.);
#142=EDGE_CURVE('',#121,#118,#62,.T.);
#143=EDGE_CURVE('',#122,#123,#103,.T.);
#144=EDGE_CURVE('',#123,#124,#63,.T.);
#145=EDGE_CURVE('',#124,#125,#104,.T.);
#146=EDGE_CURVE('',#125,#122,#64,.T.);
#147=EDGE_CURVE('',#126,#127,#105,.T.);
#148=EDGE_CURVE('',#127,#123,#106,.T.);
#149=EDGE_CURVE('',#122,#126,#107,.T.);
#150=EDGE_CURVE('',#128,#120,#108,.T.);
#151=EDGE_CURVE('',#120,#127,#65,.T.);
#152=EDGE_CURVE('',#126,#128,#66,.T.);
#153=EDGE_CURVE('',#129,#130,#109,.T.);
#154=EDGE_CURVE('',#130,#131,#67,.T.);
#155=EDGE_CURVE('',#131,#124,#110,.T.);
#156=EDGE_CURVE('',#124,#129,#68,.T.);
#157=EDGE_CURVE('',#131,#125,#111,.T.);
#158=EDGE_CURVE('',#128,#121,#112,.T.);
#159=EDGE_CURVE('',#128,#132,#69,.T.);
#160=EDGE_CURVE('',#132,#133,#113,.F.);
#161=EDGE_CURVE('',#133,#121,#70,.T.);
#162=EDGE_CURVE('',#132,#125,#71,.T.);
#163=EDGE_CURVE('',#131,#134,#72,.T.);
#164=EDGE_CURVE('',#134,#132,#114,.F.);
#165=EDGE_CURVE('',#130,#135,#73,.T.);
#166=EDGE_CURVE('',#134,#135,#74,.T.);
#167=EDGE_CURVE('',#127,#136,#75,.T.);
#168=EDGE_CURVE('',#136,#137,#115,.T.);
#169=EDGE_CURVE('',#137,#123,#76,.T.);
#170=EDGE_CURVE('',#138,#118,#77,.T.);
#171=EDGE_CURVE('',#135,#138,#116,.T.);
#172=EDGE_CURVE('',#137,#129,#78,.T.);
#173=EDGE_CURVE('',#119,#136,#79,.T.);
#174=EDGE_CURVE('',#133,#134,#117,.F.);
#175=EDGE_CURVE('',#138,#133,#80,.T.);
#176=ORIENTED_EDGE('',*,*,#139,.T.);
#177=ORIENTED_EDGE('',*,*,#140,.T.);
#178=ORIENTED_EDGE('',*,*,#141,.T.);
#179=ORIENTED_EDGE('',*,*,#142,.T.);
#180=ORIENTED_EDGE('',*,*,#143,.T.);
#181=ORIENTED_EDGE('',*,*,#144,.T.);
#182=ORIENTED_EDGE('',*,*,#145,.T.);
#183=ORIENTED_EDGE('',*,*,#146,.T.);
#184=ORIENTED_EDGE('',*,*,#147,.T.);
#185=ORIENTED_EDGE('',*,*,#148,.T.);
#186=ORIENTED_EDGE('',*,*,#143,.F.);
#187=ORIENTED_EDGE('',*,*,#149,.T.);
#188=ORIENTED_EDGE('',*,*,#150,.T.);
#189=ORIENTED_EDGE('',*,*,#151,.T.);
#190=ORIENTED_EDGE('',*,*,#147,.F.);
#191=ORIENTED_EDGE('',*,*,#152,.T.);
#192=ORIENTED_EDGE('',*,*,#153,.T.);
#193=ORIENTED_EDGE('',*,*,#154,.T.);
#194=ORIENTED_EDGE('',*,*,#155,.T.);
#195=ORIENTED_EDGE('',*,*,#156,.T.);
#196=ORIENTED_EDGE('',*,*,#155,.F.);
#197=ORIENTED_EDGE('',*,*,#157,.T.);
#198=ORIENTED_EDGE('',*,*,#145,.F.);
#199=ORIENTED_EDGE('',*,*,#150,.F.);
#200=ORIENTED_EDGE('',*,*,#158,.T.);
#201=ORIENTED_EDGE('',*,*,#141,.F.);
#202=ORIENTED_EDGE('',*,*,#158,.F.);
#203=ORIENTED_EDGE('',*,*,#159,.T.);
#204=ORIENTED_EDGE('',*,*,#160,.T.);
#205=ORIENTED_EDGE('',*,*,#161,.T.);
#206=ORIENTED_EDGE('',*,*,#152,.F.);
#207=ORIENTED_EDGE('',*,*,#149,.F.);
#208=ORIENTED_EDGE('',*,*,#146,.F.);
#209=ORIENTED_EDGE('',*,*,#162,.F.);
#210=ORIENTED_EDGE('',*,*,#159,.F.);
#211=ORIENTED_EDGE('',*,*,#157,.F.);
#212=ORIENTED_EDGE('',*,*,#163,.T.);
#213=ORIENTED_EDGE('',*,*,#164,.T.);
#214=ORIENTED_EDGE('',*,*,#162,.T.);
#215=ORIENTED_EDGE('',*,*,#154,.F.);
#216=ORIENTED_EDGE('',*,*,#165,.T.);
#217=ORIENTED_EDGE('',*,*,#166,.F.);
#218=ORIENTED_EDGE('',*,*,#163,.F.);
#219=ORIENTED_EDGE('',*,*,#148,.F.);
#220=ORIENTED_EDGE('',*,*,#167,.T.);
#221=ORIENTED_EDGE('',*,*,#168,.T.);
#222=ORIENTED_EDGE('',*,*,#169,.T.);
#223=ORIENTED_EDGE('',*,*,#139,.F.);
#224=ORIENTED_EDGE('',*,*,#170,.F.);
#225=ORIENTED_EDGE('',*,*,#171,.F.);
#226=ORIENTED_EDGE('',*,*,#165,.F.);
#227=ORIENTED_EDGE('',*,*,#153,.F.);
#228=ORIENTED_EDGE('',*,*,#172,.F.);
#229=ORIENTED_EDGE('',*,*,#168,.F.);
#230=ORIENTED_EDGE('',*,*,#173,.F.);
#231=ORIENTED_EDGE('',*,*,#140,.F.);
#232=ORIENTED_EDGE('',*,*,#173,.T.);
#233=ORIENTED_EDGE('',*,*,#167,.F.);
#234=ORIENTED_EDGE('',*,*,#151,.F.);
#235=ORIENTED_EDGE('',*,*,#164,.F.);
#236=ORIENTED_EDGE('',*,*,#174,.F.);
#237=ORIENTED_EDGE('',*,*,#160,.F.);
#238=ORIENTED_EDGE('',*,*,#171,.T.);
#239=ORIENTED_EDGE('',*,*,#175,.T.);
#240=ORIENTED_EDGE('',*,*,#174,.T.);
#241=ORIENTED_EDGE('',*,*,#166,.T.);
#242=ORIENTED_EDGE('',*,*,#142,.F.);
#243=ORIENTED_EDGE('',*,*,#161,.F.);
#244=ORIENTED_EDGE('',*,*,#175,.F.);
#245=ORIENTED_EDGE('',*,*,#170,.T.);
#246=ORIENTED_EDGE('',*,*,#144,.F.);
#247=ORIENTED_EDGE('',*,*,#169,.F.);
#248=ORIENTED_EDGE('',*,*,#172,.T.);
#249=ORIENTED_EDGE('',*,*,#156,.F.);
#250=CYLINDRICAL_SURFACE('',#299,2.);
#251=CYLINDRICAL_SURFACE('',#302,2.);
#252=CYLINDRICAL_SURFACE('',#308,2.);
#253=CYLINDRICAL_SURFACE('',#310,2.);
#254=CYLINDRICAL_SURFACE('',#317,2.);
#255=CYLINDRICAL_SURFACE('',#320,2.);
#256=CYLINDRICAL_SURFACE('',#323,4.);
#257=CYLINDRICAL_SURFACE('',#330,2.);
#258=ADVANCED_FACE('',(#25),#250,.T.);
#259=ADVANCED_FACE('',(#26),#251,.T.);
#260=ADVANCED_FACE('',(#27),#24,.F.);
#261=ADVANCED_FACE('',(#28),#252,.T.);
#262=ADVANCED_FACE('',(#29),#253,.T.);
#263=ADVANCED_FACE('',(#30),#21,.T.);
#264=ADVANCED_FACE('',(#31),#22,.T.);
#265=ADVANCED_FACE('',(#32),#254,.T.);
#266=ADVANCED_FACE('',(#33),#15,.T.);
#267=ADVANCED_FACE('',(#34),#255,.T.);
#268=ADVANCED_FACE('',(#35),#16,.T.);
#269=ADVANCED_FACE('',(#36),#256,.T.);
#270=ADVANCED_FACE('',(#37),#17,.F.);
#271=ADVANCED_FACE('',(#38),#18,.T.);
#272=ADVANCED_FACE('',(#39),#23,.T.);
#273=ADVANCED_FACE('',(#40),#257,.T.);
#274=ADVANCED_FACE('',(#41),#19,.T.);
#275=ADVANCED_FACE('',(#42),#20,.T.);
#276=CLOSED_SHELL('',(#258,#259,#260,#261,#262,#263,#264,#265,#266,#267,
#268,#269,#270,#271,#272,#273,#274,#275));
#277=DERIVED_UNIT_ELEMENT(#280,1.);
#278=DERIVED_UNIT_ELEMENT(#513,-3.);
#279=DIMENSIONAL_EXPONENTS(1.,0.,0.,0.,0.,0.,0.);
#280=(
CONVERSION_BASED_UNIT('gram',#282)
MASS_UNIT()
NAMED_UNIT(#279)
);
#281=(
MASS_UNIT()
NAMED_UNIT(*)
SI_UNIT(.KILO.,.GRAM.)
);
#282=MASS_MEASURE_WITH_UNIT(MASS_MEASURE(0.001),#281);
#283=DERIVED_UNIT((#277,#278));
#284=MEASURE_REPRESENTATION_ITEM('density measure',
POSITIVE_RATIO_MEASURE(1.),#283);
#285=PROPERTY_DEFINITION_REPRESENTATION(#290,#287);
#286=PROPERTY_DEFINITION_REPRESENTATION(#291,#288);
#287=REPRESENTATION('material name',(#289),#510);
#288=REPRESENTATION('density',(#284),#510);
#289=DESCRIPTIVE_REPRESENTATION_ITEM('Generic','Generic');
#290=PROPERTY_DEFINITION('material property','material name',#520);
#291=PROPERTY_DEFINITION('material property','density of part',#520);
#292=DATE_TIME_ROLE('creation_date');
#293=APPLIED_DATE_AND_TIME_ASSIGNMENT(#294,#292,(#520));
#294=DATE_AND_TIME(#295,#296);
#295=CALENDAR_DATE(2022,7,9);
#296=LOCAL_TIME(0,0,0.,#297);
#297=COORDINATED_UNIVERSAL_TIME_OFFSET(0,0,.BEHIND.);
#298=AXIS2_PLACEMENT_3D('placement',#423,#333,#334);
#299=AXIS2_PLACEMENT_3D('',#424,#335,#336);
#300=AXIS2_PLACEMENT_3D('',#427,#337,#338);
#301=AXIS2_PLACEMENT_3D('',#431,#340,#341);
#302=AXIS2_PLACEMENT_3D('',#433,#343,#344);
#303=AXIS2_PLACEMENT_3D('',#436,#345,#346);
#304=AXIS2_PLACEMENT_3D('',#440,#348,#349);
#305=AXIS2_PLACEMENT_3D('',#453,#351,#352);
#306=AXIS2_PLACEMENT_3D('',#454,#353,#354);
#307=AXIS2_PLACEMENT_3D('',#455,#355,#356);
#308=AXIS2_PLACEMENT_3D('',#456,#357,#358);
#309=AXIS2_PLACEMENT_3D('',#458,#359,#360);
#310=AXIS2_PLACEMENT_3D('',#461,#363,#364);
#311=AXIS2_PLACEMENT_3D('',#464,#365,#366);
#312=AXIS2_PLACEMENT_3D('',#467,#368,#369);
#313=AXIS2_PLACEMENT_3D('',#469,#371,#372);
#314=AXIS2_PLACEMENT_3D('',#470,#373,#374);
#315=AXIS2_PLACEMENT_3D('',#471,#375,#376);
#316=AXIS2_PLACEMENT_3D('',#472,#377,#378);
#317=AXIS2_PLACEMENT_3D('',#473,#379,#380);
#318=AXIS2_PLACEMENT_3D('',#477,#382,#383);
#319=AXIS2_PLACEMENT_3D('',#479,#385,#386);
#320=AXIS2_PLACEMENT_3D('',#481,#388,#389);
#321=AXIS2_PLACEMENT_3D('',#484,#391,#392);
#322=AXIS2_PLACEMENT_3D('',#485,#393,#394);
#323=AXIS2_PLACEMENT_3D('',#489,#397,#398);
#324=AXIS2_PLACEMENT_3D('',#493,#400,#401);
#325=AXIS2_PLACEMENT_3D('',#495,#403,#404);
#326=AXIS2_PLACEMENT_3D('',#498,#406,#407);
#327=AXIS2_PLACEMENT_3D('',#501,#410,#411);
#328=AXIS2_PLACEMENT_3D('',#502,#412,#413);
#329=AXIS2_PLACEMENT_3D('',#503,#414,#415);
#330=AXIS2_PLACEMENT_3D('',#504,#416,#417);
#331=AXIS2_PLACEMENT_3D('',#506,#419,#420);
#332=AXIS2_PLACEMENT_3D('',#507,#421,#422);
#333=DIRECTION('axis',(0.,0.,1.));
#334=DIRECTION('refdir',(1.,0.,0.));
#335=DIRECTION('center_axis',(0.,0.,1.));
#336=DIRECTION('ref_axis',(-0.707106781186548,0.707106781186548,0.));
#337=DIRECTION('center_axis',(0.,0.,1.));
#338=DIRECTION('ref_axis',(-0.707106781186548,0.707106781186548,0.));
#339=DIRECTION('',(0.,0.,1.));
#340=DIRECTION('center_axis',(0.,0.,-1.));
#341=DIRECTION('ref_axis',(-1.,0.,0.));
#342=DIRECTION('',(0.,0.,-1.));
#343=DIRECTION('center_axis',(1.,0.,0.));
#344=DIRECTION('ref_axis',(0.,-0.707106781186547,0.707106781186548));
#345=DIRECTION('center_axis',(1.,0.,0.));
#346=DIRECTION('ref_axis',(0.,0.,1.));
#347=DIRECTION('',(1.,0.,0.));
#348=DIRECTION('center_axis',(-1.,0.,1.11022302462516E-15));
#349=DIRECTION('ref_axis',(0.,-1.,0.));
#350=DIRECTION('',(-1.,0.,0.));
#351=DIRECTION('center_axis',(0.,-1.,0.));
#352=DIRECTION('ref_axis',(0.,0.,1.));
#353=DIRECTION('center_axis',(0.,0.,1.));
#354=DIRECTION('ref_axis',(-0.707106781186548,-0.707106781186548,0.));
#355=DIRECTION('center_axis',(0.,0.,-1.));
#356=DIRECTION('ref_axis',(-0.707106781186548,-0.707106781186548,0.));
#357=DIRECTION('center_axis',(0.,-1.,0.));
#358=DIRECTION('ref_axis',(-0.707106781186547,0.,0.707106781186548));
#359=DIRECTION('center_axis',(0.,-1.,0.));
#360=DIRECTION('ref_axis',(1.11022302462516E-15,0.,1.));
#361=DIRECTION('',(0.,-1.,0.));
#362=DIRECTION('',(0.,1.,0.));
#363=DIRECTION('center_axis',(0.,0.,1.));
#364=DIRECTION('ref_axis',(0.707106781186548,-0.707106781186548,0.));
#365=DIRECTION('center_axis',(0.,0.,1.));
#366=DIRECTION('ref_axis',(0.707106781186548,-0.707106781186548,0.));
#367=DIRECTION('',(0.,0.,1.));
#368=DIRECTION('center_axis',(0.,0.,-1.));
#369=DIRECTION('ref_axis',(1.,0.,0.));
#370=DIRECTION('',(0.,0.,-1.));
#371=DIRECTION('center_axis',(-0.816496580927726,-0.408248290463863,0.408248290463862));
#372=DIRECTION('ref_axis',(0.577350269189625,-0.577350269189627,0.577350269189626));
#373=DIRECTION('center_axis',(0.,-1.,0.));
#374=DIRECTION('ref_axis',(0.707106781186547,0.,0.707106781186548));
#375=DIRECTION('center_axis',(-0.408248290463863,0.408248290463862,-0.816496580927726));
#376=DIRECTION('ref_axis',(-0.577350269189626,0.577350269189625,0.577350269189626));
#377=DIRECTION('center_axis',(-1.,0.,0.));
#378=DIRECTION('ref_axis',(0.,0.707106781186547,0.707106781186548));
#379=DIRECTION('center_axis',(-1.,0.,0.));
#380=DIRECTION('ref_axis',(0.,0.707106781186547,0.707106781186548));
#381=DIRECTION('',(1.,0.,0.));
#382=DIRECTION('center_axis',(1.,1.11022302462516E-15,0.));
#383=DIRECTION('ref_axis',(0.,0.,1.));
#384=DIRECTION('',(-1.,0.,0.));
#385=DIRECTION('center_axis',(0.,0.,1.));
#386=DIRECTION('ref_axis',(1.,0.,0.));
#387=DIRECTION('',(0.,-1.,0.));
#388=DIRECTION('center_axis',(0.,1.,0.));
#389=DIRECTION('ref_axis',(0.707106781186547,0.,0.707106781186548));
#390=DIRECTION('',(0.,1.,0.));
#391=DIRECTION('center_axis',(0.,1.,0.));
#392=DIRECTION('ref_axis',(1.,0.,0.));
#393=DIRECTION('center_axis',(1.,0.,0.));
#394=DIRECTION('ref_axis',(0.,1.,0.));
#395=DIRECTION('',(0.,1.,0.));
#396=DIRECTION('',(0.,0.,-1.));
#397=DIRECTION('center_axis',(0.,0.,1.));
#398=DIRECTION('ref_axis',(-0.707106781186548,-0.707106781186548,0.));
#399=DIRECTION('',(0.,0.,-1.));
#400=DIRECTION('center_axis',(0.,0.,1.));
#401=DIRECTION('ref_axis',(-0.707106781186548,-0.707106781186548,0.));
#402=DIRECTION('',(0.,0.,1.));
#403=DIRECTION('center_axis',(0.,0.,1.));
#404=DIRECTION('ref_axis',(1.,0.,0.));
#405=DIRECTION('',(-1.,0.,0.));
#406=DIRECTION('center_axis',(0.,0.,1.));
#407=DIRECTION('ref_axis',(0.707106781186548,0.707106781186548,0.));
#408=DIRECTION('',(1.,0.,0.));
#409=DIRECTION('',(0.,-1.,0.));
#410=DIRECTION('center_axis',(-1.,0.,0.));
#411=DIRECTION('ref_axis',(0.,-1.,0.));
#412=DIRECTION('center_axis',(0.408248290463863,0.408248290463863,-0.816496580927726));
#413=DIRECTION('ref_axis',(0.577350269189626,0.577350269189626,0.577350269189625));
#414=DIRECTION('center_axis',(0.,0.,1.));
#415=DIRECTION('ref_axis',(0.,1.,0.));
#416=DIRECTION('center_axis',(0.,0.,1.));
#417=DIRECTION('ref_axis',(0.707106781186548,0.707106781186548,0.));
#418=DIRECTION('',(0.,0.,1.));
#419=DIRECTION('center_axis',(0.,1.,0.));
#420=DIRECTION('ref_axis',(-1.,0.,0.));
#421=DIRECTION('center_axis',(0.,-1.,0.));
#422=DIRECTION('ref_axis',(1.,0.,0.));
#423=CARTESIAN_POINT('',(0.,0.,0.));
#424=CARTESIAN_POINT('Origin',(-18.,13.,0.));
#425=CARTESIAN_POINT('',(-18.,15.,0.));
#426=CARTESIAN_POINT('',(-20.,13.,0.));
#427=CARTESIAN_POINT('Origin',(-18.,13.,0.));
#428=CARTESIAN_POINT('',(-20.,13.,8.));
#429=CARTESIAN_POINT('',(-20.,13.,0.));
#430=CARTESIAN_POINT('',(-18.,15.,8.));
#431=CARTESIAN_POINT('Origin',(-18.,13.,8.));
#432=CARTESIAN_POINT('',(-18.,15.,0.));
#433=CARTESIAN_POINT('Origin',(-10.,-13.,8.));
#434=CARTESIAN_POINT('',(-16.,-13.,10.));
#435=CARTESIAN_POINT('',(-16.,-15.,8.));
#436=CARTESIAN_POINT('Origin',(-16.,-13.,8.));
#437=CARTESIAN_POINT('',(18.,-15.,8.));
#438=CARTESIAN_POINT('',(-10.,-15.,8.));
#439=CARTESIAN_POINT('',(18.,-13.,10.));
#440=CARTESIAN_POINT('Origin',(18.,-13.,8.));
#441=CARTESIAN_POINT('',(-10.,-13.,10.));
#442=CARTESIAN_POINT('Ctrl Pts',(-16.,-13.,10.));
#443=CARTESIAN_POINT('Ctrl Pts',(-18.,-13.,10.));
#444=CARTESIAN_POINT('Ctrl Pts',(-18.,-11.,10.));
#445=CARTESIAN_POINT('Ctrl Pts',(-16.,-15.,10.));
#446=CARTESIAN_POINT('Ctrl Pts',(-20.,-15.,10.));
#447=CARTESIAN_POINT('Ctrl Pts',(-20.,-11.,10.));
#448=CARTESIAN_POINT('Ctrl Pts',(-16.,-15.,8.));
#449=CARTESIAN_POINT('Ctrl Pts',(-20.,-15.,8.));
#450=CARTESIAN_POINT('Ctrl Pts',(-20.,-11.,8.));
#451=CARTESIAN_POINT('',(-18.,-11.,10.));
#452=CARTESIAN_POINT('',(-20.,-11.,8.));
#453=CARTESIAN_POINT('Origin',(-18.,-11.,8.));
#454=CARTESIAN_POINT('Origin',(-16.,-11.,8.));
#455=CARTESIAN_POINT('Origin',(-16.,-11.,10.));
#456=CARTESIAN_POINT('Origin',(-18.,7.5,8.));
#457=CARTESIAN_POINT('',(-18.,13.,10.));
#458=CARTESIAN_POINT('Origin',(-18.,13.,8.));
#459=CARTESIAN_POINT('',(-20.,7.5,8.));
#460=CARTESIAN_POINT('',(-18.,7.5,10.));
#461=CARTESIAN_POINT('Origin',(18.,-13.,0.));
#462=CARTESIAN_POINT('',(18.,-15.,0.));
#463=CARTESIAN_POINT('',(20.,-13.,0.));
#464=CARTESIAN_POINT('Origin',(18.,-13.,0.));
#465=CARTESIAN_POINT('',(20.,-13.,8.));
#466=CARTESIAN_POINT('',(20.,-13.,0.));
#467=CARTESIAN_POINT('Origin',(18.,-13.,8.));
#468=CARTESIAN_POINT('',(18.,-15.,0.));
#469=CARTESIAN_POINT('Origin',(18.,-13.,8.));
#470=CARTESIAN_POINT('Origin',(18.,-13.,8.));
#471=CARTESIAN_POINT('Origin',(-18.,13.,8.));
#472=CARTESIAN_POINT('Origin',(-18.,13.,8.));
#473=CARTESIAN_POINT('Origin',(10.,13.,8.));
#474=CARTESIAN_POINT('',(18.,13.,10.));
#475=CARTESIAN_POINT('',(10.,13.,10.));
#476=CARTESIAN_POINT('',(18.,15.,8.));
#477=CARTESIAN_POINT('Origin',(18.,13.,8.));
#478=CARTESIAN_POINT('',(10.,15.,8.));
#479=CARTESIAN_POINT('Origin',(0.,0.,10.));
#480=CARTESIAN_POINT('',(18.,-7.5,10.));
#481=CARTESIAN_POINT('Origin',(18.,-7.5,8.));
#482=CARTESIAN_POINT('',(20.,13.,8.));
#483=CARTESIAN_POINT('',(20.,-7.5,8.));
#484=CARTESIAN_POINT('Origin',(18.,13.,8.));
#485=CARTESIAN_POINT('Origin',(20.,-15.,0.));
#486=CARTESIAN_POINT('',(20.,13.,0.));
#487=CARTESIAN_POINT('',(20.,-15.,0.));
#488=CARTESIAN_POINT('',(20.,13.,0.));
#489=CARTESIAN_POINT('Origin',(-16.,-11.,0.));
#490=CARTESIAN_POINT('',(-20.,-11.,0.));
#491=CARTESIAN_POINT('',(-20.,-11.,0.));
#492=CARTESIAN_POINT('',(-16.,-15.,0.));
#493=CARTESIAN_POINT('Origin',(-16.,-11.,0.));
#494=CARTESIAN_POINT('',(-16.,-15.,0.));
#495=CARTESIAN_POINT('Origin',(0.,0.,0.));
#496=CARTESIAN_POINT('',(18.,15.,0.));
#497=CARTESIAN_POINT('',(20.,15.,0.));
#498=CARTESIAN_POINT('Origin',(18.,13.,0.));
#499=CARTESIAN_POINT('',(-20.,-15.,0.));
#500=CARTESIAN_POINT('',(-20.,15.,0.));
#501=CARTESIAN_POINT('Origin',(-20.,15.,0.));
#502=CARTESIAN_POINT('Origin',(18.,13.,8.));
#503=CARTESIAN_POINT('Origin',(18.,13.,8.));
#504=CARTESIAN_POINT('Origin',(18.,13.,0.));
#505=CARTESIAN_POINT('',(18.,15.,0.));
#506=CARTESIAN_POINT('Origin',(20.,15.,0.));
#507=CARTESIAN_POINT('Origin',(-20.,-15.,0.));
#508=UNCERTAINTY_MEASURE_WITH_UNIT(LENGTH_MEASURE(0.01),#512,
'DISTANCE_ACCURACY_VALUE',
'Maximum model space distance between geometric entities at asserted c
onnectivities');
#509=UNCERTAINTY_MEASURE_WITH_UNIT(LENGTH_MEASURE(0.01),#512,
'DISTANCE_ACCURACY_VALUE',
'Maximum model space distance between geometric entities at asserted c
onnectivities');
#510=(
GEOMETRIC_REPRESENTATION_CONTEXT(3)
GLOBAL_UNCERTAINTY_ASSIGNED_CONTEXT((#508))
GLOBAL_UNIT_ASSIGNED_CONTEXT((#512,#514,#515))
REPRESENTATION_CONTEXT('','3D')
);
#511=(
GEOMETRIC_REPRESENTATION_CONTEXT(3)
GLOBAL_UNCERTAINTY_ASSIGNED_CONTEXT((#509))
GLOBAL_UNIT_ASSIGNED_CONTEXT((#512,#514,#515))
REPRESENTATION_CONTEXT('','3D')
);
#512=(
LENGTH_UNIT()
NAMED_UNIT(*)
SI_UNIT(.MILLI.,.METRE.)
);
#513=(
LENGTH_UNIT()
NAMED_UNIT(*)
SI_UNIT(.CENTI.,.METRE.)
);
#514=(
NAMED_UNIT(*)
PLANE_ANGLE_UNIT()
SI_UNIT($,.RADIAN.)
);
#515=(
NAMED_UNIT(*)
SI_UNIT($,.STERADIAN.)
SOLID_ANGLE_UNIT()
);
#516=SHAPE_DEFINITION_REPRESENTATION(#517,#518);
#517=PRODUCT_DEFINITION_SHAPE('',$,#520);
#518=SHAPE_REPRESENTATION('',(#298),#510);
#519=PRODUCT_DEFINITION_CONTEXT('part definition',#524,'design');
#520=PRODUCT_DEFINITION('Part12','Part12',#521,#519);
#521=PRODUCT_DEFINITION_FORMATION('',$,#526);
#522=PRODUCT_RELATED_PRODUCT_CATEGORY('Part12','Part12',(#526));
#523=APPLICATION_PROTOCOL_DEFINITION('international standard',
'automotive_design',2009,#524);
#524=APPLICATION_CONTEXT(
'Core Data for Automotive Mechanical Design Process');
#525=PRODUCT_CONTEXT('part definition',#524,'mechanical');
#526=PRODUCT('Part12','Part12',$,(#525));
#527=PRESENTATION_STYLE_ASSIGNMENT((#528));
#528=SURFACE_STYLE_USAGE(.BOTH.,#531);
#529=SURFACE_STYLE_RENDERING_WITH_PROPERTIES($,#535,(#530));
#530=SURFACE_STYLE_TRANSPARENT(0.);
#531=SURFACE_SIDE_STYLE('',(#532,#529));
#532=SURFACE_STYLE_FILL_AREA(#533);
#533=FILL_AREA_STYLE('',(#534));
#534=FILL_AREA_STYLE_COLOUR('',#535);
#535=COLOUR_RGB('',0.749019607843137,0.749019607843137,0.749019607843137);
ENDSEC;
END-ISO-10303-21;
