59.2189 6.51391 54.9277
59.2189 6.91651 54.9277
59.2189 7.31911 54.9277
59.2189 7.72171 54.9277
59.2189 8.12431 54.9277
59.2189 8.52691 54.9277
59.2189 8.92951 54.9277
59.2189 9.33211 54.9277
59.2189 9.73471 54.9277
59.2189 10.1373 54.9277
59.2189 10.5399 54.9277
59.2189 10.9425 54.9277
59.2189 11.3451 54.9277
59.2189 11.7477 54.9277
59.2189 12.1503 54.9277
59.2189 12.5529 54.9277
59.2189 12.9555 54.9277
59.2189 13.3581 54.9277
59.2189 13.7607 54.9277
59.2189 14.1633 54.9277
59.2189 14.5659 54.9277
58.8163 6.11131 54.9277
58.8163 6.91651 54.9277
58.8163 7.31911 54.9277
58.8163 7.72171 54.9277
58.8163 8.12431 54.9277
58.8163 8.92951 54.9277
58.8163 9.33211 54.9277
58.8163 9.73471 54.9277
58.8163 10.1373 54.9277
58.8163 10.9425 54.9277
58.8163 11.3451 54.9277
58.8163 11.7477 54.9277
58.8163 12.1503 54.9277
58.8163 12.9555 54.9277
58.8163 13.3581 54.9277
58.8163 13.7607 54.9277
58.8163 14.1633 54.9277
58.8163 14.9685 54.9277
58.4137 5.70871 54.9277
58.4137 6.11131 54.9277
58.4137 6.51391 54.9277
58.4137 6.91651 54.9277
58.4137 7.31911 54.9277
58.4137 7.72171 54.9277
58.4137 8.12431 54.9277
58.4137 8.52691 54.9277
58.4137 8.92951 54.9277
58.4137 9.33211 54.9277
58.4137 9.73471 54.9277
58.4137 10.1373 54.9277
58.4137 10.5399 54.9277
58.4137 10.9425 54.9277
58.4137 11.3451 54.9277
58.4137 11.7477 54.9277
58.4137 12.1503 54.9277
58.4137 12.5529 54.9277
58.4137 12.9555 54.9277
58.4137 13.3581 54.9277
58.4137 13.7607 54.9277
58.4137 14.1633 54.9277
58.4137 14.5659 54.9277
58.4137 14.9685 54.9277
58.4137 15.3711 54.9277
58.0111 5.30611 54.9277
58.0111 5.70871 54.9277
58.0111 6.11131 54.9277
58.0111 6.51391 54.9277
58.0111 6.91651 54.9277
58.0111 7.31911 54.9277
58.0111 7.72171 54.9277
58.0111 8.12431 54.9277
58.0111 8.52691 54.9277
58.0111 8.92951 54.9277
58.0111 9.33211 54.9277
58.0111 9.73471 54.9277
58.0111 10.1373 54.9277
58.0111 10.5399 54.9277
58.0111 10.9425 54.9277
58.0111 11.3451 54.9277
58.0111 11.7477 54.9277
58.0111 12.1503 54.9277
58.0111 12.5529 54.9277
58.0111 12.9555 54.9277
58.0111 13.3581 54.9277
58.0111 13.7607 54.9277
58.0111 14.1633 54.9277
58.0111 14.5659 54.9277
58.0111 14.9685 54.9277
58.0111 15.3711 54.9277
58.0111 15.7737 54.9277
57.6085 4.90351 54.9277
57.6085 5.30611 54.9277
57.6085 5.70871 54.9277
57.6085 6.11131 54.9277
57.6085 6.51391 54.9277
57.6085 6.91651 54.9277
57.6085 7.31911 54.9277
57.6085 7.72171 54.9277
57.6085 8.12431 54.9277
57.6085 8.52691 54.9277
57.6085 8.92951 54.9277
57.6085 9.33211 54.9277
57.6085 9.73471 54.9277
57.6085 10.1373 54.9277
57.6085 10.5399 54.9277
57.6085 10.9425 54.9277
57.6085 11.3451 54.9277
57.6085 11.7477 54.9277
57.6085 12.1503 54.9277
57.6085 12.5529 54.9277
57.6085 12.9555 54.9277
57.6085 13.3581 54.9277
57.6085 13.7607 54.9277
57.6085 14.1633 54.9277
57.6085 14.5659 54.9277
57.6085 14.9685 54.9277
57.6085 15.3711 54.9277
57.6085 15.7737 54.9277
57.6085 16.1763 54.9277
57.2059 4.90351 54.9277
57.2059 5.30611 54.9277
57.2059 5.70871 54.9277
57.2059 6.11131 54.9277
57.2059 6.51391 54.9277
57.2059 7.31911 54.9277
57.2059 7.72171 54.9277
57.2059 8.12431 54.9277
57.2059 8.52691 54.9277
57.2059 8.92951 54.9277
57.2059 9.73471 54.9277
57.2059 10.1373 54.9277
57.2059 10.5399 54.9277
57.2059 10.9425 54.9277
57.2059 11.7477 54.9277
57.2059 12.1503 54.9277
57.2059 12.5529 54.9277
57.2059 12.9555 54.9277
57.2059 13.3581 54.9277
57.2059 13.7607 54.9277
57.2059 14.5659 54.9277
57.2059 14.9685 54.9277
57.2059 15.3711 54.9277
57.2059 15.7737 54.9277
57.2059 16.1763 54.9277
56.8033 4.90351 54.9277
56.8033 5.30611 54.9277
56.8033 5.70871 54.9277
56.8033 6.11131 54.9277
56.8033 6.51391 54.9277
56.8033 6.91651 54.9277
56.8033 7.31911 54.9277
56.8033 7.72171 54.9277
56.8033 8.12431 54.9277
56.8033 8.52691 54.9277
56.8033 8.92951 54.9277
56.8033 9.33211 54.9277
56.8033 9.73471 54.9277
56.8033 10.1373 54.9277
56.8033 10.5399 54.9277
56.8033 10.9425 54.9277
56.8033 11.3451 54.9277
56.8033 11.7477 54.9277
56.8033 12.1503 54.9277
56.8033 12.5529 54.9277
56.8033 12.9555 54.9277
56.8033 13.3581 54.9277
56.8033 13.7607 54.9277
56.8033 14.1633 54.9277
56.8033 14.5659 54.9277
56.8033 14.9685 54.9277
56.8033 15.3711 54.9277
56.8033 15.7737 54.9277
56.8033 16.1763 54.9277
56.4007 4.90351 54.9277
56.4007 5.30611 54.9277
56.4007 5.70871 54.9277
56.4007 6.11131 54.9277
56.4007 6.51391 54.9277
56.4007 6.91651 54.9277
56.4007 7.31911 54.9277
56.4007 7.72171 54.9277
56.4007 8.12431 54.9277
56.4007 8.52691 54.9277
56.4007 8.92951 54.9277
56.4007 9.33211 54.9277
56.4007 9.73471 54.9277
56.4007 10.1373 54.9277
56.4007 10.5399 54.9277
56.4007 10.9425 54.9277
56.4007 11.3451 54.9277
56.4007 11.7477 54.9277
56.4007 12.1503 54.9277
56.4007 12.5529 54.9277
56.4007 12.9555 54.9277
56.4007 13.3581 54.9277
56.4007 13.7607 54.9277
56.4007 14.1633 54.9277
56.4007 14.5659 54.9277
56.4007 14.9685 54.9277
56.4007 15.3711 54.9277
56.4007 15.7737 54.9277
56.4007 16.1763 54.9277
55.9981 4.90351 54.9277
55.9981 5.30611 54.9277
55.9981 5.70871 54.9277
55.9981 6.11131 54.9277
55.9981 6.51391 54.9277
55.9981 6.91651 54.9277
55.9981 7.31911 54.9277
55.9981 7.72171 54.9277
55.9981 8.12431 54.9277
55.9981 8.52691 54.9277
55.9981 8.92951 54.9277
55.9981 9.33211 54.9277
55.9981 9.73471 54.9277
55.9981 10.1373 54.9277
55.9981 10.5399 54.9277
55.9981 10.9425 54.9277
55.9981 11.3451 54.9277
55.9981 11.7477 54.9277
55.9981 12.1503 54.9277
55.9981 12.5529 54.9277
55.9981 12.9555 54.9277
55.9981 13.3581 54.9277
55.9981 13.7607 54.9277
55.9981 14.1633 54.9277
55.9981 14.5659 54.9277
55.9981 14.9685 54.9277
55.9981 15.3711 54.9277
55.9981 15.7737 54.9277
55.9981 16.1763 54.9277
